Division,WeightClassKg,Place,Name,Team,BodyweightKg,Best3SquatKg,Best3BenchKg,Best3DeadliftKg,TotalKg,Equipment,Event,Sex
Boys,51.71,1,Oscar Martel,Laredo United South,50.89,199.58,113.4,197.31,510.29,Single-ply,SBD,M
Boys,51.71,2,Justin Hernandez,Weslaco East,50.89,170.1,92.99,201.85,464.93,Single-ply,SBD,M
Boys,51.71,3,Jordan Wilkerson,Keller Central,51.44,172.37,95.25,185.97,453.59,Single-ply,SBD,M
Boys,51.71,4,Alfredo Barron,Splendora,50.8,174.63,86.18,174.63,435.45,Single-ply,SBD,M
Boys,51.71,5,Davious Murrelle,Greenville,49.8,183.7,74.84,170.1,428.64,Single-ply,SBD,M
Boys,51.71,6,Leo Martinez,Rio Grande City,50.89,154.22,108.86,163.29,426.38,Single-ply,SBD,M
Boys,51.71,7,Everardo Garcia,Roma,51.07,167.83,83.91,172.37,424.11,Single-ply,SBD,M
Boys,51.71,8,Esteban Urquieta,Corpus Christi Tuloso-Midway,50.71,163.29,79.38,174.63,417.3,Single-ply,SBD,M
Boys,51.71,9,Tien Nguyen,Nederland,51.53,158.76,81.65,158.76,399.16,Single-ply,SBD,M
Boys,51.71,10,Anthony Lara,Wolfforth Frenship,50.98,147.42,88.45,156.49,392.36,Single-ply,SBD,M
Boys,51.71,11,Chris Medina,Brownsville Hanna,50.98,149.69,86.18,151.95,387.82,Single-ply,SBD,M
Boys,51.71,12,Eddie Macias,Laredo Nixon,49.44,154.22,95.25,136.08,385.55,Single-ply,SBD,M
Boys,51.71,13,Patrick Dishman,Huntsville,50.8,138.35,79.38,161.03,378.75,Single-ply,SBD,M
Boys,51.71,14,Damian Gonzalez,Roma,50.98,136.08,81.65,154.22,371.95,Single-ply,SBD,M
Boys,51.71,15,Brady Price,Vidor,50.53,136.08,90.72,138.35,365.14,Single-ply,SBD,M
Boys,51.71,16,Eric Samayoa,Burleson,50.08,136.08,70.31,149.69,356.07,Single-ply,SBD,M
Boys,51.71,17,Avery Gallegos,Plainview,50.26,127.01,74.84,133.81,335.66,Single-ply,SBD,M
Boys,51.71,18,Stephen Gaut,Keller Central,51.35,113.4,86.18,136.08,335.66,Single-ply,SBD,M
Boys,51.71,DQ,Robert Norega,Manor,50.89,,,,,Single-ply,SBD,M
Boys,51.71,DQ,Bryan Loera,Brownsville Pace,49.8,,,,,Single-ply,SBD,M
Boys,51.71,DQ,Chase Chapa,Port Lavaca Calhoun,50.26,,,,,Single-ply,SBD,M
Boys,51.71,DQ,Javier Farias,Mission,50.17,,,,,Single-ply,SBD,M
Boys,51.71,DQ,John Ortega,Mercedes,47.99,151.95,88.45,,,Single-ply,SBD,M
Boys,55.79,1,Matthew Longoria,Alvin,55.79,210.92,147.42,192.78,551.11,Single-ply,SBD,M
Boys,55.79,2,Robert Saenz,Sharyland Pioneer,55.79,210.92,131.54,206.38,548.85,Single-ply,SBD,M
Boys,55.79,3,Joel Sanchez #2,Brownsville Veterans Memorial,55.43,201.85,104.33,224.53,530.7,Single-ply,SBD,M
Boys,55.79,4,Michael Casillas,Victoria West,54.34,183.7,111.13,192.78,487.61,Single-ply,SBD,M
Boys,55.79,5,Cameron Saucedo,Kyle Lehman,55.16,192.78,102.06,192.78,487.61,Single-ply,SBD,M
Boys,55.79,6,Jeremiah Zelaya,Victoria East,55.07,190.51,106.59,188.24,485.34,Single-ply,SBD,M
Boys,55.79,7,Ivan Venegas,Dripping Springs,54.79,192.78,104.33,183.7,480.81,Single-ply,SBD,M
Boys,55.79,8,Jessy Yanez,Channelview,54.88,176.9,95.25,190.51,462.66,Single-ply,SBD,M
Boys,55.79,9,Justin Berner,Edinburg North,55.43,179.17,122.47,161.03,462.66,Single-ply,SBD,M
Boys,55.79,10,AJ Trevino,Edinburg,54.61,176.9,115.67,167.83,460.4,Single-ply,SBD,M
Boys,55.79,11,Kevin Trevino,McAllen Memorial,54.98,163.29,108.86,179.17,451.32,Single-ply,SBD,M
Boys,55.79,12,Arlind Queriman,Aledo,54.98,181.44,99.79,165.56,446.79,Single-ply,SBD,M
Boys,55.79,13,Edgar Martinez #3,Edinburg Vela,53.98,165.56,102.06,176.9,444.52,Single-ply,SBD,M
Boys,55.79,14,Mark Ortega,Mercedes,55.07,165.56,102.06,174.63,442.25,Single-ply,SBD,M
Boys,55.79,15,Juan Sanchez #4,Waco,55.43,158.76,99.79,165.56,424.11,Single-ply,SBD,M
Boys,55.79,16,Brady Macaulay,Everman,55.34,147.42,90.72,181.44,419.57,Single-ply,SBD,M
Boys,55.79,17,Kain Gala,Hallsville,53.43,154.22,108.86,149.69,412.77,Single-ply,SBD,M
Boys,55.79,18,Adarius Jones,Manvel,55.79,142.88,88.45,181.44,412.77,Single-ply,SBD,M
Boys,55.79,19,Carter Winegeart,Tyler Lee,55.79,142.88,90.72,165.56,399.16,Single-ply,SBD,M
Boys,55.79,20,Damian Mendoza,Dumas,54.79,113.4,77.11,158.76,349.27,Single-ply,SBD,M
Boys,55.79,DQ,Rushi Patel,College Station,53.71,,,,,Single-ply,SBD,M
Boys,55.79,DQ,Marc Sedillo,San Benito,55.07,,,,,Single-ply,SBD,M
Boys,55.79,DQ,Skyler Steen,Plainview,55.7,,,,,Single-ply,SBD,M
Boys,59.87,1,AJ Ono,Conroe The Woodlands,58.97,215.46,129.27,219.99,564.72,Single-ply,SBD,M
Boys,59.87,2,Jason Jones,Burleson,59.42,219.99,111.13,231.33,562.45,Single-ply,SBD,M
Boys,59.87,3,Edgar Aguirre,Everman,59.24,204.12,115.67,197.31,517.1,Single-ply,SBD,M
Boys,59.87,4,Chris Rios,Rio Grande City,58.97,185.97,124.74,201.85,512.56,Single-ply,SBD,M
Boys,59.87,5,Jose Alcorta,Laredo United South,59.42,199.58,102.06,204.12,505.76,Single-ply,SBD,M
Boys,59.87,6,Trestan Hudnall,Killeen Ellison,59.42,181.44,131.54,188.24,501.22,Single-ply,SBD,M
Boys,59.87,7,Cody Coombs,San Angelo Lake View,58.88,179.17,113.4,183.7,476.27,Single-ply,SBD,M
Boys,59.87,8,Miguel Arroyo,San Angelo Lake View,58.97,179.17,104.33,190.51,474,Single-ply,SBD,M
Boys,59.87,9,Weston Tinsley,Lumberton,58.69,190.51,97.52,179.17,467.2,Single-ply,SBD,M
Boys,59.87,10,Luke Kirkbride,Denison,59.15,174.63,99.79,192.78,467.2,Single-ply,SBD,M
Boys,59.87,DQ,Fabian Bazan,Castroville Medina Valley,58.6,183.7,104.33,,,Single-ply,SBD,M
Boys,59.87,DQ,Hugo Gomez,Edinburg North,59.15,188.24,113.4,,,Single-ply,SBD,M
Boys,67.13,1,Ricky Ortiz #1,Edcouch-Elsa,65.86,272.16,158.76,249.48,680.39,Single-ply,SBD,M
Boys,67.13,2,Abraham Hernandez,La Joya Palmview,66.59,272.16,133.81,272.16,678.12,Single-ply,SBD,M
Boys,67.13,3,Pablo Cavazos,Dickinson,66.59,278.96,124.74,249.48,653.17,Single-ply,SBD,M
Boys,67.13,4,Edgar Benegas,Conroe,65.23,235.87,113.4,235.87,585.13,Single-ply,SBD,M
Boys,67.13,5,Cody Elizalde,Seguin,65.32,226.8,131.54,224.53,582.87,Single-ply,SBD,M
Boys,67.13,6,Juan Rios,Dripping Springs,66.32,226.8,120.2,217.72,564.72,Single-ply,SBD,M
Boys,67.13,7,Cristian Alvarado,Corpus Christi Calallen,66.04,224.53,124.74,210.92,560.19,Single-ply,SBD,M
Boys,67.13,8,Frank Estrada,PSJA Memorial,65.95,215.46,129.27,208.65,553.38,Single-ply,SBD,M
Boys,67.13,9,Chandler Brown,Burleson,67.13,208.65,129.27,210.92,548.85,Single-ply,SBD,M
Boys,67.13,10,Wilson Kirkbride,Denison,64.77,226.8,115.67,204.12,546.58,Single-ply,SBD,M
Boys,67.13,11,Freddy Gonzalez #1,Weslaco East,66.59,210.92,140.61,195.04,546.58,Single-ply,SBD,M
Boys,67.13,12,Nolan Haden,Ennis,63.68,204.12,129.27,195.04,528.44,Single-ply,SBD,M
Boys,67.13,13,Joseph Terrance,Mansfield Timberview,67.13,210.92,129.27,185.97,526.17,Single-ply,SBD,M
Boys,67.13,14,Luis Uruchutu,Canyon Randall,65.68,174.63,111.13,210.92,496.68,Single-ply,SBD,M
Boys,67.13,DQ,Felix Rizo,Brownsville Pace,64.86,,,,,Single-ply,SBD,M
Boys,67.13,DQ,Mike Chavez,Brownsville Hanna,66.59,210.92,120.2,,,Single-ply,SBD,M
Boys,67.13,DQ,Ricardo Pena #1,Rio Grande City,66.13,231.33,136.08,,,Single-ply,SBD,M
Boys,67.13,DQ,Moses Olivarez,McAllen Memorial,66.77,226.8,117.93,,,Single-ply,SBD,M
Boys,67.13,DQ,Ulises Estrada,Odessa,66.32,195.04,115.67,,,Single-ply,SBD,M
Boys,67.13,DQ,Ross Martinez,Midlothian,65.95,,,,,Single-ply,SBD,M
Boys,67.13,DQ,James Traylor,Montgomery,66.04,185.97,124.74,,,Single-ply,SBD,M
Boys,74.84,1,Jose Cumpean,Port Lavaca Calhoun,74.12,267.62,142.88,251.74,662.24,Single-ply,SBD,M
Boys,74.84,2,Joel Garza,Corpus Christi Calallen,73.3,249.48,147.42,254.01,650.91,Single-ply,SBD,M
Boys,74.84,3,Andrew Magedson,Greenville,72.12,258.55,149.69,240.4,648.64,Single-ply,SBD,M
Boys,74.84,4,Jett Ertle,Keller,74.03,249.48,147.42,240.4,637.3,Single-ply,SBD,M
Boys,74.84,5,Ethan Haynes,Burleson,73.48,249.48,142.88,242.67,635.03,Single-ply,SBD,M
Boys,74.84,6,Brandon Palomares,Seguin,70.94,254.01,136.08,242.67,632.76,Single-ply,SBD,M
Boys,74.84,7,Jonathan Chavira,Dumas,73.57,240.4,161.03,226.8,628.23,Single-ply,SBD,M
Boys,74.84,8,Adam Walle,Edcouch-Elsa,74.3,235.87,151.95,240.4,628.23,Single-ply,SBD,M
Boys,74.84,9,Roman Garay,Brownsville Hanna,72.03,260.82,111.13,242.67,614.62,Single-ply,SBD,M
Boys,74.84,10,Noah Moreno,Keller Central,73.39,267.62,142.88,204.12,614.62,Single-ply,SBD,M
Boys,74.84,11,Jose Porras,Brownsville Hanna,71.67,226.8,136.08,240.4,603.28,Single-ply,SBD,M
Boys,74.84,12,Richard Villarreal,San Antonio East Central,73.75,222.26,124.74,249.48,596.47,Single-ply,SBD,M
Boys,74.84,13,Jonathan Casarez,Rio Grande City,71.3,215.46,140.61,238.14,594.21,Single-ply,SBD,M
Boys,74.84,14,Jorge Cavazos,Mercedes,73.3,231.33,147.42,210.92,589.67,Single-ply,SBD,M
Boys,74.84,15,Nestor Jiminez,Midland Lee,73.39,204.12,129.27,235.87,569.26,Single-ply,SBD,M
Boys,74.84,16,Chris Galvan #1,Jacksonville,74.21,219.99,131.54,217.72,569.26,Single-ply,SBD,M
Boys,74.84,17,Kaku Asare,Conroe Woodlands College Park,67.95,226.8,111.13,217.72,555.65,Single-ply,SBD,M
Boys,74.84,DQ,Gabriel Gonzalez,Magnolia West,72.85,224.53,142.88,,,Single-ply,SBD,M
Boys,74.84,DQ,Ricardo Miranda,Los Fresnos,73.66,235.87,147.42,,,Single-ply,SBD,M
Boys,74.84,DQ,Francisco Marin,Weslaco,74.3,254.01,158.76,,,Single-ply,SBD,M
Boys,74.84,DQ,Dwight Roberts,Temple,68.49,210.92,129.27,,,Single-ply,SBD,M
Boys,82.1,1,Matt Hemphill,Dripping Springs,80.92,283.5,174.63,258.55,716.68,Single-ply,SBD,M
Boys,82.1,2,Imanol Ordonez,Weslaco East,80.47,254.01,158.76,263.08,675.85,Single-ply,SBD,M
Boys,82.1,3,Dawson Nobriga,Channelview,80.92,265.35,154.22,240.4,659.98,Single-ply,SBD,M
Boys,82.1,4,Robert La Buff,Weslaco,81.01,249.48,154.22,249.48,653.17,Single-ply,SBD,M
Boys,82.1,5,Franklin Arellano,McAllen,80.01,242.67,149.69,249.48,641.83,Single-ply,SBD,M
Boys,82.1,6,Grayson Porche,Aledo,79.47,238.14,145.15,254.01,637.3,Single-ply,SBD,M
Boys,82.1,7,Steban Mireles,Castroville Medina Valley,80.38,258.55,147.42,231.33,637.3,Single-ply,SBD,M
Boys,82.1,8,Behiran Calderini,Edinburg North,80.56,254.01,129.27,238.14,621.42,Single-ply,SBD,M
Boys,82.1,9,Juan Rojas,Donna,80.56,242.67,131.54,240.4,614.62,Single-ply,SBD,M
Boys,82.1,10,Sebastian Gonzales,Los Fresnos,81.01,251.74,138.35,224.53,614.62,Single-ply,SBD,M
Boys,82.1,11,Jayton DeLeon,Midlothian,79.83,233.6,142.88,235.87,612.35,Single-ply,SBD,M
Boys,82.1,12,Taylor Lipscy,Conroe The Woodlands,79.65,229.06,154.22,226.8,610.08,Single-ply,SBD,M
Boys,82.1,13,Jose Guzman,Donna,81.1,249.48,131.54,229.06,610.08,Single-ply,SBD,M
Boys,82.1,14,Devin Stevenson,Burleson,80.74,231.33,131.54,240.4,603.28,Single-ply,SBD,M
Boys,82.1,15,Khamondre Phillips,Richardson Lake Highlands,80.29,242.67,154.22,199.58,596.47,Single-ply,SBD,M
Boys,82.1,16,Isaiah Nies,Ennis,77.93,240.4,136.08,217.72,594.21,Single-ply,SBD,M
Boys,82.1,17,Bubba Christensen,San Angelo Lake View,76.38,213.19,127.01,199.58,539.77,Single-ply,SBD,M
Boys,82.1,DQ,Jazaih Escamilla,McAllen Memorial,79.2,256.28,,,,Single-ply,SBD,M
Boys,82.1,DQ,Owen Sullivan,Midland Lee,80.29,192.78,145.15,,,Single-ply,SBD,M
Boys,89.81,1,Obed Hernandez,Sharyland Pioneer,88.99,290.3,163.29,276.69,730.28,Single-ply,SBD,M
Boys,89.81,2,Christian Hood,Fort Bend Hightower,87.54,267.62,172.37,281.23,721.21,Single-ply,SBD,M
Boys,89.81,3,Ethan Herron,Weatherford,86.91,272.16,142.88,244.94,659.98,Single-ply,SBD,M
Boys,89.81,4,Brandon Esteves,Brownsville Hanna,89.18,249.48,147.42,260.82,657.71,Single-ply,SBD,M
Boys,89.81,5,Daniel Villarreal,La Joya,88,265.35,142.88,244.94,653.17,Single-ply,SBD,M
Boys,89.81,6,Rey Salazar,Brownsville Veterans Memorial,88.36,240.4,151.95,249.48,641.83,Single-ply,SBD,M
Boys,89.81,7,Manny Arguijo,Del Rio,87,254.01,145.15,238.14,637.3,Single-ply,SBD,M
Boys,89.81,8,James Fullbright,Waco Midway,87.82,254.01,133.81,247.21,635.03,Single-ply,SBD,M
Boys,89.81,9,Ernesto Preciado,Pharr Valley View,89.36,256.28,154.22,224.53,635.03,Single-ply,SBD,M
Boys,89.81,10,Jaime Rios #1,Port Lavaca Calhoun,86.91,249.48,142.88,233.6,625.96,Single-ply,SBD,M
Boys,89.81,11,David Bledsoe,Lindale,86.09,244.94,127.01,249.48,621.42,Single-ply,SBD,M
Boys,89.81,12,Oscar Lucio,Odessa,87.72,226.8,129.27,226.8,582.87,Single-ply,SBD,M
Boys,89.81,13,Landon Sleeper,Keller Central,88.9,217.72,145.15,204.12,566.99,Single-ply,SBD,M
Boys,89.81,DQ,Brek Galbreath,Joshua,86.91,249.48,,,,Single-ply,SBD,M
Boys,89.81,DQ,Kelpatrick Manning,Huntsville,86.36,,,,,Single-ply,SBD,M
Boys,89.81,DQ,Devin Romero,Abilene,88.09,258.55,120.2,,,Single-ply,SBD,M
Boys,89.81,DQ,Trey Keel,Splendora,87.72,256.28,129.27,,,Single-ply,SBD,M
Boys,89.81,DQ,Joel Kayoka,Hurst Bell,88,231.33,131.54,,,Single-ply,SBD,M
Boys,89.81,DQ,Ty Nicholson,Keller Timber Creek,86.09,267.62,147.42,,,Single-ply,SBD,M
Boys,99.79,1,Christian Oviedo,Victoria East,99.34,326.59,204.12,263.08,793.79,Single-ply,SBD,M
Boys,99.79,2,Caleb High,Waxahachie,97.89,303.91,174.63,290.3,768.84,Single-ply,SBD,M
Boys,99.79,3,Andrew English,Port Neches-Groves,96.43,303.91,172.37,254.01,730.28,Single-ply,SBD,M
Boys,99.79,4,Ryan Leal,Buda Hays,97.16,317.51,167.83,244.94,730.28,Single-ply,SBD,M
Boys,99.79,5,Mateo Garcia,San Antonio Memorial,99.7,299.37,145.15,272.16,716.68,Single-ply,SBD,M
Boys,99.79,6,Juan Flores,PSJA,96.8,290.3,174.63,249.48,714.41,Single-ply,SBD,M
Boys,99.79,7,Daniel Parr,Dickinson,98.88,283.5,176.9,254.01,714.41,Single-ply,SBD,M
Boys,99.79,8,Noah Clarkson,Magnolia West,97.16,290.3,179.17,242.67,712.14,Single-ply,SBD,M
Boys,99.79,9,Ty McDaniel,Lindale,99.16,294.84,149.69,267.62,712.14,Single-ply,SBD,M
Boys,99.79,10,Noah Bryson,Magnolia West,97.16,290.3,136.08,254.01,680.39,Single-ply,SBD,M
Boys,99.79,11,Jose Rodriguez #6,Dickinson,96.16,272.16,163.29,235.87,671.32,Single-ply,SBD,M
Boys,99.79,12,Rodney Banks,Keller,97.89,256.28,176.9,235.87,669.05,Single-ply,SBD,M
Boys,99.79,13,Nate Vallejo,Edcouch-Elsa,96.8,254.01,163.29,249.48,666.78,Single-ply,SBD,M
Boys,99.79,14,Cruz Villegas,Everman,97.61,272.16,142.88,249.48,664.51,Single-ply,SBD,M
Boys,99.79,15,Dylan Hipsman,Midlothian,95.53,272.16,111.13,272.16,655.44,Single-ply,SBD,M
Boys,99.79,16,Sylas Montgomery,Port Lavaca Calhoun,95.62,267.62,138.35,249.48,655.44,Single-ply,SBD,M
Boys,99.79,17,Khaled Abu-Alghanam,Odessa Permian,98.34,258.55,163.29,231.33,653.17,Single-ply,SBD,M
Boys,99.79,18,Brandon Diaz,Crosby,97.07,263.08,149.69,238.14,650.91,Single-ply,SBD,M
Boys,99.79,19,Zach Helton,Plano,97.16,263.08,131.54,249.48,644.1,Single-ply,SBD,M
Boys,99.79,20,Isaiah Williams,Wolfforth Frenship,98.16,238.14,154.22,249.48,641.83,Single-ply,SBD,M
Boys,99.79,21,Eddie Hernandez,La Joya Juarez-Lincoln,97.43,256.28,156.49,226.8,639.57,Single-ply,SBD,M
Boys,99.79,22,Malyk Newsome,Everman,98.79,249.48,145.15,226.8,621.42,Single-ply,SBD,M
Boys,99.79,23,Seth Sanchez,Kyle Lehman,96.52,233.6,136.08,235.87,605.55,Single-ply,SBD,M
Boys,99.79,DQ,Federico Ruiz Jr,Corpus Christi Calallen,97.98,317.51,,,,Single-ply,SBD,M
Boys,99.79,DQ,Jorge Villanueva,Pearland,98.34,,,,,Single-ply,SBD,M
Boys,99.79,DQ,Garrett Luensmann,Seguin,97.89,267.62,147.42,,,Single-ply,SBD,M
Boys,109.77,1,Marcos Garza,Edinburg Economedes,105.87,297.1,222.26,281.23,800.59,Single-ply,SBD,M
Boys,109.77,2,Cody Alvarado,Edcouch-Elsa,109.32,317.51,199.58,260.82,777.91,Single-ply,SBD,M
Boys,109.77,3,Jacob Banda,Weslaco East,107.14,294.84,183.7,283.5,762.04,Single-ply,SBD,M
Boys,109.77,4,Lazaro Garcia,South Garland,108.32,308.44,170.1,269.89,748.43,Single-ply,SBD,M
Boys,109.77,5,Thomas Godi,Burleson Centennial,107.95,294.84,185.97,265.35,746.16,Single-ply,SBD,M
Boys,109.77,6,Oscar Juarez,Edinburg,106.05,294.84,208.65,240.4,743.89,Single-ply,SBD,M
Boys,109.77,7,Tyler Ray,Santa Fe,109.04,297.1,176.9,256.28,730.28,Single-ply,SBD,M
Boys,109.77,8,Jamie Cortez,Royse City,108.14,306.17,142.88,272.16,721.21,Single-ply,SBD,M
Boys,109.77,9,March Thomas,Lufkin,109.04,267.62,190.51,256.28,714.41,Single-ply,SBD,M
Boys,109.77,10,Celestino Alvarez,Victoria East,103.06,306.17,151.95,254.01,712.14,Single-ply,SBD,M
Boys,109.77,11,Adrien Martinez,Brownsville Hanna,107.77,317.51,142.88,251.74,712.14,Single-ply,SBD,M
Boys,109.77,12,Arturo Jaimes,Belton,104.14,276.69,151.95,272.16,700.8,Single-ply,SBD,M
Boys,109.77,13,Jesus Benitez,Lubbock Cooper,106.68,299.37,151.95,249.48,700.8,Single-ply,SBD,M
Boys,109.77,14,Jason Umanzor,Granbury,105.78,288.03,165.56,238.14,691.73,Single-ply,SBD,M
Boys,109.77,15,Sean Payne,Keller,105.69,272.16,174.63,242.67,689.46,Single-ply,SBD,M
Boys,109.77,16,Blake Edgington,Joshua,106.14,272.16,145.15,272.16,689.46,Single-ply,SBD,M
Boys,109.77,17,Jose Mendoza #1,Del Rio,106.96,276.69,172.37,240.4,689.46,Single-ply,SBD,M
Boys,109.77,18,Dylan Weaver,Conroe,106.59,272.16,124.74,276.69,673.58,Single-ply,SBD,M
Boys,109.77,19,Keane Davis,Seguin,107.68,249.48,161.03,260.82,671.32,Single-ply,SBD,M
Boys,109.77,20,Juan Martinez,La Joya Juarez-Lincoln,106.14,272.16,156.49,240.4,669.05,Single-ply,SBD,M
Boys,109.77,21,Ian Blanch,Sulphur Springs,107.5,272.16,154.22,238.14,664.51,Single-ply,SBD,M
Boys,109.77,22,Kade Ashley,Lucas Lovejoy,100.15,260.82,176.9,215.46,653.17,Single-ply,SBD,M
Boys,109.77,DQ,Kevin Nguyen #9,Friendswood Clear Brook,107.14,,,,,Single-ply,SBD,M
Boys,109.77,DQ,D'Idrec Dugan,Sulphur Springs,107.41,272.16,154.22,,,Single-ply,SBD,M
Boys,109.77,DQ,O'Ryan Farley,Odessa Permian,109.77,249.48,172.37,,,Single-ply,SBD,M
Boys,124.74,1,Jorge Soto,Edcouch-Elsa,122.47,308.44,244.94,272.16,825.54,Single-ply,SBD,M
Boys,124.74,2,Justin Garza,Brownsville Rivera,120.56,340.19,167.83,285.76,793.79,Single-ply,SBD,M
Boys,124.74,3,Jaterrius Pleasant,Burleson,124.38,292.57,188.24,297.1,777.91,Single-ply,SBD,M
Boys,124.74,4,Luis Salinas,Rio Grande City,122.38,283.5,185.97,301.64,771.11,Single-ply,SBD,M
Boys,124.74,5,Willie Tutt,Everman,122.65,328.85,142.88,278.96,750.7,Single-ply,SBD,M
Boys,124.74,6,Octavius Vera,Plainview,114.76,322.05,161.03,263.08,746.16,Single-ply,SBD,M
Boys,124.74,7,Clifford Chambers,Bryan Rudder,121.83,340.19,167.83,226.8,734.82,Single-ply,SBD,M
Boys,124.74,8,Cecil Johnson,Hallsville,120.38,285.76,163.29,267.62,716.68,Single-ply,SBD,M
Boys,124.74,9,Aliver Chapa,La Joya Juarez-Lincoln,118.02,276.69,201.85,235.87,714.41,Single-ply,SBD,M
Boys,124.74,10,Joshua Williams,Mission Sharyland,123.47,288.03,170.1,254.01,712.14,Single-ply,SBD,M
Boys,124.74,11,Thomas Ratka,Alvin,121.65,288.03,174.63,244.94,707.6,Single-ply,SBD,M
Boys,124.74,12,Imanol Rodriguez,Edcouch-Elsa,118.39,294.84,181.44,226.8,703.07,Single-ply,SBD,M
Boys,124.74,13,Myriel Jaramillo,Laredo Johnson,123.2,306.17,170.1,226.8,703.07,Single-ply,SBD,M
Boys,124.74,14,Duane Johnson,Midlothian,121.47,254.01,176.9,258.55,689.46,Single-ply,SBD,M
Boys,124.74,15,Carson Shaffer,Prosper,121.74,249.48,204.12,226.8,680.39,Single-ply,SBD,M
Boys,124.74,16,Caleb Zerrato,PSJA Memorial,112.94,283.5,149.69,222.26,655.44,Single-ply,SBD,M
Boys,124.74,17,Nathan Sanchez #2,Odessa,117.3,242.67,151.95,247.21,641.83,Single-ply,SBD,M
Boys,124.74,DQ,Jesse Facundo,Pasadena Memorial,124.28,312.98,170.1,,,Single-ply,SBD,M
Boys,124.74,DQ,Antares Gillespie,Killeen Ellison,114.85,,,,,Single-ply,SBD,M
Boys,124.74,DQ,Juan Rivas,La Joya Palmview,119.39,317.51,,,,Single-ply,SBD,M
Boys,124.74,DQ,Raul Sandoval,Granbury,117.21,285.76,188.24,,,Single-ply,SBD,M
Boys,124.74,DQ,Marcus Garza,Conroe Caney Creek,115.3,,,,,Single-ply,SBD,M
Boys,124.74+,1,Caleb Reed,Everman,133.9,340.19,181.44,285.76,807.39,Single-ply,SBD,M
Boys,124.74+,2,Arturo Ochoa,McAllen,139.71,317.51,210.92,254.01,782.45,Single-ply,SBD,M
Boys,124.74+,3,Julio Hernandez,Brownsville Pace,134.63,326.59,190.51,260.82,777.91,Single-ply,SBD,M
Boys,124.74+,4,Izeya Floyd,Frisco Reedy,143.15,310.71,185.97,281.23,777.91,Single-ply,SBD,M
Boys,124.74+,5,Brandon Bobino,Huntsville,160.21,335.66,174.63,247.21,757.5,Single-ply,SBD,M
Boys,124.74+,6,Keith Jackson II,Killeen Ellison,172.55,317.51,181.44,249.48,748.43,Single-ply,SBD,M
Boys,124.74+,7,Bernard Childs,Channelview,148.87,306.17,154.22,276.69,737.09,Single-ply,SBD,M
Boys,124.74+,8,Alex Rodriguez #2,La Joya,153.31,317.51,192.78,226.8,737.09,Single-ply,SBD,M
Boys,124.74+,9,Carl Williams,Lufkin,146.87,297.1,163.29,272.16,732.55,Single-ply,SBD,M
Boys,124.74+,10,Richard Cuellar,Cleburne,134.17,337.93,199.58,192.78,730.28,Single-ply,SBD,M
Boys,124.74+,11,JD Williams,Montgomery,133.08,290.3,172.37,251.74,714.41,Single-ply,SBD,M
Boys,124.74+,12,Danny Melendez,Mercedes,126.82,285.76,172.37,242.67,700.8,Single-ply,SBD,M
Boys,124.74+,13,Leo Madera,Port Lavaca Calhoun,146.33,283.5,172.37,235.87,691.73,Single-ply,SBD,M
Boys,124.74+,DQ,Jeremiah Cope,Wolfforth Frenship,133.72,283.5,,,,Single-ply,SBD,M
Boys,124.74+,DQ,Vincent Nakeveyon,Waco,171.37,,,,,Single-ply,SBD,M
Boys,124.74+,DQ,Eli Hernandez,Dumas,125.01,233.6,154.22,,,Single-ply,SBD,M
Boys,124.74+,DQ,Sebastian Garcia,Brownsville Hanna,136.44,322.05,190.51,,,Single-ply,SBD,M
Boys,124.74+,DQ,Derrick Rigsby,Huntsville,147.87,308.44,183.7,,,Single-ply,SBD,M
