﻿BELGIUM DRUG FREE POWERLIFTING FEDERATION
BK. SQUAT EQUIPPED 2012
                                            W.Class                                                                                       1é      2é       3é      4      points
1                                           - 44 KG Van Casteren      Hanne       V    Gilberts Gym                     14   T1   40,0    45      50       55             65,66
1                                           - 63 KG Wuyts             Helen       V    Gilberts Gym                     21   JR   62,4    145     152,5    160            133,18
1                                           - 80 KG Dechamps          Nadege      V                   Castors           16   T2   76,3    150     160      170            121,16
1                                           52 KG De Lauw             Luc         M                   Plannet Fitness   47   M2   51,0    70      75       80             77,87
1                                           56 KG Vermeulen           Sven        M      Iso Gym                        20   JR   55,1    100     110      -120           97,97
1                                           67,5 KG Bruneel           Angelo      M                   Isogym            19   T3   63,9    130     -145     -145           99,27
1                                           67,5 KG Houbraken         Kim         M                   Gilberts Gym      29   SR   67,3    172,5   -180     0              125,55
2                                           67,5 KG Van den Abbeele   Tim         M                   Gilberts Gym      24   SR   62,2    150     155      0              121,50
1                                           75 KG Cuylle              Angelo      M                   Isogym            19   T3   73,4    182,5   195      -200           131,82
1                                           75 KG Jacmart             Jeremy      M                   Castors           21   JR   70,6    170     180      -190           125,64
1                                           75 KG Hallewaert          Bart        M                   Isogym            43   M1   75,0    200     215      222,5          147,85
1                                           82,5 KG Sudarminto        Indra       M                   Planet Fitness    21   JR   76,6    240     255      265            173,23
2                                           82,5 KG Soenens           Gillis      M                   Isogym            22   JR   78,1    150     160      170            109,51
1                                           90 KG Dejans              Angelo      M                   KBBC              24   SR   86,1    120     130      -150           78,23
1                                           90 KG Janssen             Geert       M                   Gilberts Gym      44   M1   83,1    140     150      160            98,59
1                                           90 KG Verbeke             Beny        M                   Isogym            47   M2   86,0    215     235      245     -253   147,54
1                                           90 KG Theyssens           Martin      M                   Patton Team       73   M7   89,0    115     125                     73,66
1                                           100 KG Velghe             Jonas       M                   Isogym            20   JR   96,6    220     -230     -235           123,86
1                                           100 KG Vermote            Gianni      M                   Isogym            40   M1   99,4    260     -272,5   272,5   -280   151,37
1                                           125 KG Golsteyn           Bart        M                   Isogym            47   M2   120,1   180     190      200            105,38
1                                           125 KG Van Hove           Gilbert     M                   Castors           62   M5   118,2   40                              21,14
1                                           145 KG Dechamps           Sebastien   M                   Castors           19   T3   130,7   300     -315                    154,23
1                                           145 KG Dechamps           Jerome      M                   Castors           24   SR   128,8   250     -280                    129,10
Nat Record                                  World Record
European Record                             Best Lifter
9 - 12 - 2012 Florennes
