Division,WeightClassKg,Place,Name,Team,BodyweightKg,Best3SquatKg,Best3BenchKg,Best3DeadliftKg,TotalKg,Equipment,Event,Sex
Boys,51.71,1,Ryan Dean,Waco Midway,51.26,131.54,74.84,136.08,342.46,Single-ply,SBD,M
Boys,51.71,2,Abe Villareal,Belton,51.26,127.01,68.04,145.15,340.19,Single-ply,SBD,M
Boys,51.71,3,Delante Adkinson,Temple,51.07,92.99,61.23,140.61,294.84,Single-ply,SBD,M
Boys,51.71,4,Eliazar Venegas,Waco Midway,45.36,86.18,54.43,97.52,238.14,Single-ply,SBD,M
Boys,55.79,1,Dwight Roberts,Temple,55.52,131.54,72.57,136.08,340.19,Single-ply,SBD,M
Boys,55.79,2,Bryce Ranes,Copperas Cove,55.43,92.99,54.43,113.4,260.82,Single-ply,SBD,M
Boys,59.87,3,Garrett Cooper,Waco Midway,55.93,88.45,56.7,88.45,233.6,Single-ply,SBD,M
Boys,59.87,1,Tye Ochoa,Temple,58.88,163.29,86.18,163.29,412.77,Single-ply,SBD,M
Boys,59.87,2,Quintin Cannon,Temple,59.78,145.15,90.72,163.29,399.16,Single-ply,SBD,M
Boys,59.87,3,Estefano Lopez,Waco University,59.24,142.88,83.91,151.95,378.75,Single-ply,SBD,M
Boys,59.87,4,Marcus Stafford,Belton,56.61,115.67,70.31,129.27,315.25,Single-ply,SBD,M
Boys,59.87,5,Dereon Kizzee,Pflugerville Connally,58.88,102.06,72.57,138.35,312.98,Single-ply,SBD,M
Boys,67.13,6,Layne Sullivan,Waco Midway,60.1,83.91,68.04,120.2,272.16,Single-ply,SBD,M
Boys,59.87,7,Max Madison,Waco Midway,57.42,54.43,27.22,61.23,142.88,Single-ply,SBD,M
Boys,74.84,1,Treston Womack,Waco Midway,67.31,181.44,111.13,190.51,483.08,Single-ply,SBD,M
Boys,67.13,2,Bradley Schwartzengraber,Copperas Cove,66.68,170.1,115.67,170.1,455.86,Single-ply,SBD,M
Boys,67.13,3,Jordan Lawrence,Pflugerville Connally,66.86,136.08,102.06,185.97,424.11,Single-ply,SBD,M
Boys,74.84,4,De'vante Nealy,Temple,67.22,147.42,92.99,181.44,421.84,Single-ply,SBD,M
Boys,67.13,5,Zach Reid,Dripping Springs,63.96,147.42,97.52,158.76,403.7,Single-ply,SBD,M
Boys,67.13,6,Kris Glynn,Waco University,64.32,142.88,79.38,181.44,403.7,Single-ply,SBD,M
Boys,67.13,7,Dominique Bishop,Waco,66.59,156.49,83.91,158.76,399.16,Single-ply,SBD,M
Boys,67.13,8,Braden Schaffer,Belton,65.41,142.88,102.06,145.15,390.09,Single-ply,SBD,M
Boys,74.84,9,Wesley Johnson #2,Temple,67.22,136.08,68.04,172.37,376.48,Single-ply,SBD,M
Boys,67.13,10,Albert Trinidad,Copperas Cove,62.23,142.88,83.91,138.35,365.14,Single-ply,SBD,M
Boys,67.13,11,Marquivion Williams,Waco,66.86,129.27,83.91,138.35,351.53,Single-ply,SBD,M
Boys,67.13,12,Matthew Espinoza,Waco Midway,62.23,124.74,83.91,140.61,349.27,Single-ply,SBD,M
Boys,74.84,13,Abraham Franco,Waco University,67.31,113.4,72.57,138.35,324.32,Single-ply,SBD,M
Boys,67.13,14,Aaron Taylor,Copperas Cove,62.41,117.93,86.18,115.67,319.78,Single-ply,SBD,M
Boys,74.84,15,Miles Griffith,Waco Midway,67.31,97.52,88.45,115.67,301.64,Single-ply,SBD,M
Boys,67.13,16,Issiah Mcgriff,Copperas Cove,66.68,142.88,,,142.88,Single-ply,S,M
Boys,74.84,1,Jonathan Quiroga,Waco University,68.4,170.1,129.27,183.7,483.08,Single-ply,SBD,M
Boys,74.84,2,Malik Stoutamire,Temple,72.94,174.63,113.4,195.04,483.08,Single-ply,SBD,M
Boys,74.84,3,Cairo Attaway,Waco Midway,70.94,154.22,124.74,195.04,474,Single-ply,SBD,M
Boys,74.84,4,John Allen,Copperas Cove,73.03,188.24,113.4,170.1,471.74,Single-ply,SBD,M
Boys,74.84,5,Omar Essix,Waco,73.94,183.7,90.72,190.51,464.93,Single-ply,SBD,M
Boys,74.84,6,Miguel Anderson,Waco Midway,72.57,161.03,108.86,185.97,455.86,Single-ply,SBD,M
Boys,74.84,7,Jeremiah Walker,Waco University,70.58,161.03,92.99,183.7,437.72,Single-ply,SBD,M
Boys,74.84,8,Teondre Parsons,Waco University,73.75,174.63,97.52,158.76,430.91,Single-ply,SBD,M
Boys,74.84,9,Brandon Hunt,Belton,67.86,170.1,86.18,170.1,426.38,Single-ply,SBD,M
Boys,74.84,10,Jacob Lewallen,Belton,72.94,151.95,83.91,179.17,415.04,Single-ply,SBD,M
Boys,74.84,11,Kenu Camacho,Copperas Cove,70.49,156.49,90.72,165.56,412.77,Single-ply,SBD,M
Boys,74.84,12,Jalen Paredes-Rios,Temple,73.39,154.22,95.25,158.76,408.23,Single-ply,SBD,M
Boys,74.84,13,Bralon Buhl,Temple,74.21,149.69,79.38,149.69,378.75,Single-ply,SBD,M
Boys,74.84,14,Isreal Camero,Waco University,71.67,113.4,102.06,142.88,358.34,Single-ply,SBD,M
Boys,74.84,15,Noah Ricks,Dripping Springs,73.21,127.01,81.65,122.47,331.12,Single-ply,SBD,M
Boys,74.84,DQ,Preston Reading,Pflugerville Connally,74.3,138.35,,167.83,,Single-ply,SBD,M
Boys,82.1,1,Ezekiel Jordan,Copperas Cove,81.37,197.31,104.33,210.92,512.56,Single-ply,SBD,M
Boys,82.1,2,Carlos Borbon,Temple,81.1,181.44,122.47,206.38,510.29,Single-ply,SBD,M
Boys,82.1,3,Phillip Wilson,Pflugerville Connally,81.47,199.58,117.93,174.63,492.15,Single-ply,SBD,M
Boys,82.1,4,Jeremy Rowe,Waco Midway,76.66,165.56,124.74,188.24,478.54,Single-ply,SBD,M
Boys,82.1,5,Ryan Buehler,Dripping Springs,81.74,181.44,122.47,167.83,471.74,Single-ply,SBD,M
Boys,89.81,6,Karim Mungnia,Pflugerville Connally,82.28,165.56,92.99,188.24,446.79,Single-ply,SBD,M
Boys,82.1,7,Danny Gutierrez,Waco,82.01,167.83,97.52,167.83,433.18,Single-ply,SBD,M
Boys,82.1,8,Shamad Lomax,Copperas Cove,81.28,167.83,99.79,163.29,430.91,Single-ply,SBD,M
Boys,89.81,9,Corey Mann,Temple,82.19,163.29,90.72,174.63,428.64,Single-ply,SBD,M
Boys,82.1,10,Elijah Jordan,Copperas Cove,77.2,165.56,97.52,158.76,421.84,Single-ply,SBD,M
Boys,82.1,11,Ronique Williamson,Copperas Cove,81.83,165.56,99.79,149.69,415.04,Single-ply,SBD,M
Boys,82.1,12,Duncan Nichols,Waco Midway,81.56,151.95,88.45,167.83,408.23,Single-ply,SBD,M
Boys,82.1,13,Austin Hall,Pflugerville Connally,78.74,129.27,79.38,158.76,367.41,Single-ply,SBD,M
Boys,82.1,14,Chris Sapp,Pflugerville Connally,76.75,131.54,77.11,151.95,360.61,Single-ply,SBD,M
Boys,82.1,15,Alex Phillips,Waco Midway,80.56,127.01,83.91,131.54,342.46,Single-ply,SBD,M
Boys,82.1,16,David Benton,Waco Midway,77.66,115.67,92.99,124.74,333.39,Single-ply,SBD,M
Boys,82.1,17,Ethan Leuholtz,Waco Midway,76.84,74.84,52.16,102.06,229.06,Single-ply,SBD,M
Boys,89.81,1,Joe Warehime,Belton,85.46,201.85,133.81,192.78,528.44,Single-ply,SBD,M
Boys,89.81,2,Zach Haverly,Waco Midway,88.54,206.38,113.4,208.65,528.44,Single-ply,SBD,M
Boys,89.81,3,Jerimiah Leyba,Belton,86.09,204.12,111.13,199.58,514.83,Single-ply,SBD,M
Boys,89.81,4,George Neef,Dripping Springs,87.91,208.65,102.06,204.12,514.83,Single-ply,SBD,M
Boys,99.79,5,Andy Owen,Waco Midway,90.04,192.78,122.47,195.04,510.29,Single-ply,SBD,M
Boys,89.81,6,Spencer Majors,Waco University,85.28,192.78,111.13,204.12,508.02,Single-ply,SBD,M
Boys,89.81,7,John Harvey,Belton,86.73,199.58,113.4,192.78,505.76,Single-ply,SBD,M
Boys,89.81,8,Eric Cuffee,Waco,84.37,181.44,122.47,185.97,489.88,Single-ply,SBD,M
Boys,89.81,9,Buddy Curry,Belton,88.27,195.04,117.93,174.63,487.61,Single-ply,SBD,M
Boys,89.81,10,Dwain Richie,Waco,86.36,176.9,83.91,192.78,453.59,Single-ply,SBD,M
Boys,89.81,11,Adrian Williams,Pflugerville Connally,88.9,154.22,104.33,192.78,451.32,Single-ply,SBD,M
Boys,89.81,12,CJ Jones,Belton,85.64,142.88,102.06,197.31,442.25,Single-ply,SBD,M
Boys,89.81,13,Noah Duran,Belton,86.55,172.37,86.18,172.37,430.91,Single-ply,SBD,M
Boys,89.81,14,Chris Anderson #10,Pflugerville Connally,88.81,129.27,83.91,161.03,374.21,Single-ply,SBD,M
Boys,89.81,15,Nick Mohan,Waco Midway,87.82,120.2,88.45,163.29,371.95,Single-ply,SBD,M
Boys,89.81,16,Kenneth Garrett,Waco Midway,89.36,138.35,83.91,138.35,360.61,Single-ply,SBD,M
Boys,99.79,1,Roderick Harris,Waco,99.25,265.35,131.54,226.8,623.69,Single-ply,SBD,M
Boys,99.79,2,Sebastian Bravo,Waco University,93.98,215.46,102.06,204.12,521.63,Single-ply,SBD,M
Boys,99.79,3,Ethan Scruggs,Copperas Cove,96.52,210.92,117.93,190.51,519.36,Single-ply,SBD,M
Boys,99.79,4,Cody Garrett,Belton,98.52,190.51,106.59,192.78,489.88,Single-ply,SBD,M
Boys,99.79,5,Carnealus Manning,Waco,97.79,190.51,106.59,190.51,487.61,Single-ply,SBD,M
Boys,99.79,6,DJ Fischer,Belton,99.06,174.63,92.99,208.65,476.27,Single-ply,SBD,M
Boys,99.79,7,Bryce Avila,Belton,95.44,158.76,106.59,142.88,408.23,Single-ply,SBD,M
Boys,99.79,8,Jordan Jackson,Pflugerville Connally,92.17,138.35,88.45,167.83,394.63,Single-ply,SBD,M
Boys,99.79,9,Daylon Moorefield,Waco Midway,94.8,113.4,97.52,172.37,383.29,Single-ply,SBD,M
Boys,99.79,DQ,Sean Adams,Copperas Cove,95.98,165.56,,183.7,,Single-ply,SBD,M
Boys,109.77,1,Derrick Moore,Waco,108.05,265.35,145.15,249.48,659.98,Single-ply,SBD,M
Boys,124.74,2,Jon Ladner,Waco Midway,109.91,272.16,158.76,204.12,635.03,Single-ply,SBD,M
Boys,109.77,3,Shakanah Herrera,Copperas Cove,106.68,215.46,147.42,215.46,578.33,Single-ply,SBD,M
Boys,109.77,4,Anthony Flowers,Waco Midway,102.51,204.12,127.01,183.7,514.83,Single-ply,SBD,M
Boys,109.77,5,Jamies Arturo,Belton,103.15,172.37,106.59,215.46,494.42,Single-ply,SBD,M
Boys,109.77,6,Dexter Elmore,Waco University,104.96,192.78,113.4,188.24,494.42,Single-ply,SBD,M
Boys,109.77,7,Ethan Brown,Temple,101.6,174.63,106.59,190.51,471.74,Single-ply,SBD,M
Boys,109.77,8,TaQuan Graham,Temple,103.15,158.76,106.59,185.97,451.32,Single-ply,SBD,M
Boys,109.77,9,Tairhek Kerley,Pflugerville Connally,104.24,183.7,90.72,174.63,449.06,Single-ply,SBD,M
Boys,109.77,10,Fernando Ramirez,Copperas Cove,101.6,183.7,95.25,165.56,444.52,Single-ply,SBD,M
Boys,109.77,11,Joshua Tran,Pflugerville Connally,104.42,158.76,108.86,176.9,444.52,Single-ply,SBD,M
Boys,109.77,12,Joseph Morrison,Copperas Cove,107.68,181.44,92.99,165.56,439.98,Single-ply,SBD,M
Boys,109.77,13,Marquise Haynes,Waco Midway,103.42,165.56,104.33,154.22,424.11,Single-ply,SBD,M
Boys,109.77,14,Matthew Douglas,Belton,105.87,161.03,104.33,158.76,424.11,Single-ply,SBD,M
Boys,109.77,15,Jerod Jackson,Belton,104.05,145.15,102.06,161.03,408.23,Single-ply,SBD,M
Boys,109.77,16,Teyoderick Thompson,Waco Midway,105.05,129.27,92.99,151.95,374.21,Single-ply,SBD,M
Boys,124.74,1,Jose Lopez,Temple,121.65,249.48,158.76,238.14,646.37,Single-ply,SBD,M
Boys,124.74,2,Braden Martinez,Belton,121.83,251.74,133.81,244.94,630.49,Single-ply,SBD,M
Boys,124.74,3,Alex Ramirez,Copperas Cove,124.51,240.4,117.93,258.55,616.89,Single-ply,SBD,M
Boys,124.74,4,Travis Lock,Temple,117.03,235.87,142.88,231.33,610.08,Single-ply,SBD,M
Boys,124.74,5,Chase Hall,Pflugerville Connally,116.12,183.7,122.47,204.12,510.29,Single-ply,SBD,M
Boys,124.74,6,Jonathan Esqueda,Waco,122.83,213.19,102.06,195.04,510.29,Single-ply,SBD,M
Boys,124.74,7,Will Drake,Belton,119.29,185.97,102.06,192.78,480.81,Single-ply,SBD,M
Boys,124.74,8,Tobar Isiah,Belton,120.29,176.9,97.52,195.04,469.47,Single-ply,SBD,M
Boys,124.74,9,Hakeem White,Waco Midway,117.66,167.83,111.13,181.44,460.4,Single-ply,SBD,M
Boys,124.74,10,Jaxon Players,Waco Midway,119.48,156.49,122.47,165.56,444.52,Single-ply,SBD,M
Boys,124.74,11,Darren Harris,Temple,112.67,158.76,90.72,181.44,430.91,Single-ply,SBD,M
Boys,124.74,12,Brian Holiday,Waco Midway,120.29,161.03,111.13,156.49,428.64,Single-ply,SBD,M
Boys,124.74,13,Austin Moreno,Pflugerville Connally,111.58,158.76,104.33,163.29,426.38,Single-ply,SBD,M
Boys,124.74,DQ,Franc McCauley,Temple,115.39,170.1,,,,Single-ply,SBD,M
Boys,124.74+,1,Phil Aumua,Copperas Cove,128.09,303.91,154.22,272.16,730.28,Single-ply,SBD,M
Boys,124.74+,2,Javon Chambers,Belton,154.31,281.23,145.15,183.7,610.08,Single-ply,SBD,M
Boys,124.74+,3,Philip Lynch,Temple,127.01,226.8,133.81,229.06,589.67,Single-ply,SBD,M
Boys,124.74+,4,Justin Melton,Temple,131.9,217.72,142.88,226.8,587.4,Single-ply,SBD,M
Boys,124.74+,5,Jermaine Townsend,Temple,137.89,226.8,120.2,204.12,551.11,Single-ply,SBD,M
Boys,124.74+,6,Drew Thigpen,Temple,133.17,226.8,131.54,190.51,548.85,Single-ply,SBD,M
Boys,124.74+,7,Dalton Hays,Waco Midway,140.43,226.8,131.54,176.9,535.24,Single-ply,SBD,M
Boys,124.74+,8,Nakeveyon Vincent,Waco,140.52,217.72,131.54,179.17,528.44,Single-ply,SBD,M
Boys,124.74+,9,Rylan Mikeska,Temple,125.83,204.12,113.4,208.65,526.17,Single-ply,SBD,M
Boys,124.74+,10,Zach Shackelford,Belton,131.27,208.65,122.47,195.04,526.17,Single-ply,SBD,M
Boys,124.74+,11,Dazion Carroll,Waco Midway,143.34,147.42,111.13,151.95,410.5,Single-ply,SBD,M
Boys,124.74+,12,Garrett Butler,Waco Midway,130.63,142.88,77.11,138.35,358.34,Single-ply,SBD,M
Boys,124.74+,13,Henry Beard,Waco Midway,129,97.52,72.57,113.4,283.5,Single-ply,SBD,M
