Place,Name,Sex,Age,Division,Equipment,BodyweightKg,WeightClassKg,Best3SquatKg,Best3BenchKg,Best3DeadliftKg,TotalKg,Squat1Kg,Squat2Kg,Squat3Kg,Squat4Kg,Bench1Kg,Bench2Kg,Bench3Kg,Bench4Kg,Deadlift1Kg,Deadlift2Kg,Deadlift3Kg,Deadlift4Kg,Event
1,Caroline Garhammer-Vogt,F,33,Open,Raw,64.1,67.5,115,80,170,365,105,110,115,,75,80,-82.5,,150,160,170,-175,SBD
1,Philipp Tsarkowistas,M,27,Open,Raw,89.9,90,160,110,230,500,140,150,160,,110,-115,-120,,220,230,-240,,SBD
2,Jean-Michel Voumard,M,33,Open,Raw,86.5,90,160,110,192.5,462.5,145,152.5,160,,100,105,110,,170,182.5,192.5,,SBD
1,Christophe Crettenand,M,20,Juniors,Raw,88.4,90,122.5,155.5,170,448,110,122.5,-132.5,,142.5,152.5,155.5,160,170,,,,SBD
1,Mike Giuliani,M,37,Open,Raw,73.8,75,130,90,160,380,-125,125,130,,90,-95,-100,,145,155,160,,SBD
1,Frédéric Barman,M,35,Open,Raw,104.2,110,260,200,300,760,240,260,-272.5,,180,190,200,,280,300,-315,,SBD
1,Peter Vetterli,M,31,Open,Raw,110.1,125,245,180,312.5,737.5,225,235,245,,170,180,-185,,280,300,312.5,,SBD
2,Philipp Bachmann,M,37,Open,Raw,109.2,110,270,165,285,720,245,260,270,,150,165,-180,,265,285,-300,,SBD
1,Martin Garhammer,M,29,Open,Raw,98.5,100,240,150,300,690,230,-240,240,,150,-160,,,270,285,300,,SBD
2,Andreas Tsarkowistas,M,36,Open,Raw,96.1,100,205,160,282.5,647.5,-170,185,205,,-160,160,,,270,280,282.5,,SBD
1,Marcel Ingold,M,64,M60-64,Raw,72.9,75,140,90,175,405,130,140,-150,,85,90,-92.5,,160,170,175,,SBD
1,Dave Rade,M,41,M40-44,Raw,90,90,200,150,270,620,185,-200,200,,145,150,-155,,250,265,270,,SBD
1,José Fleury,M,52,M50-54,Raw,78.5,82.5,150,107.5,165,422.5,140,145,150,,100,105,107.5,,155,162.5,165,,SBD
1,Marco Schwarz,M,40,M40-44,Raw,80.5,82.5,160,107.5,190,457.5,140,150,160,,95,100,107.5,,190,,,,SBD
1,Elmar Wasmer,M,44,M40-44,Single-ply,112,125,290,210,280,780,280,290,-300,,200,-210,210,,260,270,280,,SBD
1,Hansjürg Kälin,M,41,M40-44,Single-ply,97.2,100,275,185,290,750,250,275,-290,,135,170,185,,275,290,-305,,SBD
1,Ronnie Eberhart,M,36,Open,Raw,125.2,140,,,285,285,,,,,,,,,260,275,285,,D
1,Marcel Feurer,M,33,Open,Raw,79.7,82.5,,,230,230,,,,,,,,,225,230,-235,,D
2,Emir Gsponer,M,28,Open,Raw,95.3,100,,,240,240,,,,,,,,,240,-260,,,D
1,Reinhold Sack,M,65,M65-69,Raw,77.8,82.5,,,175,175,,,,,,,,,165,170,175,,D
1,Adrian Langensand,M,50,M50-54,Raw,102.2,110,,,240,240,,,,,,,,,225,235,240,,D
1,Daniel Schneider,M,46,M45-49,Raw,105.2,110,,,225,225,,,,,,,,,210,225,-232.5,,D
1,Marco Schwarz,M,40,M40-44,Raw,80.5,82.5,,,190,190,,,,,,,,,190,,,,D
3,Dusko Plavsic,M,40,M40-44,Raw,90,90,,,185,185,,,,,,,,,170,180,185,,D
1,Caroline Garhammer-Vogt,F,33,Open,Raw,64.1,67.5,,,170,170,,,,,,,,,150,160,170,-175,D
1,Yannik Haller,M,18,T18-19,Raw,91.6,100,,,225,225,,,,,,,,,210,225,,,D
1,Christophe Crettenand,M,20,Juniors,Raw,88.4,90,,,170,170,,,,,,,,,170,,,,D
1,Marcel Ingold,M,64,M60-64,Raw,72.9,75,,,175,175,,,,,,,,,160,170,175,,D
1,Peter Vetterli,M,31,Open,Raw,110.1,125,,,312.5,312.5,,,,,,,,,280,300,312.5,,D
1,Frédéric Barman,M,35,Open,Raw,104.2,110,,,300,300,,,,,,,,,280,300,-315,,D
1,Andreas Tsarkowistas,M,36,Open,Raw,96.1,100,,,282.5,282.5,,,,,,,,,270,280,282.5,,D
1,Thierry Rouvinez,M,33,Open,Raw,59.8,60,,,200,200,,,,,,,,,190,200,-210,,D
1,Dave Rade,M,41,M40-44,Raw,90,90,,,270,270,,,,,,,,,250,265,270,,D
2,Daniel Hedinger,M,43,M40-44,Raw,88.3,90,,,207.5,207.5,,,,,,,,,175,202.5,207.5,,D
2,Christian Bachmann,M,30,Open,Raw,79.1,82.5,,130,,130,,,,,115,125,130,,,,,,B
1,John Trostel,M,17,T16-17,Raw,68.6,75,,107.5,,107.5,,,,,90,105,107.5,-110,,,,,B
1,Jerome Aymon,M,14,T13-15,Raw,59,60,,80,,80,,,,,75,80,-85,,,,,,B
1,Dusko Plavsic,M,40,M40-44,Raw,90,90,,170,,170,,,,,-170,-170,170,,,,,,B
3,Emir Gsponer,M,28,Open,Raw,95.3,100,,175,,175,,,,,160,175,-180,,,,,,B
1,Gaby Stacher,F,31,Open,Raw,58.5,60,,82.5,,82.5,,,,,-75,80,82.5,-85,,,,,B
1,Caroline Garhammer-Vogt,F,33,Open,Raw,64.1,67.5,,80,,80,,,,,75,80,-82.5,,,,,,B
1,Christophe Crettenand,M,19,T18-19,Raw,88.4,90,,155.5,,155.5,,,,,142.5,152.5,155.5,160,,,,,B
1,Mathias Steiner,M,23,Juniors,Raw,88,90,,150,,150,,,,,140,145,150,,,,,,B
1,Sandro Ott,M,22,Juniors,Raw,100.5,110,,130,,130,,,,,125,130,-135,,,,,,B
1,Julian Vigh,M,14,T13-15,Raw,52.3,56,,52.5,,52.5,,,,,47.5,50,52.5,-55,,,,,B
1,Marcel Feurer,M,33,Open,Raw,79.7,82.5,,137.5,,137.5,,,,,125,130,137.5,,,,,,B
1,Mario Müller,M,31,Open,Raw,73,75,,102.5,,102.5,,,,,95,102.5,-107.5,,,,,,B
DQ,Artor Juniku,M,24,Open,Raw,74.4,75,,,,,,,,,-145,-145,-145,,,,,,B
1,Julien Girardin,M,24,Open,Raw,96.3,100,,210,,210,,,,,200,205,210,,,,,,B
1,Ronnie Eberhart,M,36,Open,Raw,125.2,140,,225,,225,,,,,210,220,225,,,,,,B
1,Frédéric Barman,M,35,Open,Raw,104.2,110,,200,,200,,,,,180,190,200,,,,,,B
2,Daniel Oertig,M,28,Open,Raw,99.7,100,,185,,185,,,,,175,180,185,,,,,,B
1,Peter Vetterli,M,31,Open,Raw,110.1,125,,180,,180,,,,,170,180,-185,,,,,,B
5,Erich Steiner,M,39,Open,Raw,94,100,,165,,165,,,,,160,165,-170,,,,,,B
4,Matthias Krismer,M,32,Open,Raw,97.4,100,,167.5,,167.5,,,,,167.5,-172.5,-172.5,,,,,,B
6,Andreas von Euw,M,26,Open,Raw,96.8,100,,155,,155,,,,,145,-150,155,,,,,,B
1,Adrian Langensand,M,50,M50-54,Raw,102.2,110,,210,,210,,,,,195,205,210,,,,,,B
1,Reinhold Sack,M,65,M65-69,Raw,77.8,82.5,,127.5,,127.5,,,,,125,127.5,-130,,,,,,B
2,Peter Hermann,M,69,M65-69,Raw,82.5,82.5,,107.5,,107.5,,,,,105,-107.5,107.5,,,,,,B
1,Mario Volken,M,45,M45-49,Raw,103.4,110,,180,,180,,,,,170,175,180,,,,,,B
1,Claudio Biderbost,M,43,M40-44,Raw,100.7,110,,175,,175,,,,,170,175,-180,,,,,,B
1,Michel Trévisan,M,42,M40-44,Raw,70.4,75,,135,,135,,,,,125,132.5,135,,,,,,B
1,Andreas Vigh,M,67,M65-69,Raw,72.4,75,,87.5,,87.5,,,,,87.5,-92.5,-92.5,,,,,,B
DQ,François-Victor Lambert,M,64,M60-64,Raw,76.4,82.5,,,,,,,,,-100,-100,-100,,,,,,B
DQ,Jean-Pierre Aymon,M,57,M55-59,Raw,100,100,,,,,,,,,-175,,,,,,,,B
1,Urs Auf der Maur,M,43,M40-44,Single-ply,102.8,110,,240,,240,,,,,-240,240,-260,,,,,,B
1,Stamm Volker,M,47,M45-49,Single-ply,145.2,140+,,240,,240,,,,,-240,240,,,,,,,B
1,Mario Volken,M,45,M45-49,Single-ply,103.4,110,,220,,220,,,,,-210,215,220,-225,,,,,B
1,Daniel Oertig,M,28,Open,Single-ply,99.7,100,,220,,220,,,,,-220,220,-230,,,,,,B
1,Peter Hermann,M,69,M65-69,Single-ply,82.5,82.5,,120,,120,,,,,-120,120,-125,,,,,,B
1,Hansjürg Kälin,M,41,M40-44,Single-ply,97.2,100,,185,,185,,,,,135,170,185,,,,,,B
1,Cyril Gosteli,M,46,M45-49,Single-ply,119.9,125,,185,,185,,,,,185,-195,-202.5,,,,,,B
DQ,Jean-Pierre Aymon,M,57,M55-59,Single-ply,100,100,,,,,,,,,,,,,,,,,B
