Division,WeightClassKg,Place,Name,Team,BodyweightKg,Best3SquatKg,Best3BenchKg,Best3DeadliftKg,TotalKg,Equipment,Event,Sex,BirthDate
Boys,59.87,1,Cougar Jetton,San Angelo Grape Creek,59.78,167.83,88.45,151.95,408.23,Single-ply,SBD,M,
Boys,59.87,DQ,Lane Smith,Ozona,57.15,,,,,Single-ply,SBD,M,
Boys,59.87,DQ,William Keesee,Ozona,58.33,,,,,Single-ply,SBD,M,
Boys,74.84,1,Carlos Cantu,Ozona,73.12,190.51,120.2,185.97,496.68,Single-ply,SBD,M,
Boys,74.84,2,Matthew Delagarza,Ozona,74.48,163.29,104.33,170.1,437.72,Single-ply,SBD,M,
Boys,74.84,3,Eddie Rios,Ozona,71.67,147.42,77.11,122.47,347,Single-ply,SBD,M,
Boys,82.1,1,Arlie Hernandez,Ozona,76.38,188.24,115.67,179.17,483.08,Single-ply,SBD,M,
Boys,82.1,2,Lucas Jordahl,San Angelo Grape Creek,79.83,165.56,102.06,163.29,430.91,Single-ply,SBD,M,
Boys,82.1,3,Mike Martinez,Ozona,75.48,117.93,79.38,124.74,322.05,Single-ply,SBD,M,
Boys,89.81,1,Emmanuel Venegas,Ozona,88.09,181.44,106.59,192.78,480.81,Single-ply,SBD,M,
Boys,109.77,1,Aaron Martinez,Ozona,102.87,142.88,,,142.88,Single-ply,S,M,
Boys,124.74,1,Justin Baker,Ozona,113.22,79.38,,,79.38,Single-ply,S,M,
Boys,124.74,DQ,John Cole Childress,Ozona,123.38,,,,,Single-ply,SBD,M,
Boys,139.71+,1,Keano Perez,Ozona,140.61,283.5,154.22,240.4,678.12,Single-ply,SBD,M,
