Division,WeightClassKg,Place,Name,Team,BodyweightKg,Best3SquatKg,Best3BenchKg,Best3DeadliftKg,TotalKg,Equipment,Event,Sex
Boys,51.71,1,Brandon Sauceda,PSJA Memorial,51.71,147.42,70.31,142.88,360.61,Single-ply,SBD,M
Boys,51.71,2,David Garcia #5,Pharr Valley View,51.71,131.54,70.31,156.49,358.34,Single-ply,SBD,M
Boys,51.71,3,Kevin Sierra,PSJA Southwest,47.63,102.06,52.16,113.4,267.62,Single-ply,SBD,M
Boys,51.71,4,Brooks Guzman,Weslaco East,51.71,92.99,47.63,115.67,256.28,Single-ply,SBD,M
Boys,51.71,DQ,Christian Lopez #4,PSJA North,51.48,,,,,Single-ply,SBD,M
Boys,55.79,1,Mike Jaramillo,PSJA Memorial,55.79,183.7,97.52,183.7,464.93,Single-ply,SBD,M
Boys,55.79,2,Jorge Cantu,PSJA Southwest,55.34,149.69,86.18,122.47,358.34,Single-ply,SBD,M
Boys,55.79,3,Juan Ayala,Weslaco,54.61,113.4,56.7,127.01,297.1,Single-ply,SBD,M
Boys,55.79,4,Orly Garcia,Rio Grande City,55.79,106.59,63.5,113.4,283.5,Single-ply,SBD,M
Boys,59.87,DQ,Alex De La O,PSJA North,56.02,,,,,Single-ply,SBD,M
Boys,59.87,1,Steve Solis,PSJA Memorial,59.87,195.04,108.86,204.12,508.02,Single-ply,SBD,M
Boys,59.87,2,Julian Morales,Weslaco,59.87,190.51,95.25,204.12,489.88,Single-ply,SBD,M
Boys,59.87,3,Lorenzo Huerta,PSJA Southwest,58.97,188.24,106.59,176.9,471.74,Single-ply,SBD,M
Boys,59.87,4,Isaac Diez,PSJA,59.87,183.7,124.74,158.76,467.2,Single-ply,SBD,M
Boys,59.87,5,Gus Maldonado,Rio Grande City,59.87,174.63,83.91,179.17,437.72,Single-ply,SBD,M
Boys,59.87,6,Carlos Giles,PSJA,59.87,147.42,81.65,145.15,374.21,Single-ply,SBD,M
Boys,59.87,7,Eddie Garza,PSJA Southwest,59.42,129.27,68.04,124.74,322.05,Single-ply,SBD,M
Boys,59.87,DQ,Josh Garcia #6,Weslaco,59.87,,,,,Single-ply,SBD,M
Boys,59.87,DQ,Robert Aranda,Mission Veterans Memorial,59.87,167.83,79.38,,,Single-ply,SBD,M
Boys,67.13,1,Jose Bazaldua,Mercedes,67.13,226.8,127.01,208.65,562.45,Single-ply,SBD,M
Boys,67.13,2,Carlos Castillo,Los Fresnos,67.13,226.8,117.93,195.04,539.77,Single-ply,SBD,M
Boys,67.13,3,D'Andre Henry,PSJA,67.13,188.24,120.2,190.51,498.95,Single-ply,SBD,M
Boys,67.13,4,Joe Rocafuerte,Los Fresnos,67.13,195.04,111.13,190.51,496.68,Single-ply,SBD,M
Boys,67.13,5,Jerry Pena,Rio Grande City,67.13,172.37,81.65,181.44,435.45,Single-ply,SBD,M
Boys,67.13,6,Eduardo Jilpas,Weslaco,67.13,147.42,68.04,154.22,369.68,Single-ply,SBD,M
Boys,67.13,7,Ricardo Torres,Rio Grande City,67.13,124.74,65.77,136.08,326.59,Single-ply,SBD,M
Boys,67.13,DQ,Joe Torres #5,Los Fresnos,67.13,201.85,,,,Single-ply,SBD,M
Boys,74.84,1,DJ Martinez,PSJA Memorial,74.84,235.87,133.81,224.53,594.21,Single-ply,SBD,M
Boys,74.84,2,Noel Zuniga,PSJA,74.84,233.6,124.74,224.53,582.87,Single-ply,SBD,M
Boys,74.84,3,Jessie Villarreal,PSJA Southwest,70.31,195.04,104.33,192.78,492.15,Single-ply,SBD,M
Boys,74.84,4,Marco Lopez,Donna,74.84,206.38,104.33,181.44,492.15,Single-ply,SBD,M
Boys,74.84,5,Adonis Juarez,Mission,74.84,176.9,106.59,185.97,469.47,Single-ply,SBD,M
Boys,74.84,6,Ricardo Vela,Hidalgo Early College,74.84,142.88,70.31,154.22,367.41,Single-ply,SBD,M
Boys,74.84,7,Erasmo Canales,Rio Grande City,74.84,204.12,124.74,,328.85,Single-ply,SB,M
Boys,74.84,DQ,Martin Saldana,PSJA Southwest,71.21,,,,,Single-ply,SB,M
Boys,82.1,1,Eduardo Ramirez #1,Los Fresnos,82.1,249.48,138.35,217.72,605.55,Single-ply,SBD,M
Boys,82.1,2,Armin Solis,Rio Grande City,82.1,219.99,142.88,197.31,560.19,Single-ply,SBD,M
Boys,82.1,3,JD Elizondo,PSJA,82.1,206.38,156.49,192.78,555.65,Single-ply,SBD,M
Boys,82.1,4,Brian Sanchez,Weslaco East,82.1,210.92,131.54,210.92,553.38,Single-ply,SBD,M
Boys,82.1,5,Rick Garza,Mercedes,82.1,215.46,127.01,188.24,530.7,Single-ply,SBD,M
Boys,82.1,6,Andrew Benavidez,PSJA North,79.56,199.58,111.13,217.72,528.44,Single-ply,SBD,M
Boys,82.1,7,Carlos Portales,PSJA Southwest,76.79,170.1,97.52,170.1,437.72,Single-ply,SBD,M
Boys,82.1,8,Michael Ruiz #2,Mercedes,82.1,140.61,97.52,181.44,419.57,Single-ply,SBD,M
Boys,82.1,9,Rene Gonzalez,Los Fresnos,82.1,145.15,79.38,151.95,376.48,Single-ply,SBD,M
Boys,82.1,DQ,Marco Villarreal,Mission Sharyland,82.1,213.19,,,,Single-ply,SBD,M
Boys,82.1,DQ,Andrew Cura,Mission Sharyland,82.1,,,,,Single-ply,SBD,M
Boys,89.81,1,Victor Aguilar #2,Mercedes,89.81,254.01,136.08,242.67,632.76,Single-ply,SBD,M
Boys,89.81,2,Javi Perez,PSJA Memorial,89.81,233.6,129.27,210.92,573.79,Single-ply,SBD,M
Boys,89.81,3,Alberto Roque,Mission,89.81,222.26,122.47,201.85,546.58,Single-ply,SBD,M
Boys,89.81,4,AJ Alvarez,Donna,89.81,201.85,122.47,213.19,537.51,Single-ply,SBD,M
Boys,89.81,5,Aaron Sauceda,PSJA Memorial,84.82,217.72,117.93,195.04,530.7,Single-ply,SBD,M
Boys,89.81,6,Faustino Saldana,PSJA Southwest,89.58,217.72,113.4,183.7,514.83,Single-ply,SBD,M
Boys,89.81,7,Jorge Berrones,PSJA North,87.09,199.58,113.4,170.1,483.08,Single-ply,SBD,M
Boys,89.81,8,Jesse Coronado,Weslaco,89.81,183.7,102.06,167.83,453.59,Single-ply,SBD,M
Boys,89.81,9,Richard Rodriguez,Mission Veterans Memorial,89.81,167.83,102.06,163.29,433.18,Single-ply,SBD,M
Boys,89.81,10,Jose Cardenas,Mission Veterans Memorial,89.81,176.9,95.25,154.22,426.38,Single-ply,SBD,M
Boys,89.81,11,Pedro Pena,Rio Grande City,89.81,113.4,,,113.4,Single-ply,S,M
Boys,99.79,DQ,Victor Tamez,PSJA,89.9,,,,,Single-ply,S,M
Boys,99.79,1,Joey Pitones,Pharr Valley View,99.79,244.94,145.15,258.55,648.64,Single-ply,SBD,M
Boys,99.79,2,John Arevalo,Weslaco East,99.79,258.55,127.01,240.4,625.96,Single-ply,SBD,M
Boys,99.79,3,Eduardo Fraire,Donna,99.79,244.94,124.74,249.48,619.15,Single-ply,SBD,M
Boys,99.79,4,Joe Perez,Los Fresnos,99.79,272.16,136.08,208.65,616.89,Single-ply,SBD,M
Boys,99.79,5,Arnulfo Marin,Pharr Valley View,99.79,249.48,113.4,219.99,582.87,Single-ply,SBD,M
Boys,99.79,6,Jc Lopez,Donna,99.79,229.06,136.08,181.44,546.58,Single-ply,SBD,M
Boys,99.79,7,Noe Alonzo,PSJA Memorial,99.79,226.8,129.27,179.17,535.24,Single-ply,SBD,M
Boys,99.79,8,Jerry DeLeon,Weslaco East,99.79,208.65,124.74,183.7,517.1,Single-ply,SBD,M
Boys,99.79,9,Chris Ybarra,Weslaco East,99.79,174.63,106.59,208.65,489.88,Single-ply,SBD,M
Boys,99.79,10,Alvaro Torres,Weslaco,99.79,190.51,104.33,185.97,480.81,Single-ply,SBD,M
Boys,99.79,11,Chive Santana,PSJA,99.79,185.97,102.06,158.76,446.79,Single-ply,SBD,M
Boys,99.79,12,Eddie Favata,PSJA North,93.53,149.69,111.13,151.95,412.77,Single-ply,SBD,M
Boys,99.79,DQ,Ruben Rubio,Mercedes,99.79,258.55,,,,Single-ply,SBD,M
Boys,99.79,DQ,Luis Gutrirrez,PSJA Southwest,98.88,,,,,Single-ply,SBD,M
Boys,109.77,1,Jesus Vallejo,Weslaco East,109.77,265.35,183.7,242.67,691.73,Single-ply,SBD,M
Boys,109.77,2,Sebastian Garcia,PSJA Memorial,106.14,242.67,147.42,215.46,605.55,Single-ply,SBD,M
Boys,109.77,3,Kevin Trevino,PSJA North,107.05,235.87,131.54,210.92,578.33,Single-ply,SBD,M
Boys,109.77,4,Joseph Guerrero,Donna,109.77,215.46,154.22,208.65,578.33,Single-ply,SBD,M
Boys,109.77,5,Augustus Hernandez,PSJA North,104.33,210.92,113.4,219.99,544.31,Single-ply,SBD,M
Boys,109.77,6,Jose Juarez #5,Weslaco,109.77,210.92,115.67,215.46,542.04,Single-ply,SBD,M
Boys,109.77,7,Jon Soto,PSJA Southwest,104.46,226.8,136.08,170.1,532.97,Single-ply,SBD,M
Boys,109.77,8,Mathew Rodriguez,PSJA,109.77,206.38,124.74,199.58,530.7,Single-ply,SBD,M
Boys,109.77,9,Eli Esconame,Mission Sharyland,109.77,190.51,127.01,185.97,503.49,Single-ply,SBD,M
Boys,109.77,10,Jesus Anaya,Weslaco,109.77,204.12,99.79,181.44,485.34,Single-ply,SBD,M
Boys,109.77,11,Jose Serrato,Mission,109.77,185.97,106.59,185.97,478.54,Single-ply,SBD,M
Boys,109.77,12,Esteban Reyes,Weslaco,109.77,195.04,104.33,172.37,471.74,Single-ply,SBD,M
Boys,109.77,13,Sebastian Tijerina,PSJA Southwest,103.46,199.58,95.25,174.63,469.47,Single-ply,SBD,M
Boys,109.77,14,Jaime Moreno,Donna,109.77,188.24,102.06,154.22,444.52,Single-ply,SBD,M
Boys,109.77,15,Johnathan Bolanos,Hidalgo Early College,109.77,158.76,83.91,161.03,403.7,Single-ply,SBD,M
Boys,109.77,DQ,Juan Garcia,Los Fresnos,108.59,,,,,Single-ply,SBD,M
Boys,124.74,1,Andrew Cruz,PSJA North,116.57,285.76,167.83,238.14,691.73,Single-ply,SBD,M
Boys,124.74,2,Josh Cavazos,Mission Sharyland,124.74,244.94,136.08,260.82,641.83,Single-ply,SBD,M
Boys,124.74,3,Juan Zuniga,Mission,124.74,263.08,154.22,210.92,628.23,Single-ply,SBD,M
Boys,124.74,4,Keith Mora,Mission Sharyland,124.74,249.48,111.13,208.65,569.26,Single-ply,SBD,M
Boys,124.74,5,Raul de la Cruz,Mission,117.03,233.6,102.06,192.78,528.44,Single-ply,SBD,M
Boys,124.74,6,Javi Lara,PSJA North,110.54,219.99,111.13,172.37,503.49,Single-ply,SBD,M
Boys,124.74,7,Gabrian Vela,PSJA North,110.36,167.83,92.99,167.83,428.64,Single-ply,SBD,M
Boys,124.74+,1,Rick Perez #2,Donna,136.08,272.16,158.76,238.14,669.05,Single-ply,SBD,M
Boys,124.74+,2,Alexander Yanez,Mission,141.52,272.16,163.29,226.8,662.24,Single-ply,SBD,M
Boys,124.74+,3,Mauro Herrera,PSJA,142.88,281.23,129.27,233.6,644.1,Single-ply,SBD,M
Boys,124.74+,4,Danny Young,Mercedes,137.44,258.55,131.54,244.94,635.03,Single-ply,SBD,M
Boys,124.74+,5,Adrian Alcantar,PSJA Memorial,131.09,267.62,149.69,204.12,621.42,Single-ply,SBD,M
Boys,124.74+,6,Jose Limon,Los Fresnos,137.89,267.62,124.74,226.8,619.15,Single-ply,SBD,M
Boys,124.74+,7,Rick Hinojosa,Mercedes,125.65,219.99,136.08,208.65,564.72,Single-ply,SBD,M
Boys,124.74+,8,Randy Fernandez,PSJA North,129.46,219.99,136.08,195.04,551.11,Single-ply,SBD,M
