Place,Name,State,WeightClassKg,BodyweightKg,BirthDate,Age,Squat1Kg,Squat2Kg,Squat3Kg,Best3SquatKg,Bench1Kg,Bench2Kg,Bench3Kg,Best3BenchKg,Deadlift1Kg,Deadlift2Kg,Deadlift3Kg,Best3DeadliftKg,TotalKg,Squat4Kg,Bench4Kg,Deadlift4Kg,Event,Equipment,Sex,Division,Tested
1,Minhthy Luu,CA,48,45.1,,20,70,80,85,85,40,-45,-45,40,107.5,115,-122.5,115,240,,,,SBD,Raw,F,Juniors 20-23,Yes
1,Victoria Wahl,NM,52,50.6,,19,92.5,-97.5,97.5,97.5,50,55,-57.5,55,122.5,127.5,132.5,132.5,285,,,,SBD,Raw,F,Juniors 18-19,Yes
1,Amanda Lairmore,IL,52,49.2,,22,142.5,150,-160,150,62.5,67.5,-73,67.5,102.5,110,115,115,332.5,,,,SBD,Raw,F,Juniors 20-23,Yes
2,Jordan Dauer,CA,52,51.2,,20,120,125,-127.5,125,62.5,65,-67.5,65,135,140,-145,140,330,,,,SBD,Raw,F,Juniors 20-23,Yes
3,Monica Ruechel,GA,52,51,,23,80,90,95,95,55,60,-65,60,112.5,122.5,-130,122.5,277.5,,,,SBD,Raw,F,Juniors 20-23,Yes
4,Chanelle Ramos,HI,52,51.3,,23,87.5,92.5,97.5,97.5,42.5,45,-50,45,-135,135,-150,135,277.5,,,,SBD,Raw,F,Juniors 20-23,Yes
1,Adriana Guzman,CA,56,55.9,,19,97.5,105,-115,105,47.5,52.5,55,55,120,130,140,140,300,,,,SBD,Raw,F,Juniors 18-19,Yes
1,Megan Prieto,CA,56,55,,22,95,102.5,110,110,52.5,55,57.5,57.5,117.5,-125,-125,117.5,285,,,,SBD,Raw,F,Juniors 20-23,Yes
1,Annabel He,CA,60,59.9,,16,107.5,112.5,115,115,40,47.5,55,55,120,127.5,135,135,305,,,,SBD,Raw,F,Juniors 16-17,Yes
2,Lisa Pennington,ND,60,60,,17,102.5,-105,-105,102.5,60,-65,-65,60,122.5,-125,125,125,287.5,,,,SBD,Raw,F,Juniors 16-17,Yes
1,Miah Salinas,CA,60,59.1,,18,105,-110,110,110,65,67.5,70,70,127.5,132.5,-137.5,132.5,312.5,,,,SBD,Raw,F,Juniors 18-19,Yes
1,Genesis Herrera,CA,60,60,,23,-127.5,127.5,-135,127.5,52.5,57.5,-62.5,57.5,157.5,165,-170,165,350,,,,SBD,Raw,F,Juniors 20-23,Yes
2,Destinee Setzler,OK,60,59.7,,22,115,-120,-120,115,-72.5,75,77.5,77.5,142.5,-147.5,-147.5,142.5,335,,80,,SBD,Raw,F,Juniors 20-23,Yes
1,Carleigh Cruz,CA,67.5,64.9,,23,122.5,130,137.5,137.5,62.5,65,-67.5,65,142.5,152.5,160,160,362.5,,,,SBD,Raw,F,Juniors 20-23,Yes
1,Karan Lawyer,VA,75,74.2,,16,95,100,-102.5,100,45,47.5,50,50,100,105,-110,105,255,,,,SBD,Raw,F,Juniors 16-17,Yes
1,Giselle Cancino,CA,75,74.6,,23,145,-155,-155,145,75,77.5,-80,77.5,-135,135,-170,135,357.5,,,,SBD,Raw,F,Juniors 20-23,Yes
2,Bailey Pieniazek,NY,75,72.2,,23,-92.5,-92.5,92.5,92.5,62.5,67.5,-72.5,67.5,122.5,130,137.5,137.5,297.5,,,,SBD,Raw,F,Juniors 20-23,Yes
1,Danielle Haley,MI,82.5,82.1,,16,87.5,-95,95,95,67.5,-75,-75,67.5,105,117.5,-125,117.5,280,,,,SBD,Raw,F,Juniors 16-17,Yes
1,Sierra Marshman,OR,82.5,80.9,,23,147.5,160,167.5,167.5,92.5,95,-100,95,152.5,165,175,175,437.5,,,,SBD,Raw,F,Juniors 20-23,Yes
1,Sarah Koshy,PA,90,89.9,,22,112.5,122.5,127.5,127.5,52.5,55,57.5,57.5,127.5,135,140,140,325,,,,SBD,Raw,F,Juniors 20-23,Yes
1,Mckenzie Haven,ND,90+,98.7,,17,115,125,135,135,60,67.5,70,70,135,145,150,150,355,,,,SBD,Raw,F,Juniors 16-17,Yes
1,Alexandra Washington,CA,90+,94.6,,18,140,150,155.5,155.5,82.5,90.5,92.5,92.5,147.5,155.5,-178,155.5,403.5,,,,SBD,Raw,F,Juniors 18-19,Yes
1,Emily Joiner,AL,90+,109.5,,23,180,192.5,-200,192.5,105,112.5,120,120,160,175,190,190,502.5,,,,SBD,Raw,F,Juniors 20-23,Yes
2,Veronica Hernandez,CA,90+,116.1,,23,185,-197.5,-197.5,185,85,92.5,-102.5,92.5,185,192.5,-210,192.5,470,,,,SBD,Raw,F,Juniors 20-23,Yes
3,Marissa Ramirez #1,CA,90+,101.6,,23,150,165,180,180,75,-82.5,82.5,82.5,185,202.5,-207.5,202.5,465,,,,SBD,Raw,F,Juniors 20-23,Yes
1,Shreena Chopra,MO,44,40.6,,27,82.5,-91,91,91,52.5,55,57.5,57.5,117.5,125,132.5,132.5,281,,,,SBD,Raw,F,Open,Yes
2,Natalie Diaz,CA,44,40.3,,32,62.5,67.5,-70,67.5,40,42.5,-45,42.5,97.5,102.5,-107.5,102.5,212.5,,,,SBD,Raw,F,Open,Yes
1,Megan Bibbo,CA,48,46.6,,33,87.5,92.5,95,95,57.5,-60,-60,57.5,132.5,-137.5,-137.5,132.5,285,,,,SBD,Raw,F,Open,Yes
2,Minhthy Luu,CA,48,45.1,,20,70,80,85,85,40,-45,-45,40,107.5,115,-122.5,115,240,,,,SBD,Raw,F,Open,Yes
1,Amanda Lairmore,IL,52,49.2,,22,142.5,150,-160,150,62.5,67.5,-73,67.5,102.5,110,115,115,332.5,,,,SBD,Raw,F,Open,Yes
2,Jordan Dauer,CA,52,51.2,,20,120,125,-127.5,125,62.5,65,-67.5,65,135,140,-145,140,330,,,,SBD,Raw,F,Open,Yes
3,Noemi Villalobos,CA,52,51.4,,25,105,110,-112.5,110,52.5,-57.5,-57.5,52.5,145,152.5,-158,152.5,315,,,,SBD,Raw,F,Open,Yes
4,Jillian Ramos,CO,52,49.3,,29,-100,100,107.5,107.5,57.5,62.5,-65,62.5,-132.5,142.5,-147.5,142.5,312.5,,,,SBD,Raw,F,Open,Yes
5,Bre Armenta,CA,52,51,,30,110,112.5,117.5,117.5,67.5,70,72.5,72.5,117.5,-125,-125,117.5,307.5,,,,SBD,Raw,F,Open,Yes
6,Victoria Wahl,NM,52,50.6,,19,92.5,-97.5,97.5,97.5,50,55,-57.5,55,122.5,127.5,132.5,132.5,285,,,,SBD,Raw,F,Open,Yes
7,Monica Ruechel,GA,52,51,,23,80,90,95,95,55,60,-65,60,112.5,122.5,-130,122.5,277.5,,,,SBD,Raw,F,Open,Yes
1,Simone Thomas,CA,56,54.1,,30,130,137.5,142.5,142.5,75,80,82.5,82.5,190.5,-200,-200,190.5,415.5,,,,SBD,Raw,F,Open,Yes
2,Stephanie Paramo,TX,56,55.4,,24,142.5,-150.5,-150.5,142.5,72.5,77.5,-80,77.5,160,170,-175,170,390,,,,SBD,Raw,F,Open,Yes
3,Jazmin Reyes,TX,56,55.7,,26,135,145,152.5,152.5,70,75,77.5,77.5,142.5,152.5,-157.5,152.5,382.5,,,,SBD,Raw,F,Open,Yes
4,Lisa Hallett,WA,56,55.6,,33,122.5,130,-132.5,130,72.5,75,-80,75,160,170,175,175,380,,,,SBD,Raw,F,Open,Yes
5,Winona Umali,CA,56,55.2,,25,110,115,-117.5,115,65,70,-72.5,70,185,187.5,-191,187.5,372.5,,,,SBD,Raw,F,Open,Yes
6,Laurie Porsch,TX,56,55.8,,34,-135,135,-145,135,75,77.5,-80,77.5,145,155,-162.5,155,367.5,,,,SBD,Raw,F,Open,Yes
7,Amie McDermott,WA,56,55.1,,31,130,-137.5,-137.5,130,62.5,65,-70,65,145,152.5,155,155,350,,,,SBD,Raw,F,Open,Yes
8,Molly Hendryx,OR,56,54.7,,37,105,110,115,115,57.5,60,62.5,62.5,157.5,163,167.5,167.5,345,,,,SBD,Raw,F,Open,Yes
1,Sydney Hunter,CA,60,59.2,,24,135,-147.5,-147.5,135,70,80,85,85,187.5,197.5,202.5,202.5,422.5,,,,SBD,Raw,F,Open,Yes
2,Stephanie Hanson,PA,60,58.8,,29,130,137.5,-145,137.5,80,85,87.5,87.5,170,180,-187.5,180,405,,,,SBD,Raw,F,Open,Yes
3,Daniella Means,CA,60,59.6,,31,127.5,135,140,140,-80,82.5,85,85,145,155,162.5,162.5,387.5,,,,SBD,Raw,F,Open,Yes
4,Alyssa Wu,CA,60,58.7,,25,-137.5,137.5,145,145,-75,75,77.5,77.5,142.5,150,155,155,377.5,,,,SBD,Raw,F,Open,Yes
5,Kristin Estes,NM,60,56.6,,32,127.5,135,-140,135,82.5,87.5,90,90,137.5,142.5,-145,142.5,367.5,,,,SBD,Raw,F,Open,Yes
6,Natasha Beasley,VA,60,60,,38,105,-115,115,115,80,85,-87.5,85,160,-175,-175,160,360,,,,SBD,Raw,F,Open,Yes
7,Elle Bandy,IL,60,58.4,,34,125,130,132.5,132.5,72.5,-75,-75,72.5,142.5,145,150,150,355,,,,SBD,Raw,F,Open,Yes
8,Debi Stoliar,CA,60,58.4,,41,122.5,127.5,132.5,132.5,62.5,67.5,70,70,137.5,145,-150,145,347.5,137.5,,,SBD,Raw,F,Open,Yes
9,Cassi Addamo,MA,60,59.6,,28,-105,-105,110,110,62.5,-67.5,-70,62.5,160,172.5,-182.5,172.5,345,,,,SBD,Raw,F,Open,Yes
10,Giannina Nurena,CA,60,59.3,,30,107.5,115,122.5,122.5,62.5,65,-70,65,140,145,150,150,337.5,,,,SBD,Raw,F,Open,Yes
11,Jessica Gaona,CA,60,59.4,,32,105,112.5,117.5,117.5,-62.5,-65,65,65,140,150,155,155,337.5,,,,SBD,Raw,F,Open,Yes
12,Melissa Gutierrez,CA,60,59.6,,29,107.5,115,120,120,-60,65,-70,65,135,145,150,150,335,,,,SBD,Raw,F,Open,Yes
13,Destinee Setzler,OK,60,59.7,,22,115,-120,-120,115,-72.5,75,77.5,77.5,142.5,-147.5,-147.5,142.5,335,,80,,SBD,Raw,F,Open,Yes
14,Michelle Kahn,VA,60,59.1,,31,95,102.5,107.5,107.5,57.5,62.5,-65,62.5,110,120,125,125,295,,,,SBD,Raw,F,Open,Yes
15,Becky Hammon,MO,60,58.4,,51,-100,100,105,105,52.5,57.5,60,60,100,110,117.5,117.5,282.5,,,,SBD,Raw,F,Open,Yes
16,Gina Jacobson,OR,60,58.8,,29,90,95,-102.5,95,50,55,60,60,105,112.5,120,120,275,,,,SBD,Raw,F,Open,Yes
17,Diana Duarte,CA,60,59.6,,29,85,92.5,95,95,50,55,-57.5,55,115,120,-125,120,270,,,,SBD,Raw,F,Open,Yes
18,Heather Campbell,OR,60,59.2,,50,85,-92.5,-92.5,85,52.5,57.5,-62.5,57.5,112.5,120,125,125,267.5,,,,SBD,Raw,F,Open,Yes
19,Kelsey Trapp,OR,60,59.6,,33,85,92.5,-97.5,92.5,57.5,-60,60,60,100,107.5,115,115,267.5,,,,SBD,Raw,F,Open,Yes
1,Maria Rojas Chacon,PA,67.5,66.1,,24,147.5,155,157.5,157.5,-82.5,82.5,85,85,182.5,190,195,195,437.5,,,,SBD,Raw,F,Open,Yes
2,Kendra Farber,OR,67.5,65.9,,34,127.5,135,-142.5,135,82.5,90,-92.5,90,187.5,200,210,210,435,,,,SBD,Raw,F,Open,Yes
3,Diamond Volk,VA,67.5,66.3,,27,160,167.5,-177.5,167.5,75,82.5,-85,82.5,160,172.5,182.5,182.5,432.5,,,,SBD,Raw,F,Open,Yes
4,Jessica Ward,MA,67.5,66.6,,28,150,160,-167.5,160,75,80,85,85,167.5,177.5,187.5,187.5,432.5,,,,SBD,Raw,F,Open,Yes
5,Genesis Contreras,CA,67.5,66.5,,24,150,157.5,-162.5,157.5,85,-92.5,92.5,92.5,147.5,-160,160,160,410,,,,SBD,Raw,F,Open,Yes
6,Mir Iniza Fulk,MN,67.5,64.1,,29,122.5,130,-137.5,130,77.5,80,-85,80,180,,,180,390,,,,SBD,Raw,F,Open,Yes
7,Michelle Leu,CA,67.5,67.4,,30,125,132.5,137.5,137.5,75,-80,-80,75,157.5,167.5,172.5,172.5,385,,,,SBD,Raw,F,Open,Yes
8,Jennifer Sowers,CA,67.5,65.1,,26,125,130,-135,130,80,85,87.5,87.5,142.5,155,165,165,382.5,,,,SBD,Raw,F,Open,Yes
9,Hillary Heater,AZ,67.5,66.7,,30,-125,-125,125,125,72.5,75,77.5,77.5,160,167.5,-172.5,167.5,370,,,,SBD,Raw,F,Open,Yes
10,Courtney Polidoro,PA,67.5,66.2,,26,-115,117.5,122.5,122.5,77.5,82.5,-85,82.5,155,160,-165,160,365,,,,SBD,Raw,F,Open,Yes
11,Carleigh Cruz,CA,67.5,64.9,,23,122.5,130,137.5,137.5,62.5,65,-67.5,65,142.5,152.5,160,160,362.5,,,,SBD,Raw,F,Open,Yes
12,Angela Mayor,CA,67.5,66.8,,32,100,107.5,112.5,112.5,60,65,-67.5,65,142.5,152.5,165,165,342.5,,,,SBD,Raw,F,Open,Yes
13,Joslyn Normandin,MI,67.5,64.6,,25,122.5,130,-135,130,60,62.5,65,65,135,142.5,-150,142.5,337.5,,,,SBD,Raw,F,Open,Yes
14,Cassandra Fiorella,OR,67.5,64.3,,34,-105,115,122.5,122.5,50,55,57.5,57.5,-135,142.5,152.5,152.5,332.5,,,,SBD,Raw,F,Open,Yes
15,Julia Johnson-Wahi,CA,67.5,65.5,,34,-117.5,122.5,-125,122.5,-67.5,72.5,-77.5,72.5,127.5,132.5,137.5,137.5,332.5,,,,SBD,Raw,F,Open,Yes
16,Samantha Havens,CA,67.5,67.4,,31,102.5,105,-107.5,105,72.5,75,77.5,77.5,142.5,145,147.5,147.5,330,,,,SBD,Raw,F,Open,Yes
17,Emily Hartley,AZ,67.5,66.5,,32,112.5,120,-127.5,120,62.5,-72.5,-78.5,62.5,125,137.5,140,140,322.5,,,,SBD,Raw,F,Open,Yes
18,Jennifer Cronley,PA,67.5,65.8,,27,-110,110,-120,110,65,-70,-70,65,127.5,137.5,-142.5,137.5,312.5,,,,SBD,Raw,F,Open,Yes
19,Anna Jennings,IN,67.5,61.8,,23,105,-112.5,112.5,112.5,55,-60,-60,55,125,137.5,-145,137.5,305,,,,SBD,Raw,F,Open,Yes
20,Ashli Cabonias,AZ,67.5,66.5,,31,87.5,95,100,100,55,57.5,-62.5,57.5,117.5,130,137.5,137.5,295,,,,SBD,Raw,F,Open,Yes
21,Allyson Spungin,OR,67.5,66.5,,32,100,107.5,-112.5,107.5,52.5,55,57.5,57.5,112.5,120,-125,120,285,,,,SBD,Raw,F,Open,Yes
22,Jill McCudy,CA,67.5,67.4,,37,95,100,105,105,-60,62.5,-67.5,62.5,117.5,-127.5,-127.5,117.5,285,,,,SBD,Raw,F,Open,Yes
DQ,Kimberly Conway,CA,67.5,63.4,,28,-142.5,-142.5,-142.5,,80,-82.5,-82.5,80,,,,,,,,,SBD,Raw,F,Open,Yes
1,Tiffany Savage,CA,75,74.8,,28,165,175,180,180,110,115,117.5,117.5,205,-220,-220,205,502.5,,120,,SBD,Raw,F,Open,Yes
2,Sharayah Johnson,OR,75,74.7,,30,157.5,165,-167.5,165,100,105,-107.5,105,182.5,190,-195,190,460,,,,SBD,Raw,F,Open,Yes
3,Alex Hubelbank,MA,75,71.5,,29,130,137.5,142.5,142.5,87.5,90,92.5,92.5,185,190,-197.5,190,425,,,,SBD,Raw,F,Open,Yes
4,Anastacia Cantu,TX,75,74.1,,31,-160,-160,160,160,87.5,-92.5,-92.5,87.5,155,162.5,167.5,167.5,415,,,,SBD,Raw,F,Open,Yes
5,Samantha Day,CA,75,74.3,,42,130,-135,135,135,80,85,-90,85,165,175,182.5,182.5,402.5,,,,SBD,Raw,F,Open,Yes
6,Sharon Trammell,OR,75,74.4,,26,140,150,-162.5,150,75,82.5,87.5,87.5,152.5,165,-175,165,402.5,,,,SBD,Raw,F,Open,Yes
7,Brittany Hirt,WA,75,74.8,,31,137.5,145,150,150,72.5,77.5,-82.5,77.5,145,155,160,160,387.5,,,,SBD,Raw,F,Open,Yes
8,Morgan Rutherford,IA,75,73.5,,26,125,130,-135,130,72.5,75,77.5,77.5,155,165,172.5,172.5,380,,,,SBD,Raw,F,Open,Yes
9,Brianne Barry,CA,75,72.6,,32,125,132.5,-140,132.5,67.5,77.5,85,85,142.5,152.5,-162.5,152.5,370,,,,SBD,Raw,F,Open,Yes
10,Briana Lee,AZ,75,72.3,,26,115,120,125,125,60,65,-70,65,152.5,162.5,172.5,172.5,362.5,,,,SBD,Raw,F,Open,Yes
11,Keyra Dixon,CA,75,72.2,,39,120,122.5,127.5,127.5,70,72.5,-75,72.5,142.5,-147.5,147.5,147.5,347.5,,,,SBD,Raw,F,Open,Yes
12,Casey Lynch,OR,75,74.5,,33,112.5,120,-125,120,65,67.5,-72.5,67.5,142.5,152.5,157.5,157.5,345,,,,SBD,Raw,F,Open,Yes
13,Kerry Kalinoski,PA,75,74.1,,24,127.5,137.5,-142.5,137.5,62.5,67.5,-70,67.5,127.5,137.5,-145,137.5,342.5,,,,SBD,Raw,F,Open,Yes
14,Brittany Hasson,VA,75,68.7,,25,120,130,-137.5,130,65,67.5,-70,67.5,130,140,-145,140,337.5,,,,SBD,Raw,F,Open,Yes
15,Elesia Jones,CA,75,73.6,,28,110,115,120,120,65,-70,-70,65,147.5,152.5,-162.5,152.5,337.5,,,,SBD,Raw,F,Open,Yes
16,Melissa Cass,WA,75,73.7,,29,102.5,112.5,117.5,117.5,-67.5,67.5,72.5,72.5,122.5,-130,130,130,320,,,,SBD,Raw,F,Open,Yes
17,Diane Anderson,CA,75,72,,44,95,102.5,-107.5,102.5,52.5,57.5,-60,57.5,125,140,-142.5,140,300,,,,SBD,Raw,F,Open,Yes
18,Alice Beck,KY,75,67.9,,38,115,-125,-125,115,60,-62.5,-62.5,60,75,,,75,250,,,,SBD,Raw,F,Open,Yes
1,Sierra Marshman,OR,82.5,80.9,,23,147.5,160,167.5,167.5,92.5,95,-100,95,152.5,165,175,175,437.5,,,,SBD,Raw,F,Open,Yes
2,Julianna Preston,ND,82.5,81,,29,-160,160,167.5,167.5,85,90,-97.5,90,160,170,-172.5,170,427.5,,,,SBD,Raw,F,Open,Yes
3,Amira Lamb,KS,82.5,77.4,,25,137.5,147.5,157.5,157.5,75,-85,85,85,147.5,157.5,167.5,167.5,410,,,,SBD,Raw,F,Open,Yes
4,Suzette Aranda,CA,82.5,82.1,,46,117.5,130,137.5,137.5,70,77.5,80,80,155,167.5,175,175,392.5,,,,SBD,Raw,F,Open,Yes
5,Kirsten Rockwood,PA,82.5,82.4,,26,120,137.5,145,145,75,82.5,87.5,87.5,142.5,152.5,-162.5,152.5,385,,,,SBD,Raw,F,Open,Yes
6,Donna Weidow,MT,82.5,81,,47,132.5,-142.5,-142.5,132.5,75,-80,-80,75,155,-162.5,162.5,162.5,370,,,,SBD,Raw,F,Open,Yes
7,Natalie Fitz,VA,82.5,77.9,,29,130,137.5,-142.5,137.5,77.5,80,82.5,82.5,137.5,145,-150,145,365,,,,SBD,Raw,F,Open,Yes
8,Felicia Baker,CA,82.5,79.5,,35,-117.5,117.5,-127.5,117.5,65,-70,70,70,155,-172.5,175,175,362.5,,,,SBD,Raw,F,Open,Yes
9,Christina Ullman,OH,82.5,81.4,,50,-130,130,-138,130,72.5,-78,-78,72.5,152.5,-160,-160,152.5,355,,,,SBD,Raw,F,Open,Yes
10,Michelle Guerrero,CA,82.5,80.5,,36,107.5,115,-125,115,57.5,67.5,-72.5,67.5,152.5,165,-185,165,347.5,,,,SBD,Raw,F,Open,Yes
11,Samantha Kempink,NY,82.5,81.9,,29,125,130,-135,130,55,60,-62.5,60,147.5,157.5,-162.5,157.5,347.5,,,,SBD,Raw,F,Open,Yes
DQ,Rebecca Weston,IN,82.5,78.6,,26,-142.5,-142.5,-142.5,,70,72.5,75,75,155,160,167.5,167.5,,,,,SBD,Raw,F,Open,Yes
DQ,Rachel Bouffard,OR,82.5,80.9,,31,-125,-125,-125,,60,65,-70,65,145,152.5,-155,152.5,,,,,SBD,Raw,F,Open,Yes
1,LaShae Rolle,FL,90,89.7,,24,155,165,-175,165,92.5,97.5,100.5,100.5,190,203,-210,203,468.5,,,,SBD,Raw,F,Open,Yes
2,Shamaine McVay,MI,90,88.4,,39,165,170,-175,170,85,87.5,-90,87.5,187.5,195,197.5,197.5,455,,,,SBD,Raw,F,Open,Yes
3,Nicole Praet,OH,90,88.4,,31,165,-170,-170,165,95,-97.5,97.5,97.5,167.5,175,187.5,187.5,450,,,,SBD,Raw,F,Open,Yes
4,Kyrianna Sorensen,OR,90,88.6,,28,150,157.5,160,160,85,90,95,95,-185,185,-195,185,440,,,,SBD,Raw,F,Open,Yes
5,Katharine Davis #2,PA,90,83.5,,29,142.5,150,-152.5,150,85,90,-92.5,90,160,167.5,-170,167.5,407.5,,,,SBD,Raw,F,Open,Yes
6,Christina Tupper,NC,90,88.9,,33,157.5,-167.5,-170,157.5,-82.5,82.5,-87.5,82.5,160,167.5,-180,167.5,407.5,,,,SBD,Raw,F,Open,Yes
7,Claudialina Solis,TX,90,87.7,,31,140,147.5,-152.5,147.5,75,77.5,-80,77.5,160,167.5,170,170,395,,,,SBD,Raw,F,Open,Yes
8,Jacquelyne Stieber,CA,90,86.3,,28,132.5,142.5,-150,142.5,80,87.5,-90,87.5,160,-167.5,-167.5,160,390,,,,SBD,Raw,F,Open,Yes
9,Laura Hartle,OR,90,87.5,,35,140,147.5,-152.5,147.5,75,80,-85,80,145,155,-165,155,382.5,,,,SBD,Raw,F,Open,Yes
10,Danielle Valentine,MI,90,87,,44,122.5,130,-137.5,130,62.5,67.5,-70,67.5,137.5,145,-155,145,342.5,,,,SBD,Raw,F,Open,Yes
11,Sarah Koshy,PA,90,89.9,,22,112.5,122.5,127.5,127.5,52.5,55,57.5,57.5,127.5,135,140,140,325,,,,SBD,Raw,F,Open,Yes
1,Gabi Dixson,OR,90+,138.8,,29,212.5,225,235,235,102.5,110,115,115,247.5,-260,260,260,610,,,,SBD,Raw,F,Open,Yes
2,Monique Boddie,CA,90+,117.2,,39,185,190,-200,190,130,135,-140,135,220,230,240,240,565,,,,SBD,Raw,F,Open,Yes
3,Abby Fulkerson,MO,90+,112.6,,24,175,187.5,195,195,90,97.5,102.5,102.5,192.5,205,215,215,512.5,,,,SBD,Raw,F,Open,Yes
4,Emily Joiner,AL,90+,109.5,,23,180,192.5,-200,192.5,105,112.5,120,120,160,175,190,190,502.5,,,,SBD,Raw,F,Open,Yes
5,Sione Lister,WA,90+,125.6,,29,177.5,187.5,195,195,82.5,87.5,-92.5,87.5,187.5,200,210,210,492.5,,,,SBD,Raw,F,Open,Yes
6,Brook Egbert,MT,90+,119.3,,40,180,-190,190,190,100,108,-112.5,108,180,192.5,-203,192.5,490.5,,,,SBD,Raw,F,Open,Yes
7,Heather Struminger,NC,90+,133.4,,30,170,177.5,182.5,182.5,100,105,-107.5,105,172.5,185,195,195,482.5,,,,SBD,Raw,F,Open,Yes
8,Heather Clarke,CA,90+,97.1,,36,165,175,-182.5,175,87.5,95,100,100,175,185,197.5,197.5,472.5,,,,SBD,Raw,F,Open,Yes
9,Veronica Hernandez,CA,90+,116.1,,23,185,-197.5,-197.5,185,85,92.5,-102.5,92.5,185,192.5,-210,192.5,470,,,,SBD,Raw,F,Open,Yes
10,Bonnie Hogue,IN,90+,122.6,,25,202.5,-212.5,217.5,217.5,80,85,-95,85,167.5,-172.5,-172.5,167.5,470,,,,SBD,Raw,F,Open,Yes
11,Marissa Ramirez #1,CA,90+,101.6,,23,150,165,180,180,75,-82.5,82.5,82.5,185,202.5,-207.5,202.5,465,,,,SBD,Raw,F,Open,Yes
12,Mandisa Berg,CA,90+,141.2,,30,-177.5,187.5,-192.5,187.5,95,105,-107.5,105,172.5,-182.5,-182.5,172.5,465,,,,SBD,Raw,F,Open,Yes
13,Sarah Webb,TX,90+,113,,31,142.5,152.5,160,160,97.5,105,-107.5,105,165,177.5,190,190,455,,,,SBD,Raw,F,Open,Yes
14,Shannon Nichols #1,OR,90+,103.2,,37,162.5,172.5,-180,172.5,62.5,67.5,70,70,175,182.5,190,190,432.5,,,,SBD,Raw,F,Open,Yes
15,Hannah Ensel,NJ,90+,106.2,,31,137.5,150,-165,150,80,85,-90,85,175,185,192.5,192.5,427.5,,,,SBD,Raw,F,Open,Yes
16,Susan Chambers,IL,90+,91.2,,33,122.5,127.5,132.5,132.5,72.5,77.5,82.5,82.5,175,185,192.5,192.5,407.5,,,,SBD,Raw,F,Open,Yes
17,Paris Hill,ND,90+,111.4,,28,-137.5,137.5,142.5,142.5,85,87.5,-92.5,87.5,137.5,142.5,150,150,380,,,,SBD,Raw,F,Open,Yes
18,Anastacia Burnett Collis,IA,90+,101.5,,31,132.5,140,142.5,142.5,70,75,77.5,77.5,145,152.5,-160,152.5,372.5,,,,SBD,Raw,F,Open,Yes
DQ,Marissa Wilson,MD,90+,106.7,,29,235,245,255,255,127.5,133,137.5,137.5,-205,-205,-205,,,,,,SBD,Raw,F,Open,Yes
1,Molly Hendryx,OR,56,54.7,,37,105,110,115,115,57.5,60,62.5,62.5,157.5,163,167.5,167.5,345,,,,SBD,Raw,F,Submasters 35-39,Yes
1,Natasha Beasley,VA,60,60,,38,105,-115,115,115,80,85,-87.5,85,160,-175,-175,160,360,,,,SBD,Raw,F,Submasters 35-39,Yes
2,Rita Sanchez,CA,60,59.2,,35,75,82.5,-87.5,82.5,47.5,52.5,55,55,102.5,115,-125,115,252.5,,,,SBD,Raw,F,Submasters 35-39,Yes
1,Jill McCudy,CA,67.5,67.4,,37,95,100,105,105,-60,62.5,-67.5,62.5,117.5,-127.5,-127.5,117.5,285,,,,SBD,Raw,F,Submasters 35-39,Yes
1,Keyra Dixon,CA,75,72.2,,39,120,122.5,127.5,127.5,70,72.5,-75,72.5,142.5,-147.5,147.5,147.5,347.5,,,,SBD,Raw,F,Submasters 35-39,Yes
2,Alice Beck,KY,75,67.9,,38,115,-125,-125,115,60,-62.5,-62.5,60,75,,,75,250,,,,SBD,Raw,F,Submasters 35-39,Yes
1,Felicia Baker,CA,82.5,79.5,,35,-117.5,117.5,-127.5,117.5,65,-70,70,70,155,-172.5,175,175,362.5,,,,SBD,Raw,F,Submasters 35-39,Yes
2,Michelle Guerrero,CA,82.5,80.5,,36,107.5,115,-125,115,57.5,67.5,-72.5,67.5,152.5,165,-185,165,347.5,,,,SBD,Raw,F,Submasters 35-39,Yes
1,Shamaine McVay,MI,90,88.4,,39,165,170,-175,170,85,87.5,-90,87.5,187.5,195,197.5,197.5,455,,,,SBD,Raw,F,Submasters 35-39,Yes
1,Monique Boddie,CA,90+,117.2,,39,185,190,-200,190,130,135,-140,135,220,230,240,240,565,,,,SBD,Raw,F,Submasters 35-39,Yes
2,Heather Clarke,CA,90+,97.1,,36,165,175,-182.5,175,87.5,95,100,100,175,185,197.5,197.5,472.5,,,,SBD,Raw,F,Submasters 35-39,Yes
3,Shannon Nichols #1,OR,90+,103.2,,37,162.5,172.5,-180,172.5,62.5,67.5,70,70,175,182.5,190,190,432.5,,,,SBD,Raw,F,Submasters 35-39,Yes
4,Carla Torosian,MT,90+,145.5,,36,107.5,-115,115,115,75,80,-85,80,152.5,162.5,172.5,172.5,367.5,,,,SBD,Raw,F,Submasters 35-39,Yes
1,Angelica Farias,CA,56,53.7,,45,65,72.5,-77.5,72.5,40,45,47.5,47.5,97.5,102.5,105,105,225,,,,SBD,Raw,F,Masters 45-49,Yes
2,Danyel Mills,OR,56,56,,46,57.5,60,65,65,45,-47.5,-47.5,45,97.5,100,102.5,102.5,212.5,,,,SBD,Raw,F,Masters 45-49,Yes
1,Debi Stoliar,CA,60,58.4,,41,122.5,127.5,132.5,132.5,62.5,67.5,70,70,137.5,145,-150,145,347.5,137.5,,,SBD,Raw,F,Masters 40-44,Yes
2,Kandi Lagas,OR,60,59.7,,43,112.5,117.5,-122.5,117.5,60,65,-67.5,65,132.5,137.5,-142.5,137.5,320,,,,SBD,Raw,F,Masters 40-44,Yes
1,Lisa Torres,CA,60,58.1,,45,105,107.5,110,110,57.5,-60,-60,57.5,130,137.5,142.5,142.5,310,,,,SBD,Raw,F,Masters 45-49,Yes
1,Kelly Barron,SC,60,57.9,,50,-97.5,97.5,-102.5,97.5,62.5,65,68,68,115,120,123,123,288.5,,,,SBD,Raw,F,Masters 50-54,Yes
2,Becky Hammon,MO,60,58.4,,51,-100,100,105,105,52.5,57.5,60,60,100,110,117.5,117.5,282.5,,,,SBD,Raw,F,Masters 50-54,Yes
3,Heather Campbell,OR,60,59.2,,50,85,-92.5,-92.5,85,52.5,57.5,-62.5,57.5,112.5,120,125,125,267.5,,,,SBD,Raw,F,Masters 50-54,Yes
4,Cynthia Syintsakos,CA,60,58.8,,54,-85,85,90,90,52.5,57.5,-63,57.5,90,102.5,112.5,112.5,260,,,,SBD,Raw,F,Masters 50-54,Yes
1,Sharon Bohling,IN,60,57.6,,58,100,105,113,113,57.5,62.5,67.5,67.5,130,137.5,145,145,325.5,120,,150,SBD,Raw,F,Masters 55-59,Yes
2,Judy Oberlander,CA,60,58.6,,58,80,-85,85,85,-50,52.5,55,55,110,122.5,127.5,127.5,267.5,,,,SBD,Raw,F,Masters 55-59,Yes
1,Charlene Mizner,AZ,60,56.9,,66,57.5,60,62.5,62.5,32.5,35,-37.5,35,102.5,110.5,113,113,210.5,,,,SBD,Raw,F,Masters 65-69,Yes
1,Nina Tesene,IA,67.5,64.5,1980-07-09,41,117.5,122.5,125,125,57.5,60,62.5,62.5,145,155,160,160,347.5,,,,SBD,Raw,F,Masters 40-44,Yes
2,Tatania Emmick,IA,67.5,65.4,,44,110,115,120,120,57.5,60,-62.5,60,137.5,145,-150,145,325,,,,SBD,Raw,F,Masters 40-44,Yes
3,Corey Anderson #1,CA,67.5,65.1,,42,97.5,107.5,-117.5,107.5,55,60,-62.5,60,137.5,-147.5,147.5,147.5,315,,,,SBD,Raw,F,Masters 40-44,Yes
1,Charsell Kincaid,MI,67.5,65.9,,53,110,120,-125,120,57.5,60,-62.5,60,142.5,152.5,157.5,157.5,337.5,,,,SBD,Raw,F,Masters 50-54,Yes
2,Rachel Tineo,AZ,67.5,65.4,,51,92.5,95,,95,62.5,-65,-65,62.5,120,132.5,145,145,302.5,,,,SBD,Raw,F,Masters 50-54,Yes
3,Shannon Paulson,CA,67.5,65.8,,50,82.5,87.5,92.5,92.5,70,75,77.5,77.5,120,127.5,-135,127.5,297.5,,,,SBD,Raw,F,Masters 50-54,Yes
1,Linda Franklin,CA,67.5,66.8,,64,115,122.5,-125,122.5,60,67.5,70,70,145,155,-160,155,347.5,,,,SBD,Raw,F,Masters 60-64,Yes
2,Kay Walden,KS,67.5,66.9,,60,-110,110,-122.5,110,55,60,-65,60,127.5,145,-150,145,315,,,,SBD,Raw,F,Masters 60-64,Yes
3,Christine Fox,MO,67.5,67.4,,62,57.5,-62.5,-62.5,57.5,37.5,42.5,-45,42.5,77.5,87.5,95,95,195,,,,SBD,Raw,F,Masters 60-64,Yes
1,Samantha Day,CA,75,74.3,,42,130,-135,135,135,80,85,-90,85,165,175,182.5,182.5,402.5,,,,SBD,Raw,F,Masters 40-44,Yes
2,Diane Anderson,CA,75,72,,44,95,102.5,-107.5,102.5,52.5,57.5,-60,57.5,125,140,-142.5,140,300,,,,SBD,Raw,F,Masters 40-44,Yes
1,Evelyn McSwain,AL,75,73,,49,95,-105,-105,95,40,47.5,52.5,52.5,100,117.5,130,130,277.5,,,,SBD,Raw,F,Masters 45-49,Yes
1,Lori Wortman,MO,75,74.9,,55,72.5,-80,80,80,37.5,45,-47.5,45,97.5,110,117.5,117.5,242.5,,,,SBD,Raw,F,Masters 55-59,Yes
1,Barbara DeAngelis,VT,75,73.2,,76,-55,65,67.5,67.5,27.5,32.5,35,35,97.5,105,115,115,217.5,,,,SBD,Raw,F,Masters 75-79,Yes
1,Emily Keller,KY,82.5,80.5,,40,117.5,-125,125,125,47.5,50,-52.5,50,-140,140,-150,140,315,,,,SBD,Raw,F,Masters 40-44,Yes
1,Suzette Aranda,CA,82.5,82.1,,46,117.5,130,137.5,137.5,70,77.5,80,80,155,167.5,175,175,392.5,,,,SBD,Raw,F,Masters 45-49,Yes
2,Donna Weidow,MT,82.5,81,,47,132.5,-142.5,-142.5,132.5,75,-80,-80,75,155,-162.5,162.5,162.5,370,,,,SBD,Raw,F,Masters 45-49,Yes
1,Christina Ullman,OH,82.5,81.4,,50,-130,130,-138,130,72.5,-78,-78,72.5,152.5,-160,-160,152.5,355,,,,SBD,Raw,F,Masters 50-54,Yes
2,Shari Langrall,WV,82.5,80.1,,50,-110,110,115,115,65,-70,70,70,150,157.5,-165,157.5,342.5,,,,SBD,Raw,F,Masters 50-54,Yes
1,Danielle Valentine,MI,90,87,,44,122.5,130,-137.5,130,62.5,67.5,-70,67.5,137.5,145,-155,145,342.5,,,,SBD,Raw,F,Masters 40-44,Yes
1,Megan Wiesner,CA,90,85.1,,46,-135,-135,135,135,65,67.5,-70,67.5,180,187.5,190,190,392.5,,,,SBD,Raw,F,Masters 45-49,Yes
1,Susan Hines,WA,90,84.3,,53,135,-147.5,147.5,147.5,65,70,77.5,77.5,145,150,-162.5,150,375,,,,SBD,Raw,F,Masters 50-54,Yes
1,Brook Egbert,MT,90+,119.3,,40,180,-190,190,190,100,108,-112.5,108,180,192.5,-203,192.5,490.5,,,,SBD,Raw,F,Masters 40-44,Yes
2,LaTosha Cleaver,TX,90+,97.8,,41,142.5,150,-152.5,150,87.5,97.5,-102.5,97.5,200,-210,-210,200,447.5,,,,SBD,Raw,F,Masters 40-44,Yes
3,Hilary Mahoney,AZ,90+,130.8,,41,130,140,145,145,90,95,-97.5,95,122.5,130,-137.5,130,370,,,,SBD,Raw,F,Masters 40-44,Yes
1,Lynn Bassett,UT,90+,108.1,,55,137.5,145,-150,145,92.5,-97.5,-97.5,92.5,-147.5,152.5,160,160,397.5,,,,SBD,Raw,F,Masters 55-59,Yes
2,Kimberly Evans,NC,90+,109,,56,-137.5,137.5,-142.5,137.5,70,-77.5,-77.5,70,167.5,175,180,180,387.5,,,,SBD,Raw,F,Masters 55-59,Yes
1,Andrew MacGray,NY,60,59.2,,16,127.5,132.5,-137.5,132.5,70,75,-80,75,165,170,-175.5,170,377.5,,,,SBD,Raw,M,Juniors 16-17,Yes
1,Dennis Sadorra,CA,60,59.5,,21,155,165,-172.5,165,110,120,122.5,122.5,-192.5,192.5,205,205,492.5,,,,SBD,Raw,M,Juniors 20-23,Yes
1,Isiahas Salazar,CA,67.5,66.1,,16,140,152.5,157.5,157.5,-90,92.5,97.5,97.5,180,190,-200,190,445,,,,SBD,Raw,M,Juniors 16-17,Yes
1,Thiago Caetano,CA,67.5,65.5,,18,175,185,190,190,100,110,112.5,112.5,-185,200,-210,200,502.5,,,,SBD,Raw,M,Juniors 18-19,Yes
2,Keidan Brennan,MT,67.5,65.3,,18,167.5,175,-185,175,102.5,107.5,110,110,205,-220,-220,205,490,,,,SBD,Raw,M,Juniors 18-19,Yes
1,Avery Jackson #2,SC,67.5,66.2,,23,210,225,238.5,238.5,135,140,145,145,232.5,-250,250,250,633.5,,,,SBD,Raw,M,Juniors 20-23,Yes
2,Joshua Lipp,CA,67.5,66.9,,23,175,187.5,-195,187.5,122.5,130,132.5,132.5,237.5,252.5,262.5,262.5,582.5,,,,SBD,Raw,M,Juniors 20-23,Yes
3,Billy Alcaide,AK,67.5,67.3,,23,177.5,185,-187.5,185,120,125,130,130,207.5,220,227.5,227.5,542.5,,,,SBD,Raw,M,Juniors 20-23,Yes
4,Jesus Ramirez,CA,67.5,65.8,,20,147.5,170,-177.5,170,107.5,112.5,-115,112.5,185,190,,190,472.5,,,,SBD,Raw,M,Juniors 20-23,Yes
5,Zachary Souza,MA,67.5,65,,23,-137.5,137.5,-142.5,137.5,95,-102.5,-102.5,95,175,182.5,192.5,192.5,425,,,,SBD,Raw,M,Juniors 20-23,Yes
DQ,Sebastian Becerra,TX,67.5,66.4,,22,-170,-175,-175,,107.5,110,-112.5,110,205,210,212.5,212.5,,,,,SBD,Raw,M,Juniors 20-23,Yes
1,Liam Hannon,PA,75,73.4,,18,177.5,190,-197.5,190,122.5,130,135,135,200,215,-222.5,215,540,,,,SBD,Raw,M,Juniors 18-19,Yes
2,Hunter Birozy,CA,75,72.1,,19,157.5,170,177.5,177.5,-97.5,102.5,105,105,195,205,220,220,502.5,,,,SBD,Raw,M,Juniors 18-19,Yes
1,Ezra Newell,NM,75,73.7,,20,200,-210,210,210,125,130,132.5,132.5,240,255,-262.5,255,597.5,,,,SBD,Raw,M,Juniors 20-23,Yes
2,Bryon Yang,CO,75,73.4,,21,210,220,-230,220,102.5,107.5,112.5,112.5,217.5,230,242.5,242.5,575,,,,SBD,Raw,M,Juniors 20-23,Yes
3,Gabriel Youngquist,TX,75,72.4,,23,-207.5,-210,210,210,112.5,117.5,-125,117.5,225,235,243,243,570.5,,,245,SBD,Raw,M,Juniors 20-23,Yes
4,Alejandro Valenzuela,CA,75,74.4,,23,150,152.5,-162.5,152.5,102.5,-110,110,110,210,-215,-215,210,472.5,,,,SBD,Raw,M,Juniors 20-23,Yes
5,Stephen Vannevel,OR,75,73.1,,20,-150,150,157.5,157.5,90,95,100,100,195,205,-215,205,462.5,,,,SBD,Raw,M,Juniors 20-23,Yes
1,Shane Smith,OH,82.5,81.6,,17,177.5,185,-190,185,112.5,-120,-125,112.5,205,217.5,-227.5,217.5,515,,,,SBD,Raw,M,Juniors 16-17,Yes
1,Leo DeLeon,CA,82.5,81.9,2003-03-27,18,215,222.5,230,230,135,142.5,147.5,147.5,260,272.5,280,280,657.5,,,,SBD,Raw,M,Juniors 18-19,Yes
2,Peter Esset,NJ,82.5,78.6,,19,197.5,-215,-215,197.5,112.5,-122.5,122.5,122.5,260,282.5,-292.5,282.5,602.5,,,,SBD,Raw,M,Juniors 18-19,Yes
3,Zackary Brandt,WA,82.5,81.1,,18,205,215,222.5,222.5,90,105,115,115,215,227.5,242.5,242.5,580,,,,SBD,Raw,M,Juniors 18-19,Yes
4,Daniel Anderson,MT,82.5,79.8,,19,167.5,177.5,-182.5,177.5,117.5,-125,-125,117.5,207.5,-215,,207.5,502.5,,,,SBD,Raw,M,Juniors 18-19,Yes
1,Danny Stachelek,NY,82.5,82.3,,22,250,262.5,-272.5,262.5,160,167.5,172.5,172.5,310,325,332.5,332.5,767.5,,,,SBD,Raw,M,Juniors 20-23,Yes
2,Calvin Bolding,CA,82.5,80.6,,21,200,-210,210,210,-132.5,132.5,-142.5,132.5,232.5,250,-260,250,592.5,,,,SBD,Raw,M,Juniors 20-23,Yes
3,Jose Vasquez,CA,82.5,81.4,,22,205,215,-222.5,215,-135,-135,135,135,225,235,-240,235,585,,,,SBD,Raw,M,Juniors 20-23,Yes
4,Wyatt Christiansen,AZ,82.5,82.1,,23,197.5,207.5,215,215,112.5,117.5,-122.5,117.5,240,252.5,-262.5,252.5,585,,,,SBD,Raw,M,Juniors 20-23,Yes
5,Edwin Burgos,MA,82.5,81.1,,23,200,-212.5,-212.5,200,-125,132.5,137.5,137.5,227.5,-237.5,237.5,237.5,575,,,,SBD,Raw,M,Juniors 20-23,Yes
6,Austin Souza,MA,82.5,77.3,,21,192.5,205,-212.5,205,-135,137.5,-150,137.5,200,215,-227.5,215,557.5,,,,SBD,Raw,M,Juniors 20-23,Yes
7,Sean Dressler,NJ,82.5,81.1,,21,182.5,190,197.5,197.5,-125,127.5,132.5,132.5,182.5,195,205,205,535,,,,SBD,Raw,M,Juniors 20-23,Yes
DQ,Gabriello Lewis,VT,82.5,77.8,,20,-197.5,-200,-200,,-142.5,-142.5,145,145,227.5,232.5,240,240,,,,,SBD,Raw,M,Juniors 20-23,Yes
1,Ephraim Makely,CA,90,89.1,,16,175,180,187.5,187.5,110,120,125,125,220,235,250,250,562.5,,,,SBD,Raw,M,Juniors 16-17,Yes
1,Josiah Richardson,WI,90,89.5,,19,217.5,230,-235,230,-160,-160,160,160,275,287.5,295,295,685,,,,SBD,Raw,M,Juniors 18-19,Yes
2,Ricardo Trejo,CA,90,88.1,,19,-225,225,-232.5,225,142.5,155,-165,155,-237.5,-240,240,240,620,,,,SBD,Raw,M,Juniors 18-19,Yes
3,Augustine Sadorra,CA,90,88.3,,19,207.5,210,-212.5,210,127.5,132.5,-137.5,132.5,240,245,-247.5,245,587.5,,,,SBD,Raw,M,Juniors 18-19,Yes
1,Trey Rosen,CA,90,89.4,,23,212.5,220,235,235,185,197.5,-202.5,197.5,300,317.5,-325,317.5,750,,,,SBD,Raw,M,Juniors 20-23,Yes
2,Xavier Bailey,OH,90,89.3,,21,257.5,265,273,273,167.5,175,180,180,260,-270,272.5,272.5,725.5,,,,SBD,Raw,M,Juniors 20-23,Yes
3,Nicholas Elia,OH,90,88.9,,22,235,250,-260,250,147.5,160,-170,160,-257.5,275,280,280,690,,,,SBD,Raw,M,Juniors 20-23,Yes
4,Christian Kruszewski,AZ,90,85.4,,22,220,232.5,237.5,237.5,122.5,130,-132.5,130,222.5,235,245,245,612.5,,,,SBD,Raw,M,Juniors 20-23,Yes
5,Levi Lafountain,ND,90,89.8,,20,207.5,215,-222.5,215,140,-147.5,-147.5,140,240,252.5,-260,252.5,607.5,,,,SBD,Raw,M,Juniors 20-23,Yes
6,Austin Rife,IN,90,83.2,,23,-212.5,212.5,-227.5,212.5,120,-127.5,-127.5,120,240,247.5,250,250,582.5,,,,SBD,Raw,M,Juniors 20-23,Yes
7,Cooper Cordero,CO,90,88.2,,23,-212.5,-212.5,212.5,212.5,-137.5,-140,140,140,227.5,-237.5,-247.5,227.5,580,,,,SBD,Raw,M,Juniors 20-23,Yes
DQ,Quinton Briggs,UT,90,88.9,,21,250,,,250,142.5,147.5,-157.5,147.5,,,,,,,,,SBD,Raw,M,Juniors 20-23,Yes
DQ,Alexandre Perez,CA,90,89.3,,23,-227.5,-232.5,-232.5,,177.5,187.5,-192.5,187.5,260,275,285,285,,,,,SBD,Raw,M,Juniors 20-23,Yes
1,James Fetzer,CA,100,98.2,,17,185,200,210,210,117.5,127.5,135,135,235,250,-260,250,595,,,,SBD,Raw,M,Juniors 16-17,Yes
2,Max Chhabra,IN,100,95.5,,17,-210,-215,215,215,-95,102.5,105,105,195,207.5,210,210,530,,,,SBD,Raw,M,Juniors 16-17,Yes
1,Garrett Goad,OR,100,99.7,,19,-192.5,192.5,215,215,155,165,-167.5,165,200,215,-225,215,595,,,,SBD,Raw,M,Juniors 18-19,Yes
2,Jonathan San Nicolas,CA,100,97.3,,19,155,170,182.5,182.5,110,120,130,130,192.5,207.5,220,220,532.5,,,,SBD,Raw,M,Juniors 18-19,Yes
1,Zach Helton,TX,100,95.9,,21,225,237.5,245,245,130,137.5,140,140,300,315,325,325,710,,,,SBD,Raw,M,Juniors 20-23,Yes
2,Jeffrey Coplin,PA,100,98.3,,22,235,245,255,255,135,145,150,150,250,265,277.5,277.5,682.5,,,,SBD,Raw,M,Juniors 20-23,Yes
3,Anthony Resendez,NM,100,98.8,,21,215,232.5,245,245,-135,140,-150,140,257.5,275,287.5,287.5,672.5,,,,SBD,Raw,M,Juniors 20-23,Yes
DQ,Steven Dunczyk,PA,100,98.5,,22,237.5,250,-260,250,145,150,155,155,-260,-260,-270,,,,,,SBD,Raw,M,Juniors 20-23,Yes
1,Gavin McDill,IL,110,105.3,,18,275.5,-290,290,290,170,177.5,182.5,182.5,250,275.5,280,280,752.5,,,,SBD,Raw,M,Juniors 18-19,Yes
1,Kholbe Leaks,IL,110,103.9,,22,-250,260,-267.5,260,147.5,160,-162.5,160,295,307.5,310,310,730,,,,SBD,Raw,M,Juniors 20-23,Yes
2,Julius Pilla,PA,110,102,,21,240,252.5,-260,252.5,152.5,160,167.5,167.5,262.5,282.5,292.5,292.5,712.5,,,,SBD,Raw,M,Juniors 20-23,Yes
3,Zachary McKenzie,NY,110,107.5,,22,247.5,262.5,270,270,175,182.5,185,185,240,-250,-250,240,695,,,,SBD,Raw,M,Juniors 20-23,Yes
4,Jacob Luna,OR,110,107.7,,20,250,-262.5,-262.5,250,147.5,152.5,157.5,157.5,272.5,282.5,-290,282.5,690,,,,SBD,Raw,M,Juniors 20-23,Yes
5,Kyle Brackett,CT,110,103.3,,23,220,230,242.5,242.5,137.5,147.5,152.5,152.5,255,267.5,282.5,282.5,677.5,,,,SBD,Raw,M,Juniors 20-23,Yes
6,Sam Mangialardi #2,AZ,110,106.1,,22,230,242.5,255,255,140,147.5,-150,147.5,257.5,272.5,-287.5,272.5,675,,,,SBD,Raw,M,Juniors 20-23,Yes
7,Joshua Taitague,NV,110,109.2,,23,200,210,222.5,222.5,147.5,155,162.5,162.5,215,227.5,250,250,635,,,,SBD,Raw,M,Juniors 20-23,Yes
8,Jonathan Clark #4,AZ,110,107.5,,21,-210,-210,210,210,142.5,150,155,155,225,240,-255,240,605,,,,SBD,Raw,M,Juniors 20-23,Yes
9,Theodore Wager,VT,110,109.4,,21,190,195,-200,195,135,140,-145,140,230,235,-237.5,235,570,,,,SBD,Raw,M,Juniors 20-23,Yes
10,Josue Martinez,MT,110,109.1,,23,170,180,-187.5,180,120,-127.5,-127.5,120,205,217.5,220,220,520,,,,SBD,Raw,M,Juniors 20-23,Yes
1,Jack Bartlett #1,OR,125,122.3,,17,-290,290,-305,290,145,158,-167.5,158,247.5,-265,272.5,272.5,720.5,,,,SBD,Raw,M,Juniors 16-17,Yes
DQ,James Ralph,IN,125,121.2,,17,-250,-265,-265,,130,-140,-140,130,255,-275,-280,255,,,,,SBD,Raw,M,Juniors 16-17,Yes
1,Nic Burris,OH,125,110.1,,18,187.5,202.5,-210,202.5,155,-162.5,162.5,162.5,210,222.5,230,230,595,,,,SBD,Raw,M,Juniors 18-19,Yes
1,Cesar Ponce,CA,125,121.1,,23,265,285,295,295,170,180,187.5,187.5,302.5,322.5,-330.5,322.5,805,,,,SBD,Raw,M,Juniors 20-23,Yes
2,Marc Sanchez,CO,125,122.2,,23,290,305,315,315,155,-162.5,162.5,162.5,290,315,-337.5,315,792.5,,,,SBD,Raw,M,Juniors 20-23,Yes
3,James DeVries,CA,125,124.3,,23,260,277.5,285,285,147.5,157.5,160,160,240,255,-265,255,700,,,,SBD,Raw,M,Juniors 20-23,Yes
4,Polo Tapia,OR,125,125,,20,-270,270,280,280,142.5,150,155,155,235,247.5,252.5,252.5,687.5,,,,SBD,Raw,M,Juniors 20-23,Yes
5,Ramiro Cazares-Orozco,OR,125,120.7,,21,-222.5,230,-240,230,140,147.5,162.5,162.5,215,227.5,237.5,237.5,630,,,,SBD,Raw,M,Juniors 20-23,Yes
6,Karl Buenviaje,CA,125,120.9,,20,230,237.5,-245,237.5,125,-132.5,-132.5,125,250,-260,-260,250,612.5,,,,SBD,Raw,M,Juniors 20-23,Yes
DQ,Austin Page,MT,125,124.6,,22,220,-230,-230,220,142.5,-150,-150,142.5,-220,-220,-220,,,,,,SBD,Raw,M,Juniors 20-23,Yes
1,Connor McDonald,MD,140,136,,17,75,,,75,165.5,-170,,165.5,75,,,75,315.5,,,,SBD,Raw,M,Juniors 16-17,Yes
1,Terrell Lewis,NV,140,134.1,,19,-265,275,280,280,-172.5,182.5,-187.5,182.5,260,-265,-265,260,722.5,285,,,SBD,Raw,M,Juniors 18-19,Yes
1,Victoriano Mesa,AZ,140+,163.4,,21,-257.5,-257.5,257.5,257.5,150,155,-157.5,155,220,227.5,-230,227.5,640,,,,SBD,Raw,M,Juniors 20-23,Yes
1,Avery Jackson #2,SC,67.5,66.2,,23,210,225,238.5,238.5,135,140,145,145,232.5,-250,250,250,633.5,,,,SBD,Raw,M,Open,Yes
2,John Paul Arreglado,NV,67.5,67.3,,31,195,207.5,-212.5,207.5,142.5,150,-155,150,227.5,240,245,245,602.5,,,,SBD,Raw,M,Open,Yes
3,Joshua Lipp,CA,67.5,66.9,,23,175,187.5,-195,187.5,122.5,130,132.5,132.5,237.5,252.5,262.5,262.5,582.5,,,,SBD,Raw,M,Open,Yes
4,Brandon Lopez,AZ,67.5,65.7,,26,180,192.5,202.5,202.5,117.5,122.5,-127.5,122.5,220,230,-240,230,555,,,,SBD,Raw,M,Open,Yes
5,Daniel Burke,KY,67.5,65.7,,32,175,185,190,190,155,-160,-160,155,205,-215,-215,205,550,,,,SBD,Raw,M,Open,Yes
6,Billy Alcaide,AK,67.5,67.3,,23,177.5,185,-187.5,185,120,125,130,130,207.5,220,227.5,227.5,542.5,,,,SBD,Raw,M,Open,Yes
7,Keidan Brennan,MT,67.5,65.3,,18,167.5,175,-185,175,102.5,107.5,110,110,205,-220,-220,205,490,,,,SBD,Raw,M,Open,Yes
8,John Wehrli,CA,67.5,64.5,,57,-130,130,140,140,95,100,102.5,102.5,172.5,185.5,-190,185.5,428,,,,SBD,Raw,M,Open,Yes
1,Casmir Hughes,OH,75,74.8,,33,232.5,-245,245,245,150,-157.5,-157.5,150,290,322.5,-330,322.5,717.5,,,,SBD,Raw,M,Open,Yes
2,Alexander Canton,LA,75,74.8,,30,240,252.5,-255,252.5,175,-177.5,177.5,177.5,-210,210,-232.5,210,640,,,,SBD,Raw,M,Open,Yes
3,Estuardo Gonzalez,CA,75,73.2,,31,210,220,222.5,222.5,132.5,140,147.5,147.5,250,262.5,267.5,267.5,637.5,,,,SBD,Raw,M,Open,Yes
4,Zeesha Braslawsce,CA,75,74.1,,26,217.5,227.5,-235,227.5,137.5,142.5,145,145,237.5,255,-272.5,255,627.5,,,,SBD,Raw,M,Open,Yes
5,Marc-Anthony Ho,HI,75,74.7,,32,190,202.5,215,215,150,157.5,162.5,162.5,222.5,240,250,250,627.5,,,,SBD,Raw,M,Open,Yes
6,Sage Stokes,CA,75,74.5,,28,227.5,-237.5,-237.5,227.5,130,-137.5,-137.5,130,247.5,255,-267.5,255,612.5,,,,SBD,Raw,M,Open,Yes
7,Ezra Newell,NM,75,73.7,,20,200,-210,210,210,125,130,132.5,132.5,240,255,-262.5,255,597.5,,,,SBD,Raw,M,Open,Yes
8,Nicholas Russo,CA,75,75,,29,210,217.5,-225,217.5,122.5,-130,-132.5,122.5,232.5,240,247.5,247.5,587.5,,,,SBD,Raw,M,Open,Yes
9,Thomas Ferris,PA,75,72.3,,31,182.5,192.5,197.5,197.5,132.5,137.5,142.5,142.5,197.5,207.5,217.5,217.5,557.5,,,,SBD,Raw,M,Open,Yes
10,Daniel Austin #2,TX,75,74.9,,38,182.5,190,197.5,197.5,132.5,-137.5,-137.5,132.5,217.5,227.5,-237.5,227.5,557.5,,,,SBD,Raw,M,Open,Yes
11,Emerson Miller,OH,75,74.3,,28,192.5,-210,212.5,212.5,112.5,120,-127.5,120,202.5,215,222.5,222.5,555,,,,SBD,Raw,M,Open,Yes
12,Jimmy Schroader,MI,75,72.4,,29,167.5,177.5,190,190,120,127.5,135,135,205,220,-227.5,220,545,,,,SBD,Raw,M,Open,Yes
13,Liam Hannon,PA,75,73.4,,18,177.5,190,-197.5,190,122.5,130,135,135,200,215,-222.5,215,540,,,,SBD,Raw,M,Open,Yes
14,Caleb Claassen,KS,75,72.6,,24,200,210,-212.5,210,102.5,107.5,110,110,205,215,-217.5,215,535,,,,SBD,Raw,M,Open,Yes
15,Richard Trujillo,CA,75,74.1,,36,162.5,172.5,182.5,182.5,120,127.5,130,130,170,190,200,200,512.5,,,,SBD,Raw,M,Open,Yes
16,Jose Medel,CA,75,73.6,,26,167.5,182.5,192.5,192.5,112.5,117.5,-125,117.5,195,-207.5,-207.5,195,505,,,,SBD,Raw,M,Open,Yes
17,Thomas Kopko,PA,75,73.1,,24,-170,170,-185,170,102.5,107.5,-110,107.5,205,-215,215,215,492.5,,,,SBD,Raw,M,Open,Yes
18,Alejandro Valenzuela,CA,75,74.4,,23,150,152.5,-162.5,152.5,102.5,-110,110,110,210,-215,-215,210,472.5,,,,SBD,Raw,M,Open,Yes
DQ,Nischal Singh,MD,75,73.6,,27,195,207.5,-212.5,207.5,117.5,122.5,-127.5,122.5,-210,-220,-220,,,,,,SBD,Raw,M,Open,Yes
DQ,Samuel Blanco,CA,75,74.5,,28,210,-217.5,217.5,217.5,-140,-140,-140,,245,-262.5,,245,,,,,SBD,Raw,M,Open,Yes
1,Danny Stachelek,NY,82.5,82.3,,22,250,262.5,-272.5,262.5,160,167.5,172.5,172.5,310,325,332.5,332.5,767.5,,,,SBD,Raw,M,Open,Yes
2,Andrew Ha,CA,82.5,75.7,,24,210,-220,220,220,130,142.5,-145,142.5,315,327.5,,327.5,690,,,,SBD,Raw,M,Open,Yes
3,Ramiro Espinosa,TX,82.5,82.4,,31,215,232.5,-237.5,232.5,147.5,162.5,-167.5,162.5,265,282.5,292.5,292.5,687.5,,,,SBD,Raw,M,Open,Yes
4,Brian Crosby,OH,82.5,82.3,,30,215,222.5,230,230,170,177.5,-182.5,177.5,255,270,-277.5,270,677.5,,,,SBD,Raw,M,Open,Yes
5,Colin Baroy,CA,82.5,81.1,,25,217.5,227.5,235,235,-115,120,125,125,272.5,287.5,302.5,302.5,662.5,,,,SBD,Raw,M,Open,Yes
6,Trevor Ryan,OR,82.5,80.2,,29,195,207.5,-227.5,207.5,142.5,152.5,162.5,162.5,250,260,275,275,645,,,,SBD,Raw,M,Open,Yes
7,Dylan Gutheil,MA,82.5,82.2,,31,215,225,235,235,127.5,132.5,-137.5,132.5,255,267.5,275,275,642.5,,,,SBD,Raw,M,Open,Yes
8,Corey Brown,PA,82.5,82.1,,28,215,-225,230,230,132.5,137.5,140,140,250,270,-275,270,640,,,,SBD,Raw,M,Open,Yes
9,Anthony DiStefano,DE,82.5,81.3,,35,200,217.5,232.5,232.5,110,120,-125,120,250,267.5,-285,267.5,620,,,,SBD,Raw,M,Open,Yes
10,Peter Esset,NJ,82.5,78.6,,19,197.5,-215,-215,197.5,112.5,-122.5,122.5,122.5,260,282.5,-292.5,282.5,602.5,,,,SBD,Raw,M,Open,Yes
11,Gary Pratt #1,IA,82.5,80.8,,29,187.5,-195,195,195,120,125,127.5,127.5,247.5,-262.5,-262.5,247.5,570,,,,SBD,Raw,M,Open,Yes
12,John MacKinnon,OR,82.5,81.3,,29,190,202.5,205,205,112.5,122.5,127.5,127.5,217.5,-235,235,235,567.5,,,,SBD,Raw,M,Open,Yes
13,Anthony Trocano,PA,82.5,80.1,,27,175,180,187.5,187.5,127.5,132.5,-135,132.5,227.5,232.5,240,240,560,,,,SBD,Raw,M,Open,Yes
14,Christopher Reeves,PA,82.5,80.5,,30,157.5,165,172.5,172.5,110,115,120,120,225,235,242.5,242.5,535,,,,SBD,Raw,M,Open,Yes
15,John Serbousek,IA,82.5,82.3,,24,185,192.5,-197.5,192.5,95,102.5,-105,102.5,215,227.5,-237.5,227.5,522.5,,,,SBD,Raw,M,Open,Yes
16,Eric Rockwood,PA,82.5,81.6,,30,147.5,-155,-155,147.5,110,-117.5,-117.5,110,207.5,220,227.5,227.5,485,,,,SBD,Raw,M,Open,Yes
17,Casey Irvine,NY,82.5,82.2,,27,160,-167.5,167.5,167.5,110,117.5,-127.5,117.5,182.5,192.5,-205,192.5,477.5,,,,SBD,Raw,M,Open,Yes
18,Mark Swinton,CA,82.5,81.2,,60,115,122.5,127.5,127.5,125,130,132.5,132.5,170,182.5,190,190,450,,,,SBD,Raw,M,Open,Yes
DQ,Gabriello Lewis,VT,82.5,77.8,,20,-197.5,-200,-200,,-142.5,-142.5,145,145,227.5,232.5,240,240,,,,,SBD,Raw,M,Open,Yes
1,Jordan Pleva,AL,90,88.5,1990-07-27,30,280,295,-305,295,190,201,205,205,250,265,272.5,272.5,772.5,,,,SBD,Raw,M,Open,Yes
2,Kevin Anderson,TX,90,89.7,,28,265,282.5,-300,282.5,160,167.5,-172.5,167.5,292.5,310,322.5,322.5,772.5,,,333,SBD,Raw,M,Open,Yes
3,Luke Arrowood,IA,90,88.6,,26,232.5,245,257.5,257.5,150,160,-167.5,160,305,325,337.5,337.5,755,,,,SBD,Raw,M,Open,Yes
4,Kwasi Amponsah,PA,90,88.8,,25,265,280,292.5,292.5,170,180,187.5,187.5,237.5,250,260,260,740,,,,SBD,Raw,M,Open,Yes
5,Corey Hockenbury,PA,90,88.6,,24,230,-242.5,255,255,145,152.5,157.5,157.5,270,282.5,295,295,707.5,,,,SBD,Raw,M,Open,Yes
6,Kirk Whittenberg,VA,90,89.5,,39,220,237.5,,237.5,-187.5,187.5,-202.5,187.5,260,282.5,-290,282.5,707.5,,,,SBD,Raw,M,Open,Yes
7,Damon Bly,CA,90,86,,32,-235,-245,245,245,155,160,-165,160,280,295,-300,295,700,,,,SBD,Raw,M,Open,Yes
8,Phil Sawicki,PA,90,89,,25,230,245,252.5,252.5,155,165,170,170,235,250,260,260,682.5,,,,SBD,Raw,M,Open,Yes
9,Tucker Stuart,AZ,90,89.6,,26,227.5,240,-252.5,240,152.5,-162.5,162.5,162.5,262.5,277.5,-282.5,277.5,680,,,,SBD,Raw,M,Open,Yes
10,Skip Jones,MO,90,88.4,,33,230,-247.5,247.5,247.5,150,-160,-160,150,275,-295,-295,275,672.5,,,,SBD,Raw,M,Open,Yes
11,Luis De Santiago,CA,90,89.3,,33,210,-222.5,222.5,222.5,140,142.5,150,150,260,275,285,285,657.5,,,,SBD,Raw,M,Open,Yes
12,Joe Francisco #1,CA,90,89.3,,29,247.5,-257.5,-265,247.5,147.5,-155,155,155,240,250,-260,250,652.5,,,,SBD,Raw,M,Open,Yes
13,Achidi Ndiforchu,CA,90,87.6,,36,225,237.5,-242.5,237.5,127.5,-135,-135,127.5,270,285,-290,285,650,,,,SBD,Raw,M,Open,Yes
14,Brandon Sales,PA,90,88.9,,26,220,-242.5,-242.5,220,150,157.5,160,160,265,-285,-285,265,645,,,,SBD,Raw,M,Open,Yes
15,Ricardo Trejo,CA,90,88.1,,19,-225,225,-232.5,225,142.5,155,-165,155,-237.5,-240,240,240,620,,,,SBD,Raw,M,Open,Yes
16,Terrence Rooney,MA,90,87.1,,30,-195,195,212.5,212.5,150,160,165,165,202.5,217.5,240,240,617.5,,,,SBD,Raw,M,Open,Yes
17,Cody Houppert,MT,90,88.9,,32,215,-225,-225,215,152.5,160,167.5,167.5,225,235,-240,235,617.5,,,,SBD,Raw,M,Open,Yes
18,Christian Kruszewski,AZ,90,85.4,,22,220,232.5,237.5,237.5,122.5,130,-132.5,130,222.5,235,245,245,612.5,,,,SBD,Raw,M,Open,Yes
19,Mark Leonard,PA,90,89.9,,28,177.5,190,200,200,132.5,140,145,145,240,255,267.5,267.5,612.5,,,,SBD,Raw,M,Open,Yes
20,Levi Lafountain,ND,90,89.8,,20,207.5,215,-222.5,215,140,-147.5,-147.5,140,240,252.5,-260,252.5,607.5,,,,SBD,Raw,M,Open,Yes
21,Renato Martinez,CA,90,88.1,,29,195,205,215,215,117.5,125,130,130,227.5,240,252.5,252.5,597.5,,,,SBD,Raw,M,Open,Yes
22,Richard Shipe,WA,90,88.5,,24,205,-217.5,-227.5,205,157.5,-170,170,170,212.5,222.5,-232.5,222.5,597.5,,,,SBD,Raw,M,Open,Yes
23,Scott Ensel,NJ,90,87,,26,182.5,-192.5,192.5,192.5,112.5,120,125,125,242.5,255,270,270,587.5,,,,SBD,Raw,M,Open,Yes
24,Nikhil Karulkar,WA,90,89,,35,205,217.5,-227.5,217.5,125,132.5,137.5,137.5,202.5,-215,215,215,570,,,,SBD,Raw,M,Open,Yes
25,Ghazi Gaber,NJ,90,87.7,,35,175,-182.5,-182.5,175,127.5,132.5,-137.5,132.5,220,240,-255,240,547.5,,,,SBD,Raw,M,Open,Yes
26,Jensen Monterrey,CA,90,88.4,,48,182.5,190,-195,190,130,-137.5,-137.5,130,227.5,-240,,227.5,547.5,,,,SBD,Raw,M,Open,Yes
27,Dennis Garcia,AZ,90,88.9,,43,160,167.5,-177.5,167.5,147.5,-157.5,157.5,157.5,197.5,210,222.5,222.5,547.5,,,,SBD,Raw,M,Open,Yes
28,Mark Lombardo,OH,90,88.3,,29,185,-192.5,-192.5,185,135,142.5,145,145,215,-225,-225,215,545,,,,SBD,Raw,M,Open,Yes
29,Mark Cervantes,CA,90,88.8,,27,190,-200,-200,190,117.5,122.5,-127.5,122.5,222.5,-232.5,232.5,232.5,545,,,,SBD,Raw,M,Open,Yes
DQ,Trevor Koehn,MT,90,87.6,,31,220,-230,-230,220,150,-155,-155,150,-242.5,-242.5,,,,,,,SBD,Raw,M,Open,Yes
DQ,Alexandre Perez,CA,90,89.3,,23,-227.5,-232.5,-232.5,,177.5,187.5,-192.5,187.5,260,275,285,285,,,,,SBD,Raw,M,Open,Yes
DQ,Jared Bornes,VA,90,89.3,,32,-175,-175,-175,,145,150,155,155,-220,220,-250,220,,,,,SBD,Raw,M,Open,Yes
1,Dwardly Edouard,PA,100,94.8,,24,287.5,-300,300,300,180,190,195,195,305,332.5,350.5,350.5,845.5,,,,SBD,Raw,M,Open,Yes
2,Tracy Curry,TN,100,98.9,,30,257.5,272.5,285,285,190,197.5,-205,197.5,295,322.5,-335,322.5,805,,,,SBD,Raw,M,Open,Yes
3,Josh D'Annunzio,PA,100,97.8,,24,255,272.5,-277.5,272.5,170,180,187.5,187.5,305,317.5,-325,317.5,777.5,,,,SBD,Raw,M,Open,Yes
4,Jason Zecchini,ND,100,97.4,,27,265,280,290,290,182.5,190,-197.5,190,275,287.5,292.5,292.5,772.5,,,,SBD,Raw,M,Open,Yes
5,Ollie Meadows,CA,100,91.9,,37,245,260,-272.5,260,182.5,-192.5,-192.5,182.5,287.5,302.5,-317.5,302.5,745,,,,SBD,Raw,M,Open,Yes
6,Tanner Owings,CA,100,98.3,,28,240,260,-272.5,260,155,165,167.5,167.5,290,310,-327.5,310,737.5,,,,SBD,Raw,M,Open,Yes
7,Bradley Baird,CA,100,98.5,,29,237.5,247.5,250,250,180,187.5,192.5,192.5,295,-307.5,,295,737.5,,,,SBD,Raw,M,Open,Yes
8,Daniel Guardado Delao,CA,100,99.7,,25,255,270,-277.5,270,170,180,-185,180,260,272.5,-282.5,272.5,722.5,,,,SBD,Raw,M,Open,Yes
9,James Varner,KY,100,99.6,,42,242.5,-250,250,250,170,-175,-175,170,277.5,290,300,300,720,,,,SBD,Raw,M,Open,Yes
10,Zach Helton,TX,100,95.9,,21,225,237.5,245,245,130,137.5,140,140,300,315,325,325,710,,,,SBD,Raw,M,Open,Yes
11,David Sugerik,OR,100,96.9,,37,245,260,-270,260,157.5,165,172.5,172.5,250,265,277.5,277.5,710,,,,SBD,Raw,M,Open,Yes
12,Jimmy Doyle,CA,100,98.4,,33,230,240,-245,240,155,-160,-162.5,155,272.5,295,315,315,710,,,,SBD,Raw,M,Open,Yes
13,Jaquis Tigner,CA,100,99.5,,24,237.5,247.5,-257.5,247.5,157.5,-165,172.5,172.5,280,-297.5,-297.5,280,700,,,,SBD,Raw,M,Open,Yes
14,Robert Howell,CA,100,97.6,,29,-242.5,-242.5,242.5,242.5,152.5,165,-175,165,250,265,-267.5,265,672.5,,,,SBD,Raw,M,Open,Yes
15,Tyler Kroll,MN,100,99.5,,33,195,202.5,205,205,150,157.5,-162.5,157.5,287.5,-302.5,305,305,667.5,,,,SBD,Raw,M,Open,Yes
16,Isidro Solis,WA,100,96.5,,39,217.5,230,237.5,237.5,147.5,155,160,160,240,255,-272.5,255,652.5,,,,SBD,Raw,M,Open,Yes
17,Gregory Diaz,CA,100,94.2,,34,230,237.5,-245,237.5,-135,135,-140,135,270,277.5,-290,277.5,650,,,,SBD,Raw,M,Open,Yes
18,Cody Kidd,VA,100,91.7,,25,227.5,-237.5,-237.5,227.5,145,150,155,155,247.5,260,-267.5,260,642.5,,,,SBD,Raw,M,Open,Yes
19,Parker Young,AZ,100,97.6,,28,-190,202.5,-205,202.5,157.5,167.5,-172.5,167.5,222.5,235,240,240,610,,,,SBD,Raw,M,Open,Yes
20,Max Chhabra,IN,100,95.5,,17,-210,-215,215,215,-95,102.5,105,105,195,207.5,210,210,530,,,,SBD,Raw,M,Open,Yes
1,Collin Whitney,PA,110,108.2,,31,-245,-250,250,250,200,210,212.5,212.5,295,322.5,-335,322.5,785,,,,SBD,Raw,M,Open,Yes
2,Michael Treese,PA,110,105.4,,30,-260,260,270,270,165,170,175,175,-280,280,300,300,745,,,,SBD,Raw,M,Open,Yes
3,Emmanuel Hernandez #1,CA,110,107.3,,35,225,247.5,-255,247.5,157.5,-172.5,172.5,172.5,285,297.5,-305,297.5,717.5,,,,SBD,Raw,M,Open,Yes
4,Patrick Thomas #1,OR,110,107.7,,32,215,227.5,235,235,152.5,157.5,-165,157.5,305,-322.5,322.5,322.5,715,,,,SBD,Raw,M,Open,Yes
5,Julius Pilla,PA,110,102,,21,240,252.5,-260,252.5,152.5,160,167.5,167.5,262.5,282.5,292.5,292.5,712.5,,,,SBD,Raw,M,Open,Yes
6,Zachary Scott,CA,110,108.3,,28,242.5,250,-257.5,250,185,192.5,-202.5,192.5,267.5,-277.5,-287.5,267.5,710,,,,SBD,Raw,M,Open,Yes
7,Brian Moore,OH,110,109,,31,235,-247.5,247.5,247.5,172.5,-182.5,-182.5,172.5,267.5,285,-295,285,705,,,,SBD,Raw,M,Open,Yes
8,Zachary McKenzie,NY,110,107.5,,22,247.5,262.5,270,270,175,182.5,185,185,240,-250,-250,240,695,,,,SBD,Raw,M,Open,Yes
9,Brian Karakaedos,PA,110,108.7,,29,247.5,-260,-260,247.5,147.5,157.5,-160,157.5,272.5,282.5,-292.5,282.5,687.5,,,,SBD,Raw,M,Open,Yes
10,Daniel DiStefano,DE,110,104,,32,230,242.5,255,255,-155,155,162.5,162.5,235,252.5,262.5,262.5,680,,,,SBD,Raw,M,Open,Yes
11,Kyle Brackett,CT,110,103.3,,23,220,230,242.5,242.5,137.5,147.5,152.5,152.5,255,267.5,282.5,282.5,677.5,,,,SBD,Raw,M,Open,Yes
12,Gino Bertolone,OH,110,108.9,,24,-232.5,232.5,-247.5,232.5,-130,137.5,140,140,265,-282.5,282.5,282.5,655,,,,SBD,Raw,M,Open,Yes
13,Austin Bohnsack,MT,110,108.3,,24,215,230,-232.5,230,-120,130,-137.5,130,245,260,272.5,272.5,632.5,,,,SBD,Raw,M,Open,Yes
14,Alejandro Villanueva,AZ,110,108.7,,31,220,-230,230,230,117.5,127.5,-132.5,127.5,242.5,257.5,-265,257.5,615,,,,SBD,Raw,M,Open,Yes
15,Darnell Ferguson,NJ,110,100.6,,33,195,200,205,205,152.5,155,162.5,162.5,192.5,197.5,200,200,567.5,,,,SBD,Raw,M,Open,Yes
1,Alejandro Wickham,PA,125,123.9,1985-06-18,36,-310,310,325,325,182.5,192.5,-203,192.5,295,-312.5,312.5,312.5,830,,,,SBD,Raw,M,Open,Yes
2,Marc Sanchez,CO,125,122.2,,23,290,305,315,315,155,-162.5,162.5,162.5,290,315,-337.5,315,792.5,,,,SBD,Raw,M,Open,Yes
3,Walter Watts,OH,125,123.7,,30,-250,250,267.5,267.5,172.5,-185,-185,172.5,295,-320,-320,295,735,,,,SBD,Raw,M,Open,Yes
4,Joel Baiz,CA,125,124.6,,35,277.5,-282.5,-282.5,277.5,-197.5,197.5,-202.5,197.5,250,255,-267.5,255,730,,,,SBD,Raw,M,Open,Yes
5,Rob Braithwaite,MO,125,119.9,,25,222.5,-235,235,235,-147.5,155,-160,155,-287.5,302.5,317.5,317.5,707.5,,,,SBD,Raw,M,Open,Yes
6,Peter Leon,AZ,125,121.1,,37,197.5,-210,220,220,167.5,180,-182.5,180,250,270,277.5,277.5,677.5,,,,SBD,Raw,M,Open,Yes
7,Karl Buenviaje,CA,125,120.9,,20,230,237.5,-245,237.5,125,-132.5,-132.5,125,250,-260,-260,250,612.5,,,,SBD,Raw,M,Open,Yes
8,Dustin Brown,OR,125,120.6,,31,205,212.5,227.5,227.5,127.5,135,142.5,142.5,185,-205,205,205,575,,,,SBD,Raw,M,Open,Yes
1,Tyler Mann #1,OH,140,139.3,,29,305,320,325,325,202.5,215,220,220,-345,345,-363,345,890,,,,SBD,Raw,M,Open,Yes
2,Chris Miller,TX,140,127.8,,36,287.5,297.5,305,305,170,180,,180,292.5,307.5,-322.5,307.5,792.5,,,,SBD,Raw,M,Open,Yes
3,Derick Douglas,OH,140,133.7,,24,252.5,-267.5,-267.5,252.5,165,-172.5,-172.5,165,292.5,-310,-317.5,292.5,710,,,,SBD,Raw,M,Open,Yes
4,Kyle Shearer,AZ,140,134.8,,40,227.5,-232.5,237.5,237.5,152.5,160,165,165,263,-272.5,272.5,272.5,675,,,,SBD,Raw,M,Open,Yes
5,Ronnie Castro,CA,140,139.8,,39,277.5,,,277.5,162.5,165,-167.5,165,222.5,,,222.5,665,,,,SBD,Raw,M,Open,Yes
6,John Burns,PA,140,136.9,,36,227.5,240,250,250,120,125,-132.5,125,265,-282.5,-282.5,265,640,,,,SBD,Raw,M,Open,Yes
1,Brandon Rosete,CA,140+,162.2,,25,350,-372.5,380.5,380.5,155,165,175,175,300,322.5,330,330,885.5,,,,SBD,Raw,M,Open,Yes
2,Jihan Garland,VA,140+,147.1,,31,-305,305,-330,305,200,217.5,-227.5,217.5,335,-350.5,-350.5,335,857.5,,,,SBD,Raw,M,Open,Yes
3,Andrew Rawling,TX,140+,147.4,,27,300,312.5,-325,312.5,160,167.5,-177.5,167.5,300,317.5,-322.5,317.5,797.5,,,,SBD,Raw,M,Open,Yes
4,Blaine Stephens,TX,140+,173.9,,28,-272.5,-272.5,272.5,272.5,160,-170,-170,160,272.5,285,300,300,732.5,,,,SBD,Raw,M,Open,Yes
5,Alex Galaviz,CA,140+,175.2,,29,260,265,-272.5,265,177.5,187.5,192.5,192.5,272.5,-282.5,-285,272.5,730,,,,SBD,Raw,M,Open,Yes
6,Colton Hill,ND,140+,158,,30,227.5,240,250,250,167.5,175,-182.5,175,220,227.5,-245,227.5,652.5,,,,SBD,Raw,M,Open,Yes
1,Daniel Austin #2,TX,75,74.9,,38,182.5,190,197.5,197.5,132.5,-137.5,-137.5,132.5,217.5,227.5,-237.5,227.5,557.5,,,,SBD,Raw,M,Submasters 35-39,Yes
2,Richard Trujillo,CA,75,74.1,,36,162.5,172.5,182.5,182.5,120,127.5,130,130,170,190,200,200,512.5,,,,SBD,Raw,M,Submasters 35-39,Yes
1,Timothy Goetzinger,CO,82.5,80.9,,38,-182.5,187.5,-192.5,187.5,145,147.5,-150,147.5,245,260,272.5,272.5,607.5,,,,SBD,Raw,M,Submasters 35-39,Yes
1,Kirk Whittenberg,VA,90,89.5,,39,220,237.5,,237.5,-187.5,187.5,-202.5,187.5,260,282.5,-290,282.5,707.5,,,,SBD,Raw,M,Submasters 35-39,Yes
2,Achidi Ndiforchu,CA,90,87.6,,36,225,237.5,-242.5,237.5,127.5,-135,-135,127.5,270,285,-290,285,650,,,,SBD,Raw,M,Submasters 35-39,Yes
3,Nikhil Karulkar,WA,90,89,,35,205,217.5,-227.5,217.5,125,132.5,137.5,137.5,202.5,-215,215,215,570,,,,SBD,Raw,M,Submasters 35-39,Yes
4,Ghazi Gaber,NJ,90,87.7,,35,175,-182.5,-182.5,175,127.5,132.5,-137.5,132.5,220,240,-255,240,547.5,,,,SBD,Raw,M,Submasters 35-39,Yes
1,Albert Bartolome,CA,100,96.7,,39,-252.5,252.5,270,270,182.5,190,-195,190,262.5,272.5,-275,272.5,732.5,,,,SBD,Raw,M,Submasters 35-39,Yes
2,David Sugerik,OR,100,96.9,,37,245,260,-270,260,157.5,165,172.5,172.5,250,265,277.5,277.5,710,,,,SBD,Raw,M,Submasters 35-39,Yes
3,Isidro Solis,WA,100,96.5,,39,217.5,230,237.5,237.5,147.5,155,160,160,240,255,-272.5,255,652.5,,,,SBD,Raw,M,Submasters 35-39,Yes
4,Keith Bobrosky,CA,100,98.8,,37,182.5,190,195,195,142.5,150,155,155,210,217.5,227.5,227.5,577.5,,,,SBD,Raw,M,Submasters 35-39,Yes
1,Hugo Luviano,UT,110,109.4,,38,-180,-180,182.5,182.5,110,117.5,122.5,122.5,197.5,210,217.5,217.5,522.5,,,,SBD,Raw,M,Submasters 35-39,Yes
1,Alejandro Wickham,PA,125,123.9,,36,-310,310,325,325,182.5,192.5,-203,192.5,295,-312.5,312.5,312.5,830,,,,SBD,Raw,M,Submasters 35-39,Yes
2,Kendal Crum,CT,125,119.4,,36,260,272.5,280,280,152.5,167.5,170,170,265,277.5,282.5,282.5,732.5,,,,SBD,Raw,M,Submasters 35-39,Yes
3,Joel Baiz,CA,125,124.6,,35,277.5,-282.5,-282.5,277.5,-197.5,197.5,-202.5,197.5,250,255,-267.5,255,730,,,,SBD,Raw,M,Submasters 35-39,Yes
4,Peter Leon,AZ,125,121.1,,37,197.5,-210,220,220,167.5,180,-182.5,180,250,270,277.5,277.5,677.5,,,,SBD,Raw,M,Submasters 35-39,Yes
1,Chris Miller,TX,140,127.8,,36,287.5,297.5,305,305,170,180,,180,292.5,307.5,-322.5,307.5,792.5,,,,SBD,Raw,M,Submasters 35-39,Yes
2,Ronnie Castro,CA,140,139.8,,39,277.5,,,277.5,162.5,165,-167.5,165,222.5,,,222.5,665,,,,SBD,Raw,M,Submasters 35-39,Yes
1,John Wehrli,CA,67.5,64.5,,57,-130,130,140,140,95,100,102.5,102.5,172.5,185.5,-190,185.5,428,,,,SBD,Raw,M,Masters 55-59,Yes
1,Steve Freides,NJ,67.5,66.8,,66,97.5,-105,-105,97.5,-80,80,-87.5,80,145,155,-165,155,332.5,,,,SBD,Raw,M,Masters 65-69,Yes
1,Dale Garlitz,MT,67.5,67.1,,71,145,155,-158,155,92.5,100,-102.5,100,167.5,177.5,182.5,182.5,437.5,,,185,SBD,Raw,M,Masters 70-74,Yes
DQ,Christopher Vashi,OH,75,73.2,,45,-157.5,-157.5,-157.5,,125,130,-135.5,130,220,232,242.5,242.5,,,,245,SBD,Raw,M,Masters 45-49,Yes
1,Bernardo Separa,CA,75,74.8,,52,152.5,165,175,175,142.5,152.5,155,155,190,205,212.5,212.5,542.5,,,,SBD,Raw,M,Masters 50-54,Yes
2,Marc Masterson,AL,75,74,,52,-162.5,162.5,-170,162.5,100,105,-107.5,105,190,195,200,200,467.5,,,,SBD,Raw,M,Masters 50-54,Yes
3,Matthew Chapman #1,HI,75,73.4,,53,125,142.5,147.5,147.5,115,122.5,-125,122.5,160,167.5,170,170,440,,,,SBD,Raw,M,Masters 50-54,Yes
1,Greg Rayl,NJ,75,75,,57,-160,160,175,175,105,123,-133,123,183,210,-225.5,210,508,,,,SBD,Raw,M,Masters 55-59,Yes
2,Douglas White,MT,75,74.5,,58,-112.5,112.5,-125,112.5,-82.5,-90,90,90,112.5,150,-155,150,352.5,,,,SBD,Raw,M,Masters 55-59,Yes
1,Jim Gallagher #1,CA,75,72,,85,70,-80,-80,70,40,47.5,50,50,132.5,140,152.5,152.5,272.5,,,,SBD,Raw,M,Masters 80+,Yes
2,David Robinson,CO,75,74.1,,80,-60,60,75,75,78,85,-87.5,85,100,107.5,112.5,112.5,272.5,,,,SBD,Raw,M,Masters 80+,Yes
1,Jonathan Hodges,NV,82.5,82,,40,200,210,217.5,217.5,152.5,160,165,165,210,220,-227.5,220,602.5,,,,SBD,Raw,M,Masters 40-44,Yes
1,Donnie Campbell,TX,82.5,81.5,,47,-175,182.5,192.5,192.5,97.5,102.5,-107.5,102.5,205,212.5,222.5,222.5,517.5,,,,SBD,Raw,M,Masters 45-49,Yes
2,Jon Salmon,OH,82.5,80,,46,165,170,175,175,102.5,-110,-110,102.5,180,187.5,192.5,192.5,470,,,,SBD,Raw,M,Masters 45-49,Yes
DQ,Peter Sun,CA,82.5,81.4,,45,-195,195,-200,195,-137.5,-137.5,-137.5,,247.5,265,,265,,,,,SBD,Raw,M,Masters 45-49,Yes
1,Daniel Mahan,CA,82.5,81.9,,55,185,200,215,215,115,-125,-125,115,227.5,245,-252.5,245,575,,,,SBD,Raw,M,Masters 55-59,Yes
2,Tom Newell,NM,82.5,80.1,,57,155,167.5,172.5,172.5,130,135,140,140,195,210,217.5,217.5,530,,,,SBD,Raw,M,Masters 55-59,Yes
3,Greg Eyerly,OR,82.5,81.6,,56,142.5,150,155,155,110,115,-122.5,115,-185,190,195,195,465,,,,SBD,Raw,M,Masters 55-59,Yes
4,Ron Gery,WA,82.5,79.6,,56,-157.5,157.5,-165,157.5,72.5,77.5,82.5,82.5,185,195,202.5,202.5,442.5,,,,SBD,Raw,M,Masters 55-59,Yes
1,Mark Swinton,CA,82.5,81.2,,60,115,122.5,127.5,127.5,125,130,132.5,132.5,170,182.5,190,190,450,,,,SBD,Raw,M,Masters 60-64,Yes
1,Dennis Garcia,AZ,90,88.9,,43,160,167.5,-177.5,167.5,147.5,-157.5,157.5,157.5,197.5,210,222.5,222.5,547.5,,,,SBD,Raw,M,Masters 40-44,Yes
1,Jensen Monterrey,CA,90,88.4,,48,182.5,190,-195,190,130,-137.5,-137.5,130,227.5,-240,,227.5,547.5,,,,SBD,Raw,M,Masters 45-49,Yes
1,Jason Roberts #2,HI,90,88.1,,51,162.5,-170,175,175,130,135,145,145,200,215,227.5,227.5,547.5,,,,SBD,Raw,M,Masters 50-54,Yes
1,Scott Sciaretta #1,MT,90,87.8,,59,175,-185,185,185,132.5,-137.5,137.5,137.5,217.5,230,-240.5,230,552.5,,,,SBD,Raw,M,Masters 55-59,Yes
2,Shawn Handelman,CA,90,84.5,,58,175,182.5,187.5,187.5,105,112.5,-115,112.5,195,-205,205,205,505,,,,SBD,Raw,M,Masters 55-59,Yes
3,Bryan Hartman,CA,90,88.6,,55,165,172.5,-175,172.5,132.5,-140,-140,132.5,187.5,195,-207.5,195,500,,,,SBD,Raw,M,Masters 55-59,Yes
1,Terence Plotsky,CA,90,86.1,,80,65,-72.5,-85,65,65,72.5,77.5,77.5,110,115,120,120,262.5,,,,SBD,Raw,M,Masters 80+,Yes
1,James Varner,KY,100,99.6,,42,242.5,-250,250,250,170,-175,-175,170,277.5,290,300,300,720,,,,SBD,Raw,M,Masters 40-44,Yes
1,John Ozurovich,CA,100,98,,69,137.5,-142.5,142.5,142.5,95,-100,100,100,145,155,-160,155,397.5,,,,SBD,Raw,M,Masters 65-69,Yes
2,Kevin Crosby,TN,100,97.6,,69,-130,-130,130,130,-80,80,-95,80,142.5,157.5,165,165,375,,,,SBD,Raw,M,Masters 65-69,Yes
DQ,Jimmy Smith,AL,100,94.2,,68,-100,-100,-115,,-92.5,,,,,,,,,,,,SBD,Raw,M,Masters 65-69,Yes
1,Jesus Hernandez #1,AZ,110,104.1,,40,202.5,210,217.5,217.5,190,-197.5,197.5,197.5,-245,255,267.5,267.5,682.5,,,,SBD,Raw,M,Masters 40-44,Yes
1,Robert Dickinson,WA,110,107,,55,167.5,-182.5,182.5,182.5,120,-130,130,130,172.5,185,-192.5,185,497.5,,,,SBD,Raw,M,Masters 55-59,Yes
1,Raymond Halling,WA,110,103,,84,85,-90,-90,85,80,85,87.5,87.5,110,120,125,125,297.5,,,,SBD,Raw,M,Masters 80+,Yes
DQ,Greg McClarin,CO,125,112.4,,48,-230,-230,-230,,-160,,,,,,,,,,,,SBD,Raw,M,Masters 45-49,Yes
1,Brian Byers,KS,125,113.7,,65,175,182.5,-190,182.5,145,150,-155,150,207.5,217.5,227.5,227.5,560,,,,SBD,Raw,M,Masters 65-69,Yes
1,Kyle Shearer,AZ,140,134.8,,40,227.5,-232.5,237.5,237.5,152.5,160,165,165,263,-272.5,272.5,272.5,675,,,,SBD,Raw,M,Masters 40-44,Yes
2,Adam Kerrigan,NV,140,130,,40,192.5,207.5,227.5,227.5,150,160,-167.5,160,235,237.5,-263,237.5,625,,,,SBD,Raw,M,Masters 40-44,Yes
1,Mark Branham,IN,140,126.2,,67,-125,125,-182.5,125,125,142.5,-145,142.5,150,192.5,-195,192.5,460,,,,SBD,Raw,M,Masters 65-69,Yes
1,Mike Shae,MT,140+,161.7,,51,202.5,-215,215,215,142.5,152.5,-157.5,152.5,210,225,235.5,235.5,603,,,,SBD,Raw,M,Masters 50-54,Yes
1,Matthew Fragner,CA,140+,140.4,,67,-112.5,112.5,-127.5,112.5,112.5,122.5,-135,122.5,147.5,170,-180,170,405,,,,SBD,Raw,M,Masters 65-69,Yes
1,Bailey Stettmeier,AR,67.5,65,,23,155,167.5,-170,167.5,77.5,82.5,85,85,167.5,182.5,-185,182.5,435,,,,SBD,Wraps,F,Juniors 20-23,Yes
1,Gracie Plantillas,CA,90,85.3,,23,-152.5,152.5,157.5,157.5,-85,85,88,88,155,158,162.5,162.5,408,162.5,,170,SBD,Wraps,F,Juniors 20-23,Yes
1,Milan Bunker,NV,90+,117.7,,19,137.5,150,157.5,157.5,-70,75,-80,75,165,182.5,-185,182.5,415,,,,SBD,Wraps,F,Juniors 18-19,Yes
1,Caitlin Cowan,WV,48,46.2,,33,-92.5,-92.5,92.5,92.5,47.5,52.5,-55,52.5,120,-130,-130,120,265,,,,SBD,Wraps,F,Open,Yes
1,Nicole Aldrete,CA,52,50.5,,31,102.5,-110,110,110,-60,62.5,65,65,125,137.5,-152.5,137.5,312.5,,68,,SBD,Wraps,F,Open,Yes
2,Linda Badillo,OK,52,50.5,,39,85,92.5,-97.5,92.5,52.5,57.5,60,60,97.5,102.5,112.5,112.5,265,,,,SBD,Wraps,F,Open,Yes
1,Gabriela Vera,CA,56,55.4,,24,137.5,142.5,145,145,72.5,75,-77.5,75,155,-160,-160,155,375,,,,SBD,Wraps,F,Open,Yes
2,Heather Hamilton,CO,56,54.5,,33,125,-130,132.5,132.5,67.5,72.5,-75,72.5,142.5,-147.5,-147.5,142.5,347.5,,,,SBD,Wraps,F,Open,Yes
1,Bailey Stettmeier,AR,67.5,65,,23,155,167.5,-170,167.5,77.5,82.5,85,85,167.5,182.5,-185,182.5,435,,,,SBD,Wraps,F,Open,Yes
2,Sabreen Lakhani,WA,67.5,65.3,,32,-122.5,122.5,-127.5,122.5,67.5,-72.5,-72.5,67.5,175,-182.5,-182.5,175,365,,,,SBD,Wraps,F,Open,Yes
DQ,Sandra Sanchez,CA,67.5,63.8,,41,110,117.5,-125,117.5,65,-72.5,-75,65,-137.5,-137.5,-137.5,,,,,,SBD,Wraps,F,Open,Yes
1,Rosalinda Pulido,CA,75,69.9,,32,-172.5,182.5,-191,182.5,95,101,-105,101,187.5,196,205,205,488.5,,,,SBD,Wraps,F,Open,Yes
2,Sarah Johnson,NC,75,73.9,,27,172.5,-182.5,-182.5,172.5,90,-92.5,-92.5,90,175,185,-197.5,185,447.5,,,,SBD,Wraps,F,Open,Yes
3,Giovanna Herrera,CA,75,71.1,,27,137.5,142.5,-147.5,142.5,-57.5,-60,60,60,142.5,150,162.5,162.5,365,,,,SBD,Wraps,F,Open,Yes
4,Brittany Cook,OK,75,73.8,,35,122.5,-132.5,132.5,132.5,67.5,72.5,-77.5,72.5,135,142.5,147.5,147.5,352.5,,,,SBD,Wraps,F,Open,Yes
5,Sara Boudah,VT,75,74.6,,29,100,107.5,115,115,47.5,52.5,57.5,57.5,120,130,-135,130,302.5,,,,SBD,Wraps,F,Open,Yes
1,Charlie Cheryl Ritchie,OR,82.5,81.5,,50,147.5,155,-165,155,110,117.5,120,120,165,177.5,182.5,182.5,457.5,,,185.5,SBD,Wraps,F,Open,Yes
2,Kimberly Brown,CA,82.5,82.3,,55,125,132.5,-140,132.5,-85,-85,85,85,175,-182.5,-182.5,175,392.5,,,,SBD,Wraps,F,Open,Yes
1,Aidan Barney,OR,90,87.9,,24,-100,105,-115,105,60,62.5,-65,62.5,167.5,-172.5,-172.5,167.5,335,,,,SBD,Wraps,F,Open,Yes
1,Eileen Garris,MO,90+,111.9,,32,-182.5,182.5,-195,182.5,95,102.5,107.5,107.5,185,197.5,-212.5,197.5,487.5,,,,SBD,Wraps,F,Open,Yes
2,Julie Roman,OK,90+,104.4,1974-12-26,46,185,192.5,-205,192.5,95,100,105,105,165,175,-182.5,175,472.5,,,,SBD,Wraps,F,Open,Yes
3,Marcie Bain,CA,90+,117.8,,50,155,-165,170,170,-72.5,80,85,85,152.5,165,175,175,430,,,,SBD,Wraps,F,Open,Yes
4,Milan Bunker,NV,90+,117.7,,19,137.5,150,157.5,157.5,-70,75,-80,75,165,182.5,-185,182.5,415,,,,SBD,Wraps,F,Open,Yes
5,Chelsea Burgess,SC,90+,146.7,,34,-125,125,-137.5,125,70,75,-77.5,75,135,142.5,147.5,147.5,347.5,,,,SBD,Wraps,F,Open,Yes
1,Carey Drake,CA,52,50.9,,38,92.5,-97.5,100,100,50,-52.5,-52.5,50,117.5,122.5,-127.5,122.5,272.5,,,,SBD,Wraps,F,Submasters 35-39,Yes
2,Linda Badillo,OK,52,50.5,,39,85,92.5,-97.5,92.5,52.5,57.5,60,60,97.5,102.5,112.5,112.5,265,,,,SBD,Wraps,F,Submasters 35-39,Yes
1,Stephanie Baken,CA,67.5,67.1,,35,102.5,110,112.5,112.5,70,75,80,80,125,137.5,-145,137.5,330,,,,SBD,Wraps,F,Submasters 35-39,Yes
1,Katherine Hilton,CA,60,57.9,,66,-40,40,-50,40,35,37.5,38,38,-75,80,82.5,82.5,160.5,,,,SBD,Wraps,F,Masters 65-69,Yes
DQ,Sandra Sanchez,CA,67.5,63.8,,41,110,117.5,-125,117.5,65,-72.5,-75,65,-137.5,-137.5,-137.5,,,,,,SBD,Wraps,F,Masters 40-44,Yes
1,Melissa McCart,OR,67.5,64.2,,45,122.5,-130,-130,122.5,60,-65,-65,60,122.5,130,137.5,137.5,320,,,,SBD,Wraps,F,Masters 45-49,Yes
1,Charlie Cheryl Ritchie,OR,82.5,81.5,,50,147.5,155,-165,155,110,117.5,120,120,165,177.5,182.5,182.5,457.5,,,185.5,SBD,Wraps,F,Masters 50-54,Yes
1,Kimberly Brown,CA,82.5,82.3,,55,125,132.5,-140,132.5,-85,-85,85,85,175,-182.5,-182.5,175,392.5,,,,SBD,Wraps,F,Masters 55-59,Yes
1,Janet Best,NV,90,89.3,,56,-102.5,107.5,110,110,35,40,-45,40,115,127.5,-130,127.5,277.5,,,,SBD,Wraps,F,Masters 55-59,Yes
1,Julie Roman,OK,90+,104.4,,46,185,192.5,-205,192.5,95,100,105,105,165,175,-182.5,175,472.5,,,,SBD,Wraps,F,Masters 45-49,Yes
1,Marcie Bain,CA,90+,117.8,,50,155,-165,170,170,-72.5,80,85,85,152.5,165,175,175,430,,,,SBD,Wraps,F,Masters 50-54,Yes
DQ,Aidan Sapp,CA,60,59,,17,60,75,90,90,-90,-95,-97.5,,-60,-60,-60,,,,,,SBD,Wraps,M,Juniors 16-17,Yes
1,Garrett Rogers,DE,67.5,64.6,,15,145,155,165,165,85,-93,93,93,195,205,215.5,215.5,473.5,,,,SBD,Wraps,M,Juniors 13-15,Yes
1,Benjamin Reigle,ID,67.5,67,,19,145,150,-162.5,150,-95,102.5,105,105,182.5,192.5,-200,192.5,447.5,,,,SBD,Wraps,M,Juniors 18-19,Yes
1,Mac Keale,OR,75,70.3,,23,192.5,-205,205,205,-130,137.5,-142.5,137.5,247.5,260,-275,260,602.5,,,,SBD,Wraps,M,Juniors 20-23,Yes
1,Jesualdo Olivera,CA,82.5,80.5,,23,-202.5,-202.5,202.5,202.5,147.5,-162.5,-162.5,147.5,217.5,245,,245,595,,,,SBD,Wraps,M,Juniors 20-23,Yes
1,Lucas Pagano,MO,90,88.7,,21,192.5,215,-227.5,215,135,140,145,145,222.5,-237.5,-237.5,222.5,582.5,,,,SBD,Wraps,M,Juniors 20-23,Yes
2,Terrance Wallette Jr,ND,90,87.9,,20,185,-197.5,-197.5,185,135,137.5,140,140,202.5,212.5,-227.5,212.5,537.5,,,,SBD,Wraps,M,Juniors 20-23,Yes
DQ,Hunter Agnew,NY,90,89.1,,22,-250,-250,-250,,-105,,,,,,,,,,,,SBD,Wraps,M,Juniors 20-23,Yes
1,James Strauss,MO,100,98,,20,232.5,-255,-255,232.5,125,130,-132.5,130,227.5,245,255,255,617.5,,,,SBD,Wraps,M,Juniors 20-23,Yes
DQ,Nicolas Loaeza,AL,125,122.3,,21,-257.5,-257.5,-257.5,,,,,,,,,,,,,,SBD,Wraps,M,Juniors 20-23,Yes
1,Christian Kearney,TX,67.5,64.8,,32,220,230,240,240,130,137.5,-142.5,137.5,280,295,-305,295,672.5,,,,SBD,Wraps,M,Open,Yes
2,Garrett Rogers,DE,67.5,64.6,,15,145,155,165,165,85,-93,93,93,195,205,215.5,215.5,473.5,,,,SBD,Wraps,M,Open,Yes
1,Eddie Saiz,NM,75,72.8,,28,215,222.5,230,230,155,-157.5,,155,255,-267.5,-267.5,255,640,,,,SBD,Wraps,M,Open,Yes
2,Meng Vang,CA,75,74.5,,26,-232.5,232.5,235,235,145,152.5,160,160,235,245,-252.5,245,640,,,,SBD,Wraps,M,Open,Yes
1,Jesse Coffey #1,CA,82.5,81.5,,35,237.5,250,-260,250,147.5,-155,155,155,260,272.5,280,280,685,,,288,SBD,Wraps,M,Open,Yes
2,Jesualdo Olivera,CA,82.5,80.5,,23,-202.5,-202.5,202.5,202.5,147.5,-162.5,-162.5,147.5,217.5,245,,245,595,,,,SBD,Wraps,M,Open,Yes
3,Steven Holtzman,AZ,82.5,82.1,,33,210,-227.5,-227.5,210,117.5,125,-127.5,125,210,227.5,-232.5,227.5,562.5,,,,SBD,Wraps,M,Open,Yes
1,Connor Mason,OK,90,89,,26,-262.5,275,-287.5,275,-165,165,170.5,170.5,-287.5,-287.5,287.5,287.5,733,,,,SBD,Wraps,M,Open,Yes
2,Christopher McKenzie,WV,90,87.7,,39,265,-272.5,272.5,272.5,137.5,-147.5,147.5,147.5,265,282.5,-290,282.5,702.5,,,,SBD,Wraps,M,Open,Yes
3,Phil Cannizzaro,CA,90,90,,52,-210,-210,210,210,-155,155,162.5,162.5,212.5,227.5,-247.5,227.5,600,,,,SBD,Wraps,M,Open,Yes
DQ,Hunter Agnew,NY,90,89.1,,22,-250,-250,-250,,-105,,,,,,,,,,,,SBD,Wraps,M,Open,Yes
DQ,Daniel Harrison,MD,90,89.3,,25,217.5,230,237.5,237.5,-130,-130,-130,,267.5,285,-300,285,,,,,SBD,Wraps,M,Open,Yes
1,Tyler Lindsay,VA,100,98.4,,24,-242.5,242.5,-250,242.5,160,-167.5,167.5,167.5,292.5,-305,,292.5,702.5,,,,SBD,Wraps,M,Open,Yes
DQ,Norman Black Jr,WY,100,99.5,,24,,,,,,,,,,,,,,,,,SBD,Wraps,M,Open,Yes
1,Alex Ortiz #1,TX,110,109.9,,51,-277.5,-277.5,277.5,277.5,192.5,200,-202.5,200,242.5,-255,255,255,732.5,,,,SBD,Wraps,M,Open,Yes
2,Marcos Vazquez,CA,110,107,,25,-267.5,267.5,,267.5,-162.5,165,170,170,270,285,-292.5,285,722.5,,,,SBD,Wraps,M,Open,Yes
DQ,Uriah Clark,CA,110,108.8,,26,-287.5,-290,-290,,,,,,-275,280,285,285,,,,,SBD,Wraps,M,Open,Yes
1,DeAndre Price,OK,125,120.5,,28,287.5,302.5,315,315,192.5,205,213,213,325,340,352.5,352.5,880.5,,,,SBD,Wraps,M,Open,Yes
2,Boris Terry,CA,125,114.8,,36,310,330,-337.5,330,200,210,-215,210,320,340,-357.5,340,880,,,,SBD,Wraps,M,Open,Yes
3,Parker Schibel,ID,125,119.8,,26,255,272.5,282.5,282.5,155,-160,-160,155,237.5,252.5,-270,252.5,690,,,,SBD,Wraps,M,Open,Yes
DQ,James Justice,KY,125,110.8,,50,-242.5,-242.5,-242.5,,137.5,155,-162.5,155,245,255,-272.5,255,,,,,SBD,Wraps,M,Open,Yes
DQ,Nicolas Loaeza,AL,125,122.3,,21,-257.5,-257.5,-257.5,,,,,,,,,,,,,,SBD,Wraps,M,Open,Yes
1,Bobby Martinez,CA,140,126.5,,37,-252.5,252.5,267.5,267.5,220,227.5,-232.5,227.5,267.5,282.5,-297.5,282.5,777.5,,,,SBD,Wraps,M,Open,Yes
2,Konnor Hayes,CA,140,136.9,,25,265,-277.5,282.5,282.5,182.5,192.5,202.5,202.5,265,280,290,290,775,,,,SBD,Wraps,M,Open,Yes
3,Dennis Alegre,CA,140,128.7,,56,-220,220,235,235,140,152.5,-155,152.5,260,287.5,290,290,677.5,,,,SBD,Wraps,M,Open,Yes
4,David Siegel,CA,140,135.1,,39,220,230,240,240,140,150,155,155,230,255,-272.5,255,650,,,,SBD,Wraps,M,Open,Yes
1,Cody Chapel,ND,140+,159,,33,310,327.5,-343,327.5,215.5,227.5,232.5,232.5,307.5,330.5,-350,330.5,890.5,,,,SBD,Wraps,M,Open,Yes
1,Jesse Coffey #1,CA,82.5,81.5,,35,237.5,250,-260,250,147.5,-155,155,155,260,272.5,280,280,685,,,288,SBD,Wraps,M,Submasters 35-39,Yes
1,Christopher McKenzie,WV,90,87.7,,39,265,-272.5,272.5,272.5,137.5,-147.5,147.5,147.5,265,282.5,-290,282.5,702.5,,,,SBD,Wraps,M,Submasters 35-39,Yes
1,Boris Terry,CA,125,114.8,,36,310,330,-337.5,330,200,210,-215,210,320,340,-357.5,340,880,,,,SBD,Wraps,M,Submasters 35-39,Yes
1,Bobby Martinez,CA,140,126.5,,37,-252.5,252.5,267.5,267.5,220,227.5,-232.5,227.5,267.5,282.5,-297.5,282.5,777.5,,,,SBD,Wraps,M,Submasters 35-39,Yes
2,David Siegel,CA,140,135.1,,39,220,230,240,240,140,150,155,155,230,255,-272.5,255,650,,,,SBD,Wraps,M,Submasters 35-39,Yes
1,Frankie Murrieta,MO,67.5,67.4,,40,160,-172.5,172.5,172.5,115,125,130,130,165,172.5,,172.5,475,,,,SBD,Wraps,M,Masters 40-44,Yes
1,Ray Mack,OK,75,74.2,,48,-165,-165,165,165,95,-100,-100,95,165,-172.5,-172.5,165,425,,,,SBD,Wraps,M,Masters 45-49,Yes
1,Mark Laurel,CA,75,74.1,,60,110,115,117.5,117.5,105,109,-110,109,162.5,169,-170,169,395.5,,,,SBD,Wraps,M,Masters 60-64,Yes
1,Phil Cannizzaro,CA,90,90,,52,-210,-210,210,210,-155,155,162.5,162.5,212.5,227.5,-247.5,227.5,600,,,,SBD,Wraps,M,Masters 50-54,Yes
2,Travis Roberts,MD,90,89.4,,53,180,195,-205,195,120,127.5,-132.5,127.5,225,-250,-255,225,547.5,,,,SBD,Wraps,M,Masters 50-54,Yes
1,John Hare,TX,90,88.5,,60,195,215,230,230,147.5,165,170,170,222.5,237.5,-245,237.5,637.5,,,,SBD,Wraps,M,Masters 60-64,Yes
1,Kevin Canant,CA,100,93,,48,185,-200,200,200,160,175,177.5,177.5,187.5,202.5,217.5,217.5,595,,,,SBD,Wraps,M,Masters 45-49,Yes
1,Derek Sherlock,CO,100,99.2,,59,145,-165,-165,145,100,110,117.5,117.5,210.5,220,227.5,227.5,490,,,230,SBD,Wraps,M,Masters 55-59,Yes
2,Marco Cadava,CA,100,96.3,,56,182.5,-195,-205,182.5,-92.5,92.5,-102.5,92.5,195,-212.5,-212.5,195,470,,,,SBD,Wraps,M,Masters 55-59,Yes
1,Rudy Kadlub,OR,100,98,,72,182.5,-195,195,195,122.5,132.5,137.5,137.5,215,227.5,-235,227.5,560,,140,,SBD,Wraps,M,Masters 70-74,Yes
1,Alex Ortiz #1,TX,110,109.9,,51,-277.5,-277.5,277.5,277.5,192.5,200,-202.5,200,242.5,-255,255,255,732.5,,,,SBD,Wraps,M,Masters 50-54,Yes
DQ,Peter Pauline,GA,110,109.3,,66,-160,-160,-160,,105,110,-115,110,-225,230,240,240,,,,,SBD,Wraps,M,Masters 65-69,Yes
DQ,James Justice,KY,125,110.8,,50,-242.5,-242.5,-242.5,,137.5,155,-162.5,155,245,255,-272.5,255,,,,,SBD,Wraps,M,Masters 50-54,Yes
1,Karl Davenport,NC,125,120.1,,56,155,177.5,187.5,187.5,115,-125,,115,175,192.5,205,205,507.5,,,,SBD,Wraps,M,Masters 55-59,Yes
1,Dennis Alegre,CA,140,128.7,,56,-220,220,235,235,140,152.5,-155,152.5,260,287.5,290,290,677.5,,,,SBD,Wraps,M,Masters 55-59,Yes
1,Elaina Noyola,CA,52,51.6,,26,-110,-110,110,110,-60,-60,60,60,117.5,125,-132.5,125,295,,,,SBD,Single-ply,F,Open,Yes
DQ,Bobbi Walden,NC,60,59.3,,29,117.5,-122.5,122.5,122.5,-77.5,-77.5,-77.5,,,,,,,,,,SBD,Single-ply,F,Open,Yes
1,Kehaulani Richardson,NV,82.5,82,,39,185,195,202.5,202.5,100,107.5,112.5,112.5,187.5,197.5,205,205,520,,,,SBD,Single-ply,F,Open,Yes
1,Kehaulani Richardson,NV,82.5,82,,39,185,195,202.5,202.5,100,107.5,112.5,112.5,187.5,197.5,205,205,520,,,,SBD,Single-ply,F,Submasters 35-39,Yes
1,Jarred Benitez,CA,60,59.3,,35,195,220,-230,220,150,160,-165,160,210,220,-227.5,220,600,,,,SBD,Single-ply,M,Open,Yes
1,Gurjinder Singh,CA,75,74.4,,44,-200,200,-220,200,-125,125,-135,125,210,230,-240,230,555,,,,SBD,Single-ply,M,Open,Yes
1,Bryan Schermerhorn,WA,90,86.7,,29,-220,220,227.5,227.5,147.5,-155,155,155,65,,,65,447.5,,,,SBD,Single-ply,M,Open,Yes
1,Brock Charette,ND,140+,172.6,,32,-295,310,332.5,332.5,-200,220,-237.5,220,312.5,-337.5,-337.5,312.5,865,,,,SBD,Single-ply,M,Open,Yes
1,Michael Martin,WA,67.5,64.7,,60,125,-142.5,-142.5,125,60,-70,-70,60,150,165,-177.5,165,350,,,,SBD,Single-ply,M,Masters 60-64,Yes
1,Gurjinder Singh,CA,75,74.4,,44,-200,200,-220,200,-125,125,-135,125,210,230,-240,230,555,,,,SBD,Single-ply,M,Masters 40-44,Yes
1,Joe Walden,KS,75,74.7,,64,157.5,-182.5,,157.5,87.5,-97.5,-107.5,87.5,162.5,175,180,180,425,,,,SBD,Single-ply,M,Masters 60-64,Yes
1,George Pessell,CA,100,97.6,,62,220,-230.5,-237.5,220,155,160,165,165,230,240,-250,240,625,,,,SBD,Single-ply,M,Masters 60-64,Yes
1,Ken Jones #1,AL,100,97.6,,65,-140,-140,140,140,80,92.5,,92.5,177.5,-220.5,,177.5,410,,,,SBD,Single-ply,M,Masters 65-69,Yes
DQ,Peter Murphy,CA,100,97.2,,69,-145,145,165,165,-95,-95,-95,,187.5,210,220,220,,,,,SBD,Single-ply,M,Masters 65-69,Yes
1,Eric Campbell #1,CA,110,109.8,,57,-202.5,202.5,-218.5,202.5,150,155.5,162.5,162.5,202.5,223,-228,223,588,,,,SBD,Single-ply,M,Masters 55-59,Yes
1,Matt Foreman,AZ,125,113.9,,48,275,-290,290,290,147.5,152.5,-155,152.5,225,237.5,-240,237.5,680,,,,SBD,Single-ply,M,Masters 45-49,Yes
1,Sophia Ostrander,MI,56,54,,17,,,,,55,60,-62.5,60,,,,,60,,,,B,Raw,F,Juniors 16-17,Yes
1,Megan Prieto,CA,56,55,,22,,,,,52.5,55,57.5,57.5,,,,,57.5,,,,B,Raw,F,Juniors 20-23,Yes
1,Lisa Pennington,ND,60,60,,17,,,,,60,-65,-65,60,,,,,60,,,,B,Raw,F,Juniors 16-17,Yes
1,Miah Salinas,CA,60,59.1,,18,,,,,65,67.5,70,70,,,,,70,,,,B,Raw,F,Juniors 18-19,Yes
1,Bailey Stettmeier,AR,67.5,65,,23,,,,,77.5,82.5,85,85,,,,,85,,,,B,Raw,F,Juniors 20-23,Yes
1,Karan Lawyer,VA,75,74.2,,16,,,,,45,47.5,50,50,,,,,50,,,,B,Raw,F,Juniors 16-17,Yes
1,Sierra Marshman,OR,82.5,80.9,,23,,,,,92.5,95,-100,95,,,,,95,,,,B,Raw,F,Juniors 20-23,Yes
1,Emily Joiner,AL,90+,109.5,,23,,,,,105,112.5,120,120,,,,,120,,,,B,Raw,F,Juniors 20-23,Yes
1,Bre Armenta,CA,52,51,,30,,,,,67.5,70,72.5,72.5,,,,,72.5,,,,B,Raw,F,Open,Yes
2,Linda Badillo,OK,52,50.5,,39,,,,,52.5,57.5,60,60,,,,,60,,,,B,Raw,F,Open,Yes
1,Sophia Ostrander,MI,56,54,,17,,,,,55,60,-62.5,60,,,,,60,,,,B,Raw,F,Open,Yes
1,Daniella Means,CA,60,59.6,,31,,,,,-80,82.5,85,85,,,,,85,,,,B,Raw,F,Open,Yes
2,Elle Bandy,IL,60,58.4,,34,,,,,72.5,-75,-75,72.5,,,,,72.5,,,,B,Raw,F,Open,Yes
1,Laura Niedermayer,PA,67.5,63.8,,35,,,,,97.5,100,-102.5,100,,,,,100,,,,B,Raw,F,Open,Yes
2,Bailey Stettmeier,AR,67.5,65,,23,,,,,77.5,82.5,85,85,,,,,85,,,,B,Raw,F,Open,Yes
3,Samantha Havens,CA,67.5,67.4,,31,,,,,72.5,75,77.5,77.5,,,,,77.5,,,,B,Raw,F,Open,Yes
1,Tiffany Savage,CA,75,74.8,1992-07-15,28,,,,,110,115,117.5,117.5,,,,,117.5,,120,,B,Raw,F,Open,Yes
2,Samantha Day,CA,75,74.3,,42,,,,,80,85,-90,85,,,,,85,,,,B,Raw,F,Open,Yes
1,Charlie Cheryl Ritchie,OR,82.5,81.5,,50,,,,,110,117.5,120,120,,,,,120,,,,B,Raw,F,Open,Yes
2,Sierra Marshman,OR,82.5,80.9,,23,,,,,92.5,95,-100,95,,,,,95,,,,B,Raw,F,Open,Yes
3,Julianna Preston,ND,82.5,81,,29,,,,,85,90,-97.5,90,,,,,90,,,,B,Raw,F,Open,Yes
4,Kimberly Brown,CA,82.5,82.3,,55,,,,,-85,-85,85,85,,,,,85,,,,B,Raw,F,Open,Yes
5,Donna Weidow,MT,82.5,81,,47,,,,,75,-80,-80,75,,,,,75,,,,B,Raw,F,Open,Yes
6,Christina Ullman,OH,82.5,81.4,,50,,,,,72.5,-78,-78,72.5,,,,,72.5,,,,B,Raw,F,Open,Yes
1,Jacquelyne Stieber,CA,90,86.3,,28,,,,,80,87.5,-90,87.5,,,,,87.5,,,,B,Raw,F,Open,Yes
1,Emily Joiner,AL,90+,109.5,,23,,,,,105,112.5,120,120,,,,,120,,,,B,Raw,F,Open,Yes
2,Julie Roman,OK,90+,104.4,,46,,,,,95,100,105,105,,,,,105,,,,B,Raw,F,Open,Yes
3,Sarah Webb,TX,90+,113,,31,,,,,97.5,105,-107.5,105,,,,,105,,,,B,Raw,F,Open,Yes
4,Heather Struminger,NC,90+,133.4,,30,,,,,100,105,-107.5,105,,,,,105,,,,B,Raw,F,Open,Yes
5,Marcie Bain,CA,90+,117.8,,50,,,,,-72.5,80,85,85,,,,,85,,,,B,Raw,F,Open,Yes
1,Linda Badillo,OK,52,50.5,,39,,,,,52.5,57.5,60,60,,,,,60,,,,B,Raw,F,Submasters 35-39,Yes
1,Rita Sanchez,CA,60,59.2,,35,,,,,47.5,52.5,55,55,,,,,55,,,,B,Raw,F,Submasters 35-39,Yes
1,Cynthia Syintsakos,CA,60,58.8,,54,,,,,52.5,57.5,-63,57.5,,,,,57.5,,,,B,Raw,F,Masters 50-54,Yes
1,Judy Oberlander,CA,60,58.6,,58,,,,,-50,52.5,55,55,,,,,55,,,,B,Raw,F,Masters 55-59,Yes
1,Shannon Paulson,CA,67.5,65.8,,50,,,,,70,75,77.5,77.5,,,,,77.5,,,,B,Raw,F,Masters 50-54,Yes
1,Samantha Day,CA,75,74.3,,42,,,,,80,85,-90,85,,,,,85,,,,B,Raw,F,Masters 40-44,Yes
1,Donna Weidow,MT,82.5,81,,47,,,,,75,-80,-80,75,,,,,75,,,,B,Raw,F,Masters 45-49,Yes
1,Charlie Cheryl Ritchie,OR,82.5,81.5,,50,,,,,110,117.5,120,120,,,,,120,,,,B,Raw,F,Masters 50-54,Yes
2,Christina Ullman,OH,82.5,81.4,,50,,,,,72.5,-78,-78,72.5,,,,,72.5,,,,B,Raw,F,Masters 50-54,Yes
1,Kimberly Brown,CA,82.5,82.3,,55,,,,,-85,-85,85,85,,,,,85,,,,B,Raw,F,Masters 55-59,Yes
1,Michele Bashor,MT,90,88.1,,44,,,,,98,105,-110,105,,,,,105,,,,B,Raw,F,Masters 40-44,Yes
1,Megan Wiesner,CA,90,85.1,,46,,,,,65,67.5,-70,67.5,,,,,67.5,,,,B,Raw,F,Masters 45-49,Yes
1,Hilary Mahoney,AZ,90+,130.8,,41,,,,,90,95,-97.5,95,,,,,95,,,,B,Raw,F,Masters 40-44,Yes
1,Julie Roman,OK,90+,104.4,,46,,,,,95,100,105,105,,,,,105,,,,B,Raw,F,Masters 45-49,Yes
1,Deb Wade,IN,90+,102.3,,50,,,,,-92.5,95,-100,95,,,,,95,,,,B,Raw,F,Masters 50-54,Yes
2,Marcie Bain,CA,90+,117.8,,50,,,,,-72.5,80,85,85,,,,,85,,,,B,Raw,F,Masters 50-54,Yes
1,Lynn Bassett,UT,90+,108.1,,55,,,,,92.5,-97.5,-97.5,92.5,,,,,92.5,,,,B,Raw,F,Masters 55-59,Yes
1,Andrew MacGray,NY,60,59.2,,16,,,,,70,75,-80,75,,,,,75,,,,B,Raw,M,Juniors 16-17,Yes
1,Tristan Lin,CA,67.5,67.2,,19,,,,,112.5,115,-117.5,115,,,,,115,,,,B,Raw,M,Juniors 18-19,Yes
1,Gabriel Youngquist,TX,75,72.4,,23,,,,,112.5,117.5,-125,117.5,,,,,117.5,,,,B,Raw,M,Juniors 20-23,Yes
1,Jesualdo Olivera,CA,82.5,80.5,,23,,,,,147.5,-162.5,-162.5,147.5,,,,,147.5,,,,B,Raw,M,Juniors 20-23,Yes
2,Austin Souza,MA,82.5,77.3,,21,,,,,-135,137.5,-150,137.5,,,,,137.5,,,,B,Raw,M,Juniors 20-23,Yes
3,Antonio Lopez,CA,82.5,78.2,,20,,,,,120,-127.5,-127.5,120,,,,,120,,,,B,Raw,M,Juniors 20-23,Yes
1,Lucas Pagano,MO,90,88.7,,21,,,,,135,140,145,145,,,,,145,,,,B,Raw,M,Juniors 20-23,Yes
1,Joshua Taitague,NV,110,109.2,,23,,,,,147.5,155,162.5,162.5,,,,,162.5,,,,B,Raw,M,Juniors 20-23,Yes
1,Henrik Chan,TX,125,112.1,,16,,,,,132.5,137.5,-145,137.5,,,,,137.5,,,,B,Raw,M,Juniors 16-17,Yes
1,Aydan Beckedahl,ND,140+,154.3,,17,,,,,135,152.5,-160,152.5,,,,,152.5,,,,B,Raw,M,Juniors 16-17,Yes
1,Victoriano Mesa,AZ,140+,163.4,,21,,,,,150,155,-157.5,155,,,,,155,,,,B,Raw,M,Juniors 20-23,Yes
1,Daniel Burke,KY,67.5,65.7,,32,,,,,155,-160,-160,155,,,,,155,,,,B,Raw,M,Open,Yes
2,Wayne Koberna,OH,67.5,65.6,,61,,,,,117.5,-127.5,-127.5,117.5,,,,,117.5,,,,B,Raw,M,Open,Yes
3,Tristan Lin,CA,67.5,67.2,,19,,,,,112.5,115,-117.5,115,,,,,115,,,,B,Raw,M,Open,Yes
4,John Wehrli,CA,67.5,64.5,,57,,,,,95,100,102.5,102.5,,,,,102.5,,,,B,Raw,M,Open,Yes
1,Alexander Canton,LA,75,74.8,,30,,,,,175,-177.5,177.5,177.5,,,,,177.5,,,,B,Raw,M,Open,Yes
2,Marc-Anthony Ho,HI,75,74.7,,32,,,,,150,157.5,162.5,162.5,,,,,162.5,,,,B,Raw,M,Open,Yes
3,Jeffrey Willis,NY,75,73.7,,55,,,,,125,-132.5,-132.5,125,,,,,125,,,,B,Raw,M,Open,Yes
4,Jose Medel,CA,75,73.6,,26,,,,,112.5,117.5,-125,117.5,,,,,117.5,,,,B,Raw,M,Open,Yes
1,Ramiro Espinosa,TX,82.5,82.4,,31,,,,,147.5,162.5,-167.5,162.5,,,,,162.5,,,,B,Raw,M,Open,Yes
2,Jesualdo Olivera,CA,82.5,80.5,,23,,,,,147.5,-162.5,-162.5,147.5,,,,,147.5,,,,B,Raw,M,Open,Yes
3,Mark Swinton,CA,82.5,81.2,,60,,,,,125,130,132.5,132.5,,,,,132.5,,,,B,Raw,M,Open,Yes
1,Jordan Pleva,AL,90,88.5,,30,,,,,190,201,205,205,,,,,205,,,,B,Raw,M,Open,Yes
2,Richard Shipe,WA,90,88.5,,24,,,,,157.5,-170,170,170,,,,,170,,,,B,Raw,M,Open,Yes
3,Jensen Monterrey,CA,90,88.4,,48,,,,,130,-137.5,-137.5,130,,,,,130,,,,B,Raw,M,Open,Yes
1,Joseph Orona,CA,100,99,,39,,,,,191,195.5,-197.5,195.5,,,,,195.5,,,,B,Raw,M,Open,Yes
2,Brian Plummer,MI,100,90.2,,29,,,,,160,-170,-170,160,,,,,160,,,,B,Raw,M,Open,Yes
1,James Alston #1,CA,110,108.5,,34,,,,,197.5,205,-217.5,205,,,,,205,,,,B,Raw,M,Open,Yes
2,Jerry Stone,CA,110,104.5,,29,,,,,182.5,187.5,-192.5,187.5,,,,,187.5,,,,B,Raw,M,Open,Yes
3,James Shannon,CA,110,109.3,,48,,,,,177.5,-185,185,185,,,,,185,,187.5,,B,Raw,M,Open,Yes
4,Nicholas Tripi,NV,110,109.2,,28,,,,,157.5,165,-167.5,165,,,,,165,,,,B,Raw,M,Open,Yes
1,Iman Richards,CA,125,124.4,,46,,,,,205,-210,-210,205,,,,,205,,,,B,Raw,M,Open,Yes
2,Jonathan Adams,CA,125,116.7,,35,,,,,182.5,192.5,-197.5,192.5,,,,,192.5,,,,B,Raw,M,Open,Yes
3,Alejandro Wickham,PA,125,123.9,,36,,,,,182.5,192.5,-203,192.5,,,,,192.5,,,,B,Raw,M,Open,Yes
4,Jonathan Griffin,NV,125,111.6,,37,,,,,172.5,177.5,182.5,182.5,,,,,182.5,,,,B,Raw,M,Open,Yes
5,James Justice,KY,125,110.8,,50,,,,,137.5,155,-162.5,155,,,,,155,,,,B,Raw,M,Open,Yes
6,Wesley French,NV,125,116.7,,30,,,,,-150,150,-160,150,,,,,150,,,,B,Raw,M,Open,Yes
1,Bobby Martinez,CA,140,126.5,,37,,,,,220,227.5,-232.5,227.5,,,,,227.5,,,,B,Raw,M,Open,Yes
2,Christopher Orndorff,NV,140,131.5,,45,,,,,180,185,190,190,,,,,190,,,,B,Raw,M,Open,Yes
3,Ronnie Castro,CA,140,139.8,,39,,,,,162.5,165,-167.5,165,,,,,165,,,,B,Raw,M,Open,Yes
1,Cody Chapel,ND,140+,159,,33,,,,,215.5,227.5,232.5,232.5,,,,,232.5,,,,B,Raw,M,Open,Yes
2,Blaine Stephens,TX,140+,173.9,,28,,,,,160,-170,-170,160,,,,,160,,,,B,Raw,M,Open,Yes
1,Joseph Orona,CA,100,99,,39,,,,,191,195.5,-197.5,195.5,,,,,195.5,,,,B,Raw,M,Submasters 35-39,Yes
2,Keith Bobrosky,CA,100,98.8,,37,,,,,142.5,150,155,155,,,,,155,,,,B,Raw,M,Submasters 35-39,Yes
1,Jonathan Adams,CA,125,116.7,,35,,,,,182.5,192.5,-197.5,192.5,,,,,192.5,,,,B,Raw,M,Submasters 35-39,Yes
2,Alejandro Wickham,PA,125,123.9,,36,,,,,182.5,192.5,-203,192.5,,,,,192.5,,,,B,Raw,M,Submasters 35-39,Yes
3,Jonathan Griffin,NV,125,111.6,,37,,,,,172.5,177.5,182.5,182.5,,,,,182.5,,,,B,Raw,M,Submasters 35-39,Yes
1,Bobby Martinez,CA,140,126.5,,37,,,,,220,227.5,-232.5,227.5,,,,,227.5,,,,B,Raw,M,Submasters 35-39,Yes
2,Ronnie Castro,CA,140,139.8,,39,,,,,162.5,165,-167.5,165,,,,,165,,,,B,Raw,M,Submasters 35-39,Yes
DQ,John Shannon,CA,67.5,66.2,,50,,,,,-95,-97.5,-97.5,,,,,,,,,,B,Raw,M,Masters 50-54,Yes
1,John Wehrli,CA,67.5,64.5,,57,,,,,95,100,102.5,102.5,,,,,102.5,,,,B,Raw,M,Masters 55-59,Yes
1,Wayne Koberna,OH,67.5,65.6,,61,,,,,117.5,-127.5,-127.5,117.5,,,,,117.5,,,,B,Raw,M,Masters 60-64,Yes
1,Steve Freides,NJ,67.5,66.8,,66,,,,,-80,80,-87.5,80,,,,,80,,,,B,Raw,M,Masters 65-69,Yes
1,Christopher Vashi,OH,75,73.2,,45,,,,,125,130,-135.5,130,,,,,130,,,,B,Raw,M,Masters 45-49,Yes
1,Matthew Chapman #1,HI,75,73.4,,53,,,,,115,122.5,-125,122.5,,,,,122.5,,,,B,Raw,M,Masters 50-54,Yes
1,Jeffrey Willis,NY,75,73.7,,55,,,,,125,-132.5,-132.5,125,,,,,125,,,,B,Raw,M,Masters 55-59,Yes
1,Greg Eyerly,OR,82.5,81.6,,56,,,,,110,115,-122.5,115,,,,,115,,,,B,Raw,M,Masters 55-59,Yes
1,Mark Swinton,CA,82.5,81.2,,60,,,,,125,130,132.5,132.5,,,,,132.5,,,,B,Raw,M,Masters 60-64,Yes
1,Jensen Monterrey,CA,90,88.4,,48,,,,,130,-137.5,-137.5,130,,,,,130,,,,B,Raw,M,Masters 45-49,Yes
1,Steve Vennemann,MN,90,87.5,,50,,,,,150,155,160,160,,,,,160,,,,B,Raw,M,Masters 50-54,Yes
2,Jason Roberts #2,HI,90,88.1,,51,,,,,130,135,145,145,,,,,145,,,,B,Raw,M,Masters 50-54,Yes
1,Scott Sciaretta #1,MT,90,87.8,,59,,,,,132.5,-137.5,137.5,137.5,,,,,137.5,,,,B,Raw,M,Masters 55-59,Yes
2,Bryan Hartman,CA,90,88.6,,55,,,,,132.5,-140,-140,132.5,,,,,132.5,,,,B,Raw,M,Masters 55-59,Yes
3,Tom Lujan,CA,90,87,,58,,,,,87.5,95,100,100,,,,,100,,,,B,Raw,M,Masters 55-59,Yes
1,John Hare,TX,90,88.5,,60,,,,,147.5,165,170,170,,,,,170,,,,B,Raw,M,Masters 60-64,Yes
2,Randy Shelton,MT,90,89.6,,61,,,,,137.5,-150,-150,137.5,,,,,137.5,,,,B,Raw,M,Masters 60-64,Yes
1,Terence Plotsky,CA,90,86.1,,80,,,,,65,72.5,77.5,77.5,,,,,77.5,,,,B,Raw,M,Masters 80+,Yes
1,Antonio Pagano,MO,100,99.5,,51,,,,,145,156,-163,156,,,,,156,,,,B,Raw,M,Masters 50-54,Yes
1,Derek Sherlock,CO,100,99.2,,59,,,,,100,110,117.5,117.5,,,,,117.5,,,,B,Raw,M,Masters 55-59,Yes
1,Rudy Kadlub,OR,100,98,,72,,,,,122.5,132.5,137.5,137.5,,,,,137.5,,140,,B,Raw,M,Masters 70-74,Yes
1,Jesus Hernandez #1,AZ,110,104.1,,40,,,,,190,-197.5,197.5,197.5,,,,,197.5,,,,B,Raw,M,Masters 40-44,Yes
1,James Shannon,CA,110,109.3,,48,,,,,177.5,-185,185,185,,,,,185,,187.5,,B,Raw,M,Masters 45-49,Yes
1,Robert Dickinson,WA,110,107,,55,,,,,120,-130,130,130,,,,,130,,,,B,Raw,M,Masters 55-59,Yes
2,Ray Frost,CA,110,107.1,,58,,,,,105,112.5,-117.5,112.5,,,,,112.5,,,,B,Raw,M,Masters 55-59,Yes
1,Peter Pauline,GA,110,109.3,,66,,,,,105,110,-115,110,,,,,110,,,,B,Raw,M,Masters 65-69,Yes
1,Sky Andren,OR,125,122.5,,43,,,,,145,-147.5,-147.5,145,,,,,145,,,,B,Raw,M,Masters 40-44,Yes
1,Iman Richards,CA,125,124.4,,46,,,,,205,-210,-210,205,,,,,205,,,,B,Raw,M,Masters 45-49,Yes
1,Andre Kneubuhler,CA,125,116.6,,51,,,,,185,190.5,-193,190.5,,,,,190.5,,,,B,Raw,M,Masters 50-54,Yes
2,James Justice,KY,125,110.8,,50,,,,,137.5,155,-162.5,155,,,,,155,,,,B,Raw,M,Masters 50-54,Yes
1,Chris Dodson,CA,125,124,,56,,,,,155,167.5,-180,167.5,,,,,167.5,,,,B,Raw,M,Masters 55-59,Yes
2,Karl Davenport,NC,125,120.1,,56,,,,,115,-125,,115,,,,,115,,,,B,Raw,M,Masters 55-59,Yes
1,Adam Kerrigan,NV,140,130,,40,,,,,150,160,-167.5,160,,,,,160,,,,B,Raw,M,Masters 40-44,Yes
1,Christopher Orndorff,NV,140,131.5,,45,,,,,180,185,190,190,,,,,190,,,,B,Raw,M,Masters 45-49,Yes
1,Rudolf Schaap,CA,140,128.4,,61,,,,,170,175,-180,175,,,,,175,,,,B,Raw,M,Masters 60-64,Yes
1,Mike Shae,MT,140+,161.7,,51,,,,,142.5,152.5,-157.5,152.5,,,,,152.5,,,,B,Raw,M,Masters 50-54,Yes
1,Sam Pecktol,OR,140+,150.3,,67,,,,,120,137.5,140,140,,,,,140,,142.5,,B,Raw,M,Masters 65-69,Yes
2,Matthew Fragner,CA,140+,140.4,,67,,,,,112.5,122.5,-135,122.5,,,,,122.5,,,,B,Raw,M,Masters 65-69,Yes
1,Kehaulani Richardson,NV,82.5,82,,39,,,,,100,107.5,112.5,112.5,,,,,112.5,,,,B,Single-ply,F,Open,Yes
1,Kehaulani Richardson,NV,82.5,82,,39,,,,,100,107.5,112.5,112.5,,,,,112.5,,,,B,Single-ply,F,Submasters 35-39,Yes
1,Bryan Schermerhorn,WA,90,86.7,,29,,,,,147.5,-155,155,155,,,,,155,,,,B,Single-ply,M,Open,Yes
1,Brock Charette,ND,140+,172.6,,32,,,,,-200,220,-237.5,220,,,,,220,,,,B,Single-ply,M,Open,Yes
1,Joe Walden,KS,75,74.7,,64,,,,,87.5,-97.5,-107.5,87.5,,,,,87.5,,,,B,Single-ply,M,Masters 60-64,Yes
1,Chanelle Ramos,HI,52,51.3,,23,,,,,,,,,-135,135,-150,135,135,,,,D,Raw,F,Juniors 20-23,Yes
1,Lisa Pennington,ND,60,60,,17,,,,,,,,,122.5,-125,125,125,125,,,,D,Raw,F,Juniors 16-17,Yes
1,Miah Salinas,CA,60,59.1,,18,,,,,,,,,127.5,132.5,-137.5,132.5,132.5,,,,D,Raw,F,Juniors 18-19,Yes
1,Bailey Stettmeier,AR,67.5,65,,23,,,,,,,,,167.5,182.5,-185,182.5,182.5,,,,D,Raw,F,Juniors 20-23,Yes
1,Sierra Marshman,OR,82.5,80.9,,23,,,,,,,,,152.5,165,175,175,175,,,,D,Raw,F,Juniors 20-23,Yes
1,Emily Joiner,AL,90+,109.5,,23,,,,,,,,,160,175,190,190,190,,,,D,Raw,F,Juniors 20-23,Yes
1,Linda Badillo,OK,52,50.5,,39,,,,,,,,,97.5,102.5,112.5,112.5,112.5,,,,D,Raw,F,Open,Yes
1,Simone Thomas,CA,56,54.1,,30,,,,,,,,,190.5,-200,-200,190.5,190.5,,,,D,Raw,F,Open,Yes
2,Molly Hendryx,OR,56,54.7,,37,,,,,,,,,157.5,163,167.5,167.5,167.5,,,,D,Raw,F,Open,Yes
1,Sydney Hunter,CA,60,59.2,,24,,,,,,,,,187.5,197.5,202.5,202.5,202.5,,,,D,Raw,F,Open,Yes
2,Stephanie Hanson,PA,60,58.8,,29,,,,,,,,,170,180,-187.5,180,180,,,,D,Raw,F,Open,Yes
3,Cassi Addamo,MA,60,59.6,,28,,,,,,,,,160,172.5,-182.5,172.5,172.5,,,,D,Raw,F,Open,Yes
4,Elle Bandy,IL,60,58.4,,34,,,,,,,,,142.5,145,150,150,150,,,,D,Raw,F,Open,Yes
1,Bailey Stettmeier,AR,67.5,65,,23,,,,,,,,,167.5,182.5,-185,182.5,182.5,,,,D,Raw,F,Open,Yes
1,Tiffany Savage,CA,75,74.8,,28,,,,,,,,,205,-220,-220,205,205,,,,D,Raw,F,Open,Yes
2,Samantha Day,CA,75,74.3,,42,,,,,,,,,165,175,182.5,182.5,182.5,,,,D,Raw,F,Open,Yes
1,Charlie Cheryl Ritchie,OR,82.5,81.5,,50,,,,,,,,,165,177.5,182.5,182.5,182.5,,,185.5,D,Raw,F,Open,Yes
2,Sierra Marshman,OR,82.5,80.9,,23,,,,,,,,,152.5,165,175,175,175,,,,D,Raw,F,Open,Yes
3,Kimberly Brown,CA,82.5,82.3,,55,,,,,,,,,175,-182.5,-182.5,175,175,,,,D,Raw,F,Open,Yes
4,Julianna Preston,ND,82.5,81,,29,,,,,,,,,160,170,-172.5,170,170,,,,D,Raw,F,Open,Yes
5,Michelle Guerrero,CA,82.5,80.5,,36,,,,,,,,,152.5,165,-185,165,165,,,,D,Raw,F,Open,Yes
6,Donna Weidow,MT,82.5,81,,47,,,,,,,,,155,-162.5,162.5,162.5,162.5,,,,D,Raw,F,Open,Yes
7,Samantha Kempink,NY,82.5,81.9,,29,,,,,,,,,147.5,157.5,-162.5,157.5,157.5,,,,D,Raw,F,Open,Yes
8,Christina Ullman,OH,82.5,81.4,,50,,,,,,,,,152.5,-160,-160,152.5,152.5,,,,D,Raw,F,Open,Yes
1,Aidan Barney,OR,90,87.9,,24,,,,,,,,,167.5,-172.5,-172.5,167.5,167.5,,,,D,Raw,F,Open,Yes
2,Jacquelyne Stieber,CA,90,86.3,,28,,,,,,,,,160,-167.5,-167.5,160,160,,,,D,Raw,F,Open,Yes
1,Heather Struminger,NC,90+,133.4,,30,,,,,,,,,172.5,185,195,195,195,,,,D,Raw,F,Open,Yes
2,Susan Chambers,IL,90+,91.2,,33,,,,,,,,,175,185,192.5,192.5,192.5,,,,D,Raw,F,Open,Yes
3,Emily Joiner,AL,90+,109.5,,23,,,,,,,,,160,175,190,190,190,,,,D,Raw,F,Open,Yes
4,Marcie Bain,CA,90+,117.8,,50,,,,,,,,,152.5,165,175,175,175,,,,D,Raw,F,Open,Yes
1,Linda Badillo,OK,52,50.5,,39,,,,,,,,,97.5,102.5,112.5,112.5,112.5,,,,D,Raw,F,Submasters 35-39,Yes
1,Molly Hendryx,OR,56,54.7,,37,,,,,,,,,157.5,163,167.5,167.5,167.5,,,,D,Raw,F,Submasters 35-39,Yes
1,Rita Sanchez,CA,60,59.2,,35,,,,,,,,,102.5,115,-125,115,115,,,,D,Raw,F,Submasters 35-39,Yes
1,Michelle Guerrero,CA,82.5,80.5,,36,,,,,,,,,152.5,165,-185,165,165,,,,D,Raw,F,Submasters 35-39,Yes
1,Cynthia Syintsakos,CA,60,58.8,,54,,,,,,,,,90,102.5,112.5,112.5,112.5,,,,D,Raw,F,Masters 50-54,Yes
1,Judy Oberlander,CA,60,58.6,,58,,,,,,,,,110,122.5,127.5,127.5,127.5,,,,D,Raw,F,Masters 55-59,Yes
1,Corey Anderson #1,CA,67.5,65.1,,42,,,,,,,,,137.5,-147.5,147.5,147.5,147.5,,,,D,Raw,F,Masters 40-44,Yes
1,Shannon Paulson,CA,67.5,65.8,,50,,,,,,,,,120,127.5,-135,127.5,127.5,,,,D,Raw,F,Masters 50-54,Yes
1,Samantha Day,CA,75,74.3,,42,,,,,,,,,165,175,182.5,182.5,182.5,,,,D,Raw,F,Masters 40-44,Yes
1,Evelyn McSwain,AL,75,73,,49,,,,,,,,,100,117.5,130,130,130,,,,D,Raw,F,Masters 45-49,Yes
1,Donna Weidow,MT,82.5,81,,47,,,,,,,,,155,-162.5,162.5,162.5,162.5,,,,D,Raw,F,Masters 45-49,Yes
1,Charlie Cheryl Ritchie,OR,82.5,81.5,,50,,,,,,,,,165,177.5,182.5,182.5,182.5,,,185.5,D,Raw,F,Masters 50-54,Yes
2,Shari Langrall,WV,82.5,80.1,,50,,,,,,,,,150,157.5,-165,157.5,157.5,,,,D,Raw,F,Masters 50-54,Yes
3,Christina Ullman,OH,82.5,81.4,,50,,,,,,,,,152.5,-160,-160,152.5,152.5,,,,D,Raw,F,Masters 50-54,Yes
1,Kimberly Brown,CA,82.5,82.3,,55,,,,,,,,,175,-182.5,-182.5,175,175,,,,D,Raw,F,Masters 55-59,Yes
1,Megan Wiesner,CA,90,85.1,,46,,,,,,,,,180,187.5,190,190,190,,,,D,Raw,F,Masters 45-49,Yes
1,Janet Best,NV,90,89.3,,56,,,,,,,,,115,127.5,-130,127.5,127.5,,,,D,Raw,F,Masters 55-59,Yes
1,LaTosha Cleaver,TX,90+,97.8,,41,,,,,,,,,200,-210,-210,200,200,,,,D,Raw,F,Masters 40-44,Yes
1,Marcie Bain,CA,90+,117.8,,50,,,,,,,,,152.5,165,175,175,175,,,,D,Raw,F,Masters 50-54,Yes
1,Kimberly Evans,NC,90+,109,,56,,,,,,,,,167.5,175,180,180,180,,,,D,Raw,F,Masters 55-59,Yes
2,Lynn Bassett,UT,90+,108.1,,55,,,,,,,,,-147.5,152.5,160,160,160,,,,D,Raw,F,Masters 55-59,Yes
3,Chari Figurski,PA,90+,107.2,,56,,,,,,,,,135,-140,140,140,140,,,,D,Raw,F,Masters 55-59,Yes
1,Andrew MacGray,NY,60,59.2,,16,,,,,,,,,165,170,-175.5,170,170,,,,D,Raw,M,Juniors 16-17,Yes
1,Tristan Lin,CA,67.5,67.2,,19,,,,,,,,,240,250.5,-252.5,250.5,250.5,,,,D,Raw,M,Juniors 18-19,Yes
1,Avery Jackson #2,SC,67.5,66.2,,23,,,,,,,,,232.5,-250,250,250,250,,,,D,Raw,M,Juniors 20-23,Yes
1,Gabriel Youngquist,TX,75,72.4,,23,,,,,,,,,225,235,243,243,243,,,245,D,Raw,M,Juniors 20-23,Yes
1,Danny Stachelek,NY,82.5,82.3,,22,,,,,,,,,310,325,332.5,332.5,332.5,,,,D,Raw,M,Juniors 20-23,Yes
2,Jesualdo Olivera,CA,82.5,80.5,,23,,,,,,,,,217.5,245,,245,245,,,,D,Raw,M,Juniors 20-23,Yes
3,Antonio Lopez,CA,82.5,78.2,,20,,,,,,,,,215,-222.5,-222.5,215,215,,,,D,Raw,M,Juniors 20-23,Yes
1,Josiah Richardson,WI,90,89.5,,19,,,,,,,,,275,287.5,295,295,295,,,,D,Raw,M,Juniors 18-19,Yes
1,Lucas Pagano,MO,90,88.7,,21,,,,,,,,,222.5,-237.5,-237.5,222.5,222.5,,,,D,Raw,M,Juniors 20-23,Yes
1,Montgomery Krahn,CA,100,99.9,,22,,,,,,,,,-282.5,-282.5,282.5,282.5,282.5,,,,D,Raw,M,Juniors 20-23,Yes
1,Ethan McNeelan,CA,140,127.3,,23,,,,,,,,,235,247.5,260,260,260,,,,D,Raw,M,Juniors 20-23,Yes
1,Aydan Beckedahl,ND,140+,154.3,,17,,,,,,,,,217.5,235,-245,235,235,,,,D,Raw,M,Juniors 16-17,Yes
1,Victoriano Mesa,AZ,140+,163.4,,21,,,,,,,,,220,227.5,-230,227.5,227.5,,,,D,Raw,M,Juniors 20-23,Yes
1,Christian Kearney,TX,67.5,64.8,,32,,,,,,,,,280,295,-305,295,295,,,,D,Raw,M,Open,Yes
2,Tristan Lin,CA,67.5,67.2,,19,,,,,,,,,240,250.5,-252.5,250.5,250.5,,,,D,Raw,M,Open,Yes
3,Avery Jackson #2,SC,67.5,66.2,,23,,,,,,,,,232.5,-250,250,250,250,,,,D,Raw,M,Open,Yes
4,John Wehrli,CA,67.5,64.5,,57,,,,,,,,,172.5,185.5,-190,185.5,185.5,,,,D,Raw,M,Open,Yes
1,Casmir Hughes,OH,75,74.8,,33,,,,,,,,,290,322.5,-330,322.5,322.5,,,,D,Raw,M,Open,Yes
2,Sage Stokes,CA,75,74.5,,28,,,,,,,,,247.5,255,-267.5,255,255,,,,D,Raw,M,Open,Yes
3,Marc-Anthony Ho,HI,75,74.7,,32,,,,,,,,,222.5,240,250,250,250,,,,D,Raw,M,Open,Yes
1,Danny Stachelek,NY,82.5,82.3,,22,,,,,,,,,310,325,332.5,332.5,332.5,,,,D,Raw,M,Open,Yes
2,Andrew Ha,CA,82.5,75.7,,24,,,,,,,,,315,327.5,,327.5,327.5,,,,D,Raw,M,Open,Yes
3,Abner Nazario,NJ,82.5,79.7,,28,,,,,,,,,287.5,320,-347.5,320,320,,,,D,Raw,M,Open,Yes
4,Ramiro Espinosa,TX,82.5,82.4,,31,,,,,,,,,265,282.5,292.5,292.5,292.5,,,,D,Raw,M,Open,Yes
5,Jesse Coffey #1,CA,82.5,81.5,,35,,,,,,,,,260,272.5,280,280,280,,,288,D,Raw,M,Open,Yes
6,Jesualdo Olivera,CA,82.5,80.5,,23,,,,,,,,,217.5,245,,245,245,,,,D,Raw,M,Open,Yes
1,Luis De Santiago,CA,90,89.3,,33,,,,,,,,,260,275,285,285,285,,,,D,Raw,M,Open,Yes
2,Josh Johnson,ND,90,87.5,,27,,,,,,,,,247.5,265,-272.5,265,265,,,,D,Raw,M,Open,Yes
3,Jensen Monterrey,CA,90,88.4,,48,,,,,,,,,227.5,-240,,227.5,227.5,,,,D,Raw,M,Open,Yes
1,Tanner Owings,CA,100,98.3,,28,,,,,,,,,290,310,-327.5,310,310,,,,D,Raw,M,Open,Yes
2,Tyler Kroll,MN,100,99.5,,33,,,,,,,,,287.5,-302.5,305,305,305,,,,D,Raw,M,Open,Yes
3,Tyler Lindsay,VA,100,98.4,,24,,,,,,,,,292.5,-305,,292.5,292.5,,,,D,Raw,M,Open,Yes
4,Zach Presto,PA,100,97.6,,27,,,,,,,,,275,287.5,-300,287.5,287.5,,,,D,Raw,M,Open,Yes
5,Montgomery Krahn,CA,100,99.9,,22,,,,,,,,,-282.5,-282.5,282.5,282.5,282.5,,,,D,Raw,M,Open,Yes
6,Eric Hansen,CA,100,96.9,,46,,,,,,,,,222.5,-235,235,235,235,,,,D,Raw,M,Open,Yes
1,Nicholas Tripi,NV,110,109.2,,28,,,,,,,,,232.5,237.5,-250,237.5,237.5,,,,D,Raw,M,Open,Yes
1,Boris Terry,CA,125,114.8,,36,,,,,,,,,320,340,-357.5,340,340,,,,D,Raw,M,Open,Yes
2,Alejandro Wickham,PA,125,123.9,,36,,,,,,,,,295,-312.5,312.5,312.5,312.5,,,,D,Raw,M,Open,Yes
3,Jonathan Adams,CA,125,116.7,,35,,,,,,,,,232.5,255,272.5,272.5,272.5,,,,D,Raw,M,Open,Yes
4,James Justice,KY,125,110.8,,50,,,,,,,,,245,255,-272.5,255,255,,,,D,Raw,M,Open,Yes
5,Wesley French,NV,125,116.7,,30,,,,,,,,,220,-237.5,-237.5,220,220,,,,D,Raw,M,Open,Yes
1,Dennis Alegre,CA,140,128.7,,56,,,,,,,,,260,287.5,290,290,290,,,,D,Raw,M,Open,Yes
2,Bobby Martinez,CA,140,126.5,,37,,,,,,,,,267.5,282.5,-297.5,282.5,282.5,,,,D,Raw,M,Open,Yes
3,Kyle Shearer,AZ,140,134.8,,40,,,,,,,,,263,-272.5,272.5,272.5,272.5,,,,D,Raw,M,Open,Yes
4,Ethan McNeelan,CA,140,127.3,,23,,,,,,,,,235,247.5,260,260,260,,,,D,Raw,M,Open,Yes
5,Ronnie Castro,CA,140,139.8,,39,,,,,,,,,222.5,,,222.5,222.5,,,,D,Raw,M,Open,Yes
1,Jihan Garland,VA,140+,147.1,,31,,,,,,,,,335,-350.5,-350.5,335,335,,,,D,Raw,M,Open,Yes
2,Cody Chapel,ND,140+,159,,33,,,,,,,,,307.5,330.5,-350,330.5,330.5,,,,D,Raw,M,Open,Yes
3,Blaine Stephens,TX,140+,173.9,,28,,,,,,,,,272.5,285,300,300,300,,,,D,Raw,M,Open,Yes
4,Colton Hill,ND,140+,158,,30,,,,,,,,,220,227.5,-245,227.5,227.5,,,,D,Raw,M,Open,Yes
1,Jesse Coffey #1,CA,82.5,81.5,,35,,,,,,,,,260,272.5,280,280,280,,,288,D,Raw,M,Submasters 35-39,Yes
1,Jesse Cleaver,TX,110,102.3,,38,,,,,,,,,282.5,-300,-300,282.5,282.5,,,,D,Raw,M,Submasters 35-39,Yes
1,Boris Terry,CA,125,114.8,,36,,,,,,,,,320,340,-357.5,340,340,,,,D,Raw,M,Submasters 35-39,Yes
2,Alejandro Wickham,PA,125,123.9,,36,,,,,,,,,295,-312.5,312.5,312.5,312.5,,,,D,Raw,M,Submasters 35-39,Yes
3,Jonathan Adams,CA,125,116.7,,35,,,,,,,,,232.5,255,272.5,272.5,272.5,,,,D,Raw,M,Submasters 35-39,Yes
1,Bobby Martinez,CA,140,126.5,,37,,,,,,,,,267.5,282.5,-297.5,282.5,282.5,,,,D,Raw,M,Submasters 35-39,Yes
2,Ronnie Castro,CA,140,139.8,,39,,,,,,,,,222.5,,,222.5,222.5,,,,D,Raw,M,Submasters 35-39,Yes
1,John Shannon,CA,67.5,66.2,,50,,,,,,,,,120,-137.5,-137.5,120,120,,,,D,Raw,M,Masters 50-54,Yes
1,John Wehrli,CA,67.5,64.5,,57,,,,,,,,,172.5,185.5,-190,185.5,185.5,,,,D,Raw,M,Masters 55-59,Yes
1,Steve Freides,NJ,67.5,66.8,,66,,,,,,,,,145,155,-165,155,155,,,,D,Raw,M,Masters 65-69,Yes
1,Christopher Vashi,OH,75,73.2,,45,,,,,,,,,220,232,242.5,242.5,242.5,,,245,D,Raw,M,Masters 45-49,Yes
1,Jim Gallagher #1,CA,75,72,,85,,,,,,,,,132.5,140,152.5,152.5,152.5,,,,D,Raw,M,Masters 80+,Yes
1,Donnie Campbell,TX,82.5,81.5,,47,,,,,,,,,205,212.5,222.5,222.5,222.5,,,,D,Raw,M,Masters 45-49,Yes
1,Greg Eyerly,OR,82.5,81.6,,56,,,,,,,,,-185,190,195,195,195,,,,D,Raw,M,Masters 55-59,Yes
1,Jensen Monterrey,CA,90,88.4,,48,,,,,,,,,227.5,-240,,227.5,227.5,,,,D,Raw,M,Masters 45-49,Yes
1,Jason Roberts #2,HI,90,88.1,,51,,,,,,,,,200,215,227.5,227.5,227.5,,,,D,Raw,M,Masters 50-54,Yes
1,Scott Sciaretta #1,MT,90,87.8,,59,,,,,,,,,217.5,230,-240.5,230,230,,,,D,Raw,M,Masters 55-59,Yes
2,Shawn Handelman,CA,90,84.5,,58,,,,,,,,,195,-205,205,205,205,,,,D,Raw,M,Masters 55-59,Yes
3,Bryan Hartman,CA,90,88.6,,55,,,,,,,,,187.5,195,-207.5,195,195,,,,D,Raw,M,Masters 55-59,Yes
DQ,Tom Lujan,CA,90,87,,58,,,,,,,,,,,,,,,,,D,Raw,M,Masters 55-59,Yes
1,Alan Hudspeth,OR,90,88,,60,,,,,,,,,185,192.5,-197.5,192.5,192.5,,,,D,Raw,M,Masters 60-64,Yes
1,Kurtis Webb,TX,90,88,,69,,,,,,,,,-180,190,195,195,195,,,200,D,Raw,M,Masters 65-69,Yes
1,Terence Plotsky,CA,90,86.1,,80,,,,,,,,,110,115,120,120,120,,,,D,Raw,M,Masters 80+,Yes
1,Eric Hansen,CA,100,96.9,,46,,,,,,,,,222.5,-235,235,235,235,,,,D,Raw,M,Masters 45-49,Yes
1,Derek Sherlock,CO,100,99.2,,59,,,,,,,,,210.5,220,227.5,227.5,227.5,,,230,D,Raw,M,Masters 55-59,Yes
2,Marco Cadava,CA,100,96.3,,56,,,,,,,,,195,-212.5,-212.5,195,195,,,,D,Raw,M,Masters 55-59,Yes
1,Rudy Kadlub,OR,100,98,,72,,,,,,,,,215,227.5,-235,227.5,227.5,,,,D,Raw,M,Masters 70-74,Yes
DQ,Jeremy McMillon,CA,110,108.9,,43,,,,,,,,,-262.5,,,,,,,,D,Raw,M,Masters 40-44,Yes
1,Ray Frost,CA,110,107.1,,58,,,,,,,,,172.5,182.5,-197.5,182.5,182.5,,,,D,Raw,M,Masters 55-59,Yes
1,Peter Pauline,GA,110,109.3,,66,,,,,,,,,-225,230,240,240,240,,,,D,Raw,M,Masters 65-69,Yes
1,James Justice,KY,125,110.8,,50,,,,,,,,,245,255,-272.5,255,255,,,,D,Raw,M,Masters 50-54,Yes
1,Karl Davenport,NC,125,120.1,,56,,,,,,,,,175,192.5,205,205,205,,,,D,Raw,M,Masters 55-59,Yes
2,Chris Dodson,CA,125,124,,56,,,,,,,,,170,190,205,205,205,,,,D,Raw,M,Masters 55-59,Yes
1,Kyle Shearer,AZ,140,134.8,,40,,,,,,,,,263,-272.5,272.5,272.5,272.5,,,,D,Raw,M,Masters 40-44,Yes
2,Adam Kerrigan,NV,140,130,,40,,,,,,,,,235,237.5,-263,237.5,237.5,,,,D,Raw,M,Masters 40-44,Yes
1,Dennis Alegre,CA,140,128.7,,56,,,,,,,,,260,287.5,290,290,290,,,,D,Raw,M,Masters 55-59,Yes
1,Mike Shae,MT,140+,161.7,,51,,,,,,,,,210,225,235.5,235.5,235.5,,,,D,Raw,M,Masters 50-54,Yes
1,Sam Pecktol,OR,140+,150.3,,67,,,,,,,,,210,227.5,235,235,235,,,,D,Raw,M,Masters 65-69,Yes
2,Matthew Fragner,CA,140+,140.4,,67,,,,,,,,,147.5,170,-180,170,170,,,,D,Raw,M,Masters 65-69,Yes
1,Kehaulani Richardson,NV,82.5,82,,39,,,,,,,,,187.5,197.5,205,205,205,,,,D,Single-ply,F,Open,Yes
1,Kehaulani Richardson,NV,82.5,82,,39,,,,,,,,,187.5,197.5,205,205,205,,,,D,Single-ply,F,Submasters 35-39,Yes
1,Bryan Schermerhorn,WA,90,86.7,,29,,,,,,,,,65,,,65,65,,,,D,Single-ply,M,Open,Yes
1,Brock Charette,ND,140+,172.6,,32,,,,,,,,,312.5,-337.5,-337.5,312.5,312.5,,,,D,Single-ply,M,Open,Yes
1,Michael Martin,WA,67.5,64.7,,60,,,,,,,,,150,165,-177.5,165,165,,,,D,Single-ply,M,Masters 60-64,Yes
1,Joe Walden,KS,75,74.7,,64,,,,,,,,,162.5,175,180,180,180,,,,D,Single-ply,M,Masters 60-64,Yes
1,Peter Murphy,CA,100,97.2,,69,,,,,,,,,187.5,210,220,220,220,,,,D,Single-ply,M,Masters 65-69,Yes
2,Ken Jones #1,AL,100,97.6,,65,,,,,,,,,177.5,-220.5,,177.5,177.5,,,,D,Single-ply,M,Masters 65-69,Yes
