Place,Name,State,WeightClassKg,BodyweightKg,BirthDate,Age,Squat1Kg,Squat2Kg,Squat3Kg,Best3SquatKg,Bench1Kg,Bench2Kg,Bench3Kg,Best3BenchKg,Deadlift1Kg,Deadlift2Kg,Deadlift3Kg,Best3DeadliftKg,TotalKg,Event,Equipment,Sex,Division,Tested
1,Grace Perrin,MI,56,53.7,,19,92.5,97.5,-100,97.5,-47.5,50,-55,50,132.5,137.5,-140,137.5,285,SBD,Raw,F,Juniors 18-19,Yes
1,Olivia Gyomory,MI,90+,94.4,,16,85,102.5,-125,102.5,57.5,62.5,-67.5,62.5,115,130,142.5,142.5,307.5,SBD,Raw,F,Juniors 16-17,Yes
1,Jen Jaynes,MI,52,50.9,,24,82.5,87.5,-95,87.5,47.5,-52.5,-55,47.5,120,127.5,-137.5,127.5,262.5,SBD,Raw,F,Open,Yes
1,Grace Perrin,MI,56,53.7,,19,92.5,97.5,-100,97.5,-47.5,50,-55,50,132.5,137.5,-140,137.5,285,SBD,Raw,F,Open,Yes
1,Kimberly Conway,MI,67.5,62.4,,28,130,137.5,-142.5,137.5,75,80,-82.5,80,145,150,155,155,372.5,SBD,Raw,F,Open,Yes
2,Laekyn Jaciuk,MI,67.5,64.4,,24,105,112.5,117.5,117.5,77.5,82.5,-85,82.5,140,152.5,157.5,157.5,357.5,SBD,Raw,F,Open,Yes
3,Hanna Van der Moere,MI,67.5,60.3,,29,110,115,120,120,57.5,62.5,-65,62.5,-165,165,-172.5,165,347.5,SBD,Raw,F,Open,Yes
4,Trevia Brooks,,67.5,67.2,,47,115,118,120,120,65,68.5,-70,68.5,147.5,150,153,153,341.5,SBD,Raw,F,Open,Yes
5,Cathy Miller,MI,67.5,66.6,,52,117.5,125,-130,125,57.5,-65,-65,57.5,130,-140,-145,130,312.5,SBD,Raw,F,Open,Yes
1,Sarah Bakker,MI,75,73.8,,24,105,112.5,-117.5,112.5,47.5,-52.5,-52.5,47.5,125,137.5,-145,137.5,297.5,SBD,Raw,F,Open,Yes
1,Jen Potgeter,MI,82.5,81.3,,42,135,142.5,-150,142.5,85,-90,-90,85,142.5,150,160,160,387.5,SBD,Raw,F,Open,Yes
1,Chyler Crawford,MI,90+,106,,36,157.5,167.5,-175,167.5,97.5,102.5,-107.5,102.5,182.5,187.5,195,195,465,SBD,Raw,F,Open,Yes
2,Mandi Garvey,MI,90+,184.7,,37,-72.5,72.5,75,75,52.5,55,-60,55,90,120,-130,120,250,SBD,Raw,F,Open,Yes
1,Chyler Crawford,MI,90+,106,,36,157.5,167.5,-175,167.5,97.5,102.5,-107.5,102.5,182.5,187.5,195,195,465,SBD,Raw,F,Submasters 35-39,Yes
2,Mandi Garvey,MI,90+,184.7,,37,-72.5,72.5,75,75,52.5,55,-60,55,90,120,-130,120,250,SBD,Raw,F,Submasters 35-39,Yes
1,Trevia Brooks,OH,67.5,67.2,,47,115,118,120,120,65,68.5,-70,68.5,147.5,150,153,153,341.5,SBD,Raw,F,Masters 45-49,Yes
1,Cathy Miller,MI,67.5,66.6,,52,117.5,125,-130,125,57.5,-65,-65,57.5,130,-140,-145,130,312.5,SBD,Raw,F,Masters 50-54,Yes
1,Jen Potgeter,MI,82.5,81.3,,42,135,142.5,-150,142.5,85,-90,-90,85,142.5,150,160,160,387.5,SBD,Raw,F,Masters 40-44,Yes
1,Carrie Wenta,MI,90+,92.4,,49,62.5,80,92.5,92.5,52.5,-60,-60,52.5,102.5,112.5,-125,112.5,257.5,SBD,Raw,F,Masters 45-49,Yes
1,Wendy Carlisle,MI,90+,98.9,,53,107.5,110,115,115,60,-62.5,-62.5,60,135,140,-147.5,140,315,SBD,Raw,F,Masters 50-54,Yes
1,Noah Jarrell,MI,75,73.6,,19,152.5,165,175,175,77.5,85,90,90,185,197.5,205,205,470,SBD,Raw,M,Juniors 18-19,Yes
2,Elijah Bailey,MI,75,74.9,,18,137.5,147.5,160,160,92.5,100,110,110,-175,175,-195,175,445,SBD,Raw,M,Juniors 18-19,Yes
1,Charles Kotarski,MI,82.5,79.3,,20,180,190,195,195,110,115,-120,115,200,212.5,227.5,227.5,537.5,SBD,Raw,M,Juniors 20-23,Yes
1,Max Blackledge,MI,90,86.5,,22,207.5,220,-232.5,220,140,147.5,150,150,260,282.5,-290,282.5,652.5,SBD,Raw,M,Juniors 20-23,Yes
1,Ryan Massa,MI,100,98.5,,18,127.5,137.5,145,145,110,-117.5,-117.5,110,172.5,-190,-195,172.5,427.5,SBD,Raw,M,Juniors 18-19,Yes
DQ,John Sayer,MI,100,96.7,,20,210,225,-237.5,225,-125,-135,-135,,180,205,215,215,,SBD,Raw,M,Juniors 20-23,Yes
1,Liam Van Zelst,MI,110,107.9,,18,180,195,205,205,135,142.5,147.5,147.5,215,230,-242.5,230,582.5,SBD,Raw,M,Juniors 18-19,Yes
2,Joshua Gilbert,MI,110,106.6,,19,192.5,202.5,-207.5,202.5,120,-125,-125,120,142.5,152.5,165,165,487.5,SBD,Raw,M,Juniors 18-19,Yes
1,Adam Tipps,IL,110,109,,23,215,230,245,245,140,145,150,150,247.5,262.5,267.5,267.5,662.5,SBD,Raw,M,Juniors 20-23,Yes
1,David May #2,MI,75,74,,27,192.5,212.5,-220,212.5,117.5,130,-135,130,237.5,257.5,265,265,607.5,SBD,Raw,M,Open,Yes
2,Matt Wallace,IL,75,71.2,,27,165,177.5,195,195,110,117.5,122.5,122.5,225,245,-255,245,562.5,SBD,Raw,M,Open,Yes
3,Sophy Teng,MI,75,72,,40,-200,-210,210,210,120,125,-130,125,220,-235,-235,220,555,SBD,Raw,M,Open,Yes
4,Joseph Lota,IL,75,73.7,,32,160,170,182.5,182.5,120,-132.5,-132.5,120,192.5,200,210,210,512.5,SBD,Raw,M,Open,Yes
5,Dennis Miller,MI,75,74.8,,29,157.5,-162.5,-162.5,157.5,127.5,-130,-130,127.5,175,180,185,185,470,SBD,Raw,M,Open,Yes
6,Elijah Bailey,MI,75,74.9,,18,137.5,147.5,160,160,92.5,100,110,110,-175,175,-195,175,445,SBD,Raw,M,Open,Yes
1,Charles Kotarski,MI,82.5,79.3,,20,180,190,195,195,110,115,-120,115,200,212.5,227.5,227.5,537.5,SBD,Raw,M,Open,Yes
DQ,Jordan Van Dyk,MI,82.5,81.4,,29,142.5,152.5,170,170,110,-117.5,-117.5,110,-150,,,,,SBD,Raw,M,Open,Yes
1,Adrian Tijerina,IL,90,88.9,,28,210,227.5,232.5,232.5,112.5,127.5,-137.5,127.5,210,227.5,247.5,247.5,607.5,SBD,Raw,M,Open,Yes
1,Nicholas Evans #1,MI,100,98.6,,26,215,227.5,-237.5,227.5,142.5,-150,150,150,257.5,-277.5,-277.5,257.5,635,SBD,Raw,M,Open,Yes
2,Garrett Meso,MI,100,99.2,,26,192.5,205,212.5,212.5,125,-135,135,135,-275,-282.5,282.5,282.5,630,SBD,Raw,M,Open,Yes
3,Benjamin Orkis,MI,100,97.8,,30,207.5,220,227.5,227.5,130,137.5,145,145,220,235,242.5,242.5,615,SBD,Raw,M,Open,Yes
4,Elmond Bejtovic,MI,100,96.1,,26,140,147.5,150,150,107.5,112.5,115,115,192.5,205,212.5,212.5,477.5,SBD,Raw,M,Open,Yes
1,Joshua Tomann,WI,110,108.4,,27,272.5,287.5,295,295,157.5,167.5,172.5,172.5,322.5,-337.5,352.5,352.5,820,SBD,Raw,M,Open,Yes
2,Jack Wolff #2,MI,110,108.8,,25,247.5,265,275,275,165,-175,175,175,247.5,265,-275,265,715,SBD,Raw,M,Open,Yes
3,Tim Strunk,MI,110,109,,26,242.5,250,-262.5,250,175,-185,-185,175,250,275,-282.5,275,700,SBD,Raw,M,Open,Yes
4,Adam Tipps,IL,110,109,,23,215,230,245,245,140,145,150,150,247.5,262.5,267.5,267.5,662.5,SBD,Raw,M,Open,Yes
5,Dylan Bergmann,MI,110,109.8,,22,212.5,222.5,-227.5,222.5,140,-145,-145,140,255,-265,-277.5,255,617.5,SBD,Raw,M,Open,Yes
1,Joshua Sommer,IL,125,121,,26,265,275,282.5,282.5,137.5,152.5,157.5,157.5,250,-260,-260,250,690,SBD,Raw,M,Open,Yes
2,Michael Burns #3,MI,125,123.3,,50,182.5,-205,-225,182.5,-125,132.5,140,140,182.5,205,210,210,532.5,SBD,Raw,M,Open,Yes
1,Brian Kipp,MI,140,129.1,,50,242.5,255,-267.5,255,157.5,165,-175,165,262.5,277.5,290,290,710,SBD,Raw,M,Open,Yes
1,Joe Larger,MI,125,123,,36,235,240,260,260,167.5,175,-182.5,175,245,255,-265,255,690,SBD,Raw,M,Submasters 35-39,Yes
1,Sophy Teng,MI,75,72,,40,-200,-210,210,210,120,125,-130,125,220,-235,-235,220,555,SBD,Raw,M,Masters 40-44,Yes
1,Aaron Hegedus,MI,75,74.3,,51,-160,160,-175,160,82.5,90,-95,90,195,-205,-205,195,445,SBD,Raw,M,Masters 50-54,Yes
1,Michael Perrin,MI,75,72.5,,59,105,-110,110,110,100,-105,-105,100,100,,,100,310,SBD,Raw,M,Masters 55-59,Yes
DQ,Gary Jensen,MI,90,89,,65,57.5,,,57.5,-80,-80,-80,,110,122.5,135,135,,SBD,Raw,M,Masters 65-69,Yes
1,Kurt Vanlente,MI,100,100,,45,192.5,202.5,205,205,142.5,-150,-150,142.5,207.5,217.5,-222.5,217.5,565,SBD,Raw,M,Masters 45-49,Yes
1,David Sloan #1,MI,110,106.5,,60,165,185,-195,185,125,135,-140.5,135,215,230,240,240,560,SBD,Raw,M,Masters 60-64,Yes
DQ,Thomas Hunt,MI,110,102.8,,61,,,,,,,,,,,,,,SBD,Raw,M,Masters 60-64,Yes
1,Michael Burns #3,MI,125,123.3,,50,182.5,-205,-225,182.5,-125,132.5,140,140,182.5,205,210,210,532.5,SBD,Raw,M,Masters 50-54,Yes
1,Brian Kipp,MI,140,129.1,,50,242.5,255,-267.5,255,157.5,165,-175,165,262.5,277.5,290,290,710,SBD,Raw,M,Masters 50-54,Yes
1,Kathryn Holland,MI,90+,109.6,,56,62.5,75,85,85,45,50,-52.5,50,110,115,117.5,117.5,252.5,SBD,Wraps,F,Open,Yes
1,Kathryn Holland,MI,90+,109.6,,56,62.5,75,85,85,45,50,-52.5,50,110,115,117.5,117.5,252.5,SBD,Wraps,F,Masters 55-59,Yes
1,Patrick Jones,WI,90,88.9,,17,185,195,-200,195,-145.5,145.5,-160,145.5,185,200,-210,200,540.5,SBD,Wraps,M,Juniors 16-17,Yes
1,Tyrel Williams,IL,140+,168.6,,29,340,365,387.5,387.5,215,235,-250,235,-295,295,-317.5,295,917.5,SBD,Wraps,M,Open,Yes
1,Olivia Gyomory,MI,90+,94.4,,16,,,,,57.5,62.5,-67.5,62.5,,,,,62.5,B,Raw,F,Juniors 16-17,Yes
1,Brian Plummer,MI,100,91,,29,,,,,155,-157.5,-170,155,,,,,155,B,Raw,M,Open,Yes
1,James Spencer,MI,82.5,76,,66,,,,,95,105.5,-110,105.5,,,,,105.5,B,Raw,M,Masters 65-69,Yes
1,Tony Lord,MI,100,98.9,,47,,,,,82.5,102.5,112.5,112.5,,,,,112.5,B,Raw,M,Masters 45-49,Yes
1,Patrick Morris,MI,100,97.2,,52,,,,,145,155,-165,155,,,,,155,B,Raw,M,Masters 50-54,Yes
1,Olivia Gyomory,MI,90+,94.4,,16,,,,,,,,,115,130,142.5,142.5,142.5,D,Raw,F,Juniors 16-17,Yes
1,Olivia Gyomory,MI,90+,94.4,,16,,,,,57.5,62.5,-67.5,62.5,115,130,142.5,142.5,205,BD,Raw,F,Juniors 16-17,Yes
1,John Lord,MI,90,86.3,,18,,,,,102.5,110,-125,110,-185,185,-192.5,185,295,BD,Raw,M,Juniors 18-19,Yes
1,Ian Thomas,MI,100,98,,19,,,,,135,140,145,145,215,227.5,237.5,237.5,382.5,BD,Raw,M,Juniors 18-19,Yes
