Place,Name,BirthDate,Team,WeightClassKg,BodyweightKg,Squat1Kg,Squat2Kg,Squat3Kg,Best3SquatKg,Bench1Kg,Bench2Kg,Bench3Kg,Best3BenchKg,Deadlift1Kg,Deadlift2Kg,Deadlift3Kg,Best3DeadliftKg,TotalKg,Event,Equipment,Division,Sex
1,Reema Kumari,1995-04-06,RSPB,47,44.9,160,170,180,180,75,-80,-80,75,145,155,-161,155,410,SBD,Single-ply,Open,F
2,Aneesha M,2003-02-13,KER,47,45.9,130,145,-150,145,80,85,-87.5,85,-130,140,152.5,152.5,382.5,SBD,Single-ply,Open,F
3,Neha Amar Bhosale,1992-07-12,WB,47,46.95,135,-147.5,-152.5,135,65,70,-75,70,140,152.5,-162.5,152.5,357.5,SBD,Single-ply,Open,F
4,Rasika Chandrakant Avera,2000-12-16,MAH,47,45.75,135,145,152.5,152.5,60,-67.5,-67.5,60,115,-125,-125,115,327.5,SBD,Single-ply,Open,F
5,Anuradha Kumawat,1997-07-05,RAJ,47,46.8,125,132.5,140,140,62.5,-65,-65,62.5,125,-130,-130,125,327.5,SBD,Single-ply,Open,F
6,Sumana,2000-10-06,KAR,47,47,115,-122.5,127.5,127.5,50,52.5,-55,52.5,125,-137.5,140,140,320,SBD,Single-ply,Open,F
7,Tabssum Gohil,1996-07-23,GUJ,47,46.85,110,117.5,122.5,122.5,55,-60,60,60,120,130,-135,130,312.5,SBD,Single-ply,Open,F
8,Mohanapriya V,1998-09-19,TN,47,46.45,110,117.5,122.5,122.5,40,47.5,-52.5,47.5,110,120,127.5,127.5,297.5,SBD,Single-ply,Open,F
9,Pooja Nayak,1992-10-17,CCSCSB,47,45.15,-100,100,-115,100,52.5,55,-60,55,90,100,-110,100,255,SBD,Single-ply,Open,F
10,V. Bhagya Laxmi,2000-04-23,TEL,47,40.75,-90,90,-100,90,37.5,40,-42.5,40,105,110,-117.5,110,240,SBD,Single-ply,Open,F
11,Manisha Sharma,1994-08-01,UP,47,46.5,-70,-80,80,80,55,-60,-60,55,-70,70,-90,70,205,SBD,Single-ply,Open,F
DQ,Chandni Ramteke,1991-10-17,CHT,47,45.75,-80,-80,-80,,,,,,,,,,,SBD,Single-ply,Open,F
1,Kajol Gaurav,1995-12-29,RSPB,52,50.75,155,165,172.5,172.5,87.5,92.5,-95,92.5,150,157.5,162.5,162.5,427.5,SBD,Single-ply,Open,F
2,Anju Raju,1996-05-21,RSPB,52,50.75,150,165,170,170,75,82.5,-87.5,82.5,-150,150,160,160,412.5,SBD,Single-ply,Open,F
3,R. Poorna,1998-12-18,AP,52,51.8,150,162.5,-175,162.5,60,70,-77.5,70,150,160,-165,160,392.5,SBD,Single-ply,Open,F
4,Bhagyalakshmi S,2000-03-10,KER,52,49.6,-135,140,-150,140,62.5,70,72.5,72.5,125,135,-137.5,135,347.5,SBD,Single-ply,Open,F
5,Minoti Dehingia,1990-10-20,ASA,52,50.95,130,-140,-140,130,65,70,-72.5,70,125,-132.5,-132.5,125,325,SBD,Single-ply,Open,F
6,Deeksha Sharma,1991-12-20,UP,52,52,90,-120,-125,90,70,75,-82.5,75,-80,90,-110,90,255,SBD,Single-ply,Open,F
7,Simran Rani,2001-11-15,PUN,52,51,-90,90,-105,90,-35,35,-40,35,90,100,120,120,245,SBD,Single-ply,Open,F
8,Chandravati Varma,1993-10-02,TEL,52,50.5,70,-77.5,80,80,35,-40,-40,35,100,-107.5,107.5,107.5,222.5,SBD,Single-ply,Open,F
DQ,Elakkiya K,1999-04-18,TN,52,51.7,-122.5,-122.5,-122.5,,,,,,,,,,,SBD,Single-ply,Open,F
1,J. Rama Lakshmi,1989-07-02,RSPB,57,54.9,155,167.5,175,175,105,115,-120,115,160,167.5,-172.5,167.5,457.5,SBD,Single-ply,Open,F
2,Riya Gupta,1999-02-22,UP,57,55.2,170,-177.5,-177.5,170,95,-100,-105,95,170,-185,192.5,192.5,457.5,SBD,Single-ply,Open,F
3,Mamta Devi,2001-04-24,HAR,57,56.7,170,180,-187.5,180,70,-77.5,77.5,77.5,150,162.5,172.5,172.5,430,SBD,Single-ply,Open,F
4,Harinipriya D,2004-01-08,TN,57,55.2,160,170,177.5,177.5,70,80,-85,80,145,160,165,165,422.5,SBD,Single-ply,Open,F
5,Sonal Sawant,1998-10-01,MAH,57,53.6,-152.5,152.5,165,165,97.5,105,-107.5,105,145,150,-152.5,150,420,SBD,Single-ply,Open,F
6,Marri Bhagya Lakshmi,1993-03-04,WB,57,55,130,140,150,150,55,70,80,80,140,-155,155,155,385,SBD,Single-ply,Open,F
7,Sk Sadiya Almas,2002-10-27,AP,57,55.4,155,162.5,-170,162.5,-70,70,-72.5,70,135,150,-172.5,150,382.5,SBD,Single-ply,Open,F
8,Jwala Jose L,2000-01-17,KER,57,55.5,130,142.5,152.5,152.5,60,70,72.5,72.5,-120,140,-145,140,365,SBD,Single-ply,Open,F
9,M. Vijaya Lakshmi,2000-07-25,AP,57,56.5,-130,130,-140,130,-70,-70,70,70,125,135,-140,135,335,SBD,Single-ply,Open,F
10,Bijlee Bag,1995-08-13,CHT,57,57,120,-135,-140,120,80,90,95,95,120,-130,,120,335,SBD,Single-ply,Open,F
11,Akshata Kharvi,1996-03-09,KAR,57,56.8,115,130,-135,130,62.5,67.5,70,70,120,-127.5,127.5,127.5,327.5,SBD,Single-ply,Open,F
12,A. Ashiga,2004-12-02,PUD,57,55.9,110,-125,-132.5,110,42.5,50,-52.5,50,120,130,135,135,295,SBD,Single-ply,Open,F
13,Sukmit Lepcha,1994-04-26,SIK,57,56.2,-75,90,100,100,45,-52.5,-52.5,45,-100,100,-105,100,245,SBD,Single-ply,Open,F
DQ,Sargam Chouhan,1997-06-15,MP,57,56.5,-125,-125,125,125,82.5,-87.5,-87.5,82.5,-135,-135,-135,,,SBD,Single-ply,Open,F
DQ,Sudha Kumari,1979-01-06,CCSCSB,57,57,-175,-187.5,-187.5,,95,102.5,105,105,,,,,,SBD,Single-ply,Open,F
DQ,Shubhangi Bante,2003-12-01,VID,57,53.9,75,-90,-90,75,-42.5,-42.5,-42.5,,90,-100,-100,90,,SBD,Single-ply,Open,F
DQ,V. Pavithra,2003-09-26,TEL,57,54.6,90,95,-97.5,95,-42.5,-42.5,-42.5,,100,107.5,-115,107.5,,SBD,Single-ply,Open,F
DQ,Anjula Nagle,1995-08-20,VID,57,55.5,70,90,-100,90,-42.5,-42.5,-42.5,,90,92.5,95,95,,SBD,Single-ply,Open,F
DQ,Pooja Singh,1990-04-04,GUJ,57,56,-110,-110,-110,,50,55,57.5,57.5,120,130,-135,130,,SBD,Single-ply,Open,F
1,Priya M,1996-07-12,TN,63,62.2,165,175,195,195,107.5,110,112.5,112.5,167.5,182.5,187.5,187.5,495,SBD,Single-ply,Open,F
2,Annu,1997-08-08,DEL,63,62.5,185,197.5,205,205,100,102.5,107.5,107.5,160,175,177.5,177.5,490,SBD,Single-ply,Open,F
3,Poonam,1990-08-20,RSPB,63,61.8,190,200,205,205,110,117.5,120,120,150,162.5,-170,162.5,487.5,SBD,Single-ply,Open,F
4,Manju Rani,1999-12-27,HAR,63,60.5,185,,,185,90,-95,-100,90,-180,180,-190,180,455,SBD,Single-ply,Open,F
5,Saloni More,2000-06-26,MAH,63,61.45,160,175,195,195,70,77.5,80,80,150,160,-167.5,160,435,SBD,Single-ply,Open,F
6,Manjusha S,1982-03-22,KER,63,62.45,-175,175,-185,175,95,105,-110,105,140,150,-157.5,150,430,SBD,Single-ply,Open,F
7,Aishwarya K,1992-12-21,KAR,63,63,140,150,-155,150,-87.5,95,-100,95,170,175,185,185,430,SBD,Single-ply,Open,F
8,Priya Ganpat Kandalkar,1984-12-16,MAH,63,62,145,152.5,-162.5,152.5,85,92.5,-97.5,92.5,135,145,-150,145,390,SBD,Single-ply,Open,F
9,Navya Prasad,2001-11-14,KER,63,61.8,140,-150,-152.5,140,60,72.5,-77.5,72.5,122.5,135,-142.5,135,347.5,SBD,Single-ply,Open,F
10,Bhaswati Chakraborty,1993-07-09,ASA,63,62.1,125,130,142.5,142.5,70,77.5,-82.5,77.5,125,-145,-145,125,345,SBD,Single-ply,Open,F
11,C.H. Akhila,2005-04-01,TEL,63,61.5,110,117.5,122.5,122.5,45,-47.5,-47.5,45,115,122.5,-130,122.5,290,SBD,Single-ply,Open,F
12,Sima Dutta Chatterjee,1977-12-31,WB,63,61.3,-110,-110,110,110,60,-65,-65,60,112.5,117.5,-122.5,117.5,287.5,SBD,Single-ply,Open,F
13,Shalini Rani,1995-04-05,PUN,63,61,95,-105,107.5,107.5,45,-50,-50,45,90,100,107.5,107.5,260,SBD,Single-ply,Open,F
14,Malika Taneja,1987-10-18,CCSCSB,63,61.45,95,100,-105,100,45,-47.5,47.5,47.5,90,100,110,110,257.5,SBD,Single-ply,Open,F
DQ,Ritu Kumari,1996-08-18,TEL,63,61.25,,,,,,,,,,,,,,SBD,Single-ply,Open,F
DQ,Vidya Shiras,1979-06-17,CCSCSB,63,61.9,-145,-145,-155,,55,60,-62.5,60,140,150,,150,,SBD,Single-ply,Open,F
1,I Rekha,1988-09-19,TEL,72,69.55,220,240,-245,240,90,97.5,-102.5,97.5,200,212.5,217.5,217.5,555,SBD,Single-ply,Open,F
2,Priya Darshini Bisoi,1997-09-25,RSPB,72,70.05,190,202.5,212.5,212.5,105,115,120,120,175,182.5,187.5,187.5,520,SBD,Single-ply,Open,F
3,Akshaya Shedge,1995-05-13,MAH,72,67.75,187.5,200,210,210,90,92.5,97.5,97.5,172.5,-185,185,185,492.5,SBD,Single-ply,Open,F
4,Sana Malagi,1994-04-03,KAR,72,71.3,190,200,207.5,207.5,95,100,-105,100,-172.5,180,185,185,492.5,SBD,Single-ply,Open,F
5,S. Dwaraka,2001-03-13,AP,72,70.1,160,175,187.5,187.5,70,85,-92.5,85,170,182.5,190,190,462.5,SBD,Single-ply,Open,F
6,Taniya Maru,1998-08-12,RAJ,72,68.65,160,-175,175,175,80,92.5,-97.5,92.5,130,137.5,155,155,422.5,SBD,Single-ply,Open,F
7,Kadheeja Begam,1991-08-14,TN,72,69.9,-160,160,-170,160,85,90,95,95,160,165,,165,420,SBD,Single-ply,Open,F
8,Ajeesha A,2000-10-31,KER,72,70.9,-150,160,175,175,75,82.5,87.5,87.5,132.5,147.5,152.5,152.5,415,SBD,Single-ply,Open,F
9,Bina Verma,1999-11-02,ASA,72,67.3,160,-175,-175,160,80,-85,-85,80,135,145,-150,145,385,SBD,Single-ply,Open,F
10,Sakshi Poonia,1996-07-11,UP,72,69,132.5,145,152.5,152.5,57.5,-65,-65,57.5,125,140,-147.5,140,350,SBD,Single-ply,Open,F
11,Rakhi Wankhede,1995-08-12,VID,72,68.7,110,120,-130,120,47.5,-50,50,50,130,140,150,150,320,SBD,Single-ply,Open,F
12,Anju Singh,1977-06-15,CHT,72,70.95,125,-135,-150,125,50,-60,-60,50,125,135,-140,135,310,SBD,Single-ply,Open,F
13,Nandwani Salonidevi,1990-09-15,GUJ,72,70.7,-100,-100,100,100,50,57.5,-62.5,57.5,100,110,117.5,117.5,275,SBD,Single-ply,Open,F
DQ,Seema Pradhan,1976-09-14,SIK,72,65.7,-100,-100,-100,,-47.5,-47.5,-47.5,,,,,,,SBD,Single-ply,Open,F
DQ,S Chandrakala,1992-12-08,AP,72,70.3,180,190,200,200,90,100,105,105,-185,-185,-185,,,SBD,Single-ply,Open,F
DQ,Bithika Mondal,1992-12-09,WB,72,70.55,-185,-185,-185,,,,,,,,,,,SBD,Single-ply,Open,F
DQ,Rashmi,1998-10-15,HAR,72,71.7,,,,,,,,,,,,,,SBD,Single-ply,Open,F
1,Zeba Akhtiyar,1993-10-09,RSPB,84,83.9,220,235,245,245,142.5,150,152.5,152.5,150,165,175,175,572.5,SBD,Single-ply,Open,F
2,Sumanpreet Kaur,1997-09-24,PUN,84,83.5,210,-222.5,-225,210,115,125,-132.5,125,180,195,203,203,538,SBD,Single-ply,Open,F
3,Vummualla Mallika Yadav,1994-10-14,TEL,84,79.9,185,195,-205,195,82.5,92.5,102,102,180,190,-195,190,487,SBD,Single-ply,Open,F
4,Pratheeksha G. Naik,2000-05-31,KAR,84,83,-185,-195,205,205,82.5,90,95,95,-160,-165,165,165,465,SBD,Single-ply,Open,F
5,Reshma R,1997-08-02,TN,84,82.5,180,-190,-195,180,82.5,90,92.5,92.5,180,190,-195,190,462.5,SBD,Single-ply,Open,F
6,Anuja D. Sawant,1999-08-06,MAH,84,83,175,185,190,190,120,-130,130,130,135,142.5,-147.5,142.5,462.5,SBD,Single-ply,Open,F
7,Isha Sing,1993-12-13,MP,84,80.2,185,195,-200,195,62.5,67.5,70,70,155,165,-185,165,430,SBD,Single-ply,Open,F
8,Alivia Halder,1996-11-18,WB,84,83,135,-150,-150,135,52.5,57.5,60,60,120,132.5,-140,132.5,327.5,SBD,Single-ply,Open,F
9,D. Aparna,2001-08-23,AP,84,78.2,120,132.5,145,145,50,57.5,-60,57.5,120,-125,-130,120,322.5,SBD,Single-ply,Open,F
10,Asha Kumari,2004-01-13,HAR,84,78,110,120,-135,120,50,55,-60,55,125,135,-140,135,310,SBD,Single-ply,Open,F
11,Laxmi Singh Urwasha,1991-11-30,CHT,84,74.4,100,-105,-105,100,-45,45,,45,100,115,-125,115,260,SBD,Single-ply,Open,F
DQ,Yumkham Hema Devi,1976-03-01,MAN,84,84,-100,,,,,,,,,,,,,SBD,Single-ply,Open,F
1,Simranpreet Kaur Brar,1996-05-22,RSPB,84+,129.3,265,281,300,300,140,151,160,160,170,177.5,-190,177.5,637.5,SBD,Single-ply,Open,F
2,Anusha Donkena,1995-04-13,AP,84+,110.4,242.5,257.5,270,270,127.5,137.5,142.5,142.5,172.5,187.5,-195,187.5,600,SBD,Single-ply,Open,F
3,Sharmila De,1990-10-17,WB,84+,115.3,240,252.5,260,260,135,140,145,145,155,165,-170,165,570,SBD,Single-ply,Open,F
4,Preeti,1998-04-01,HAR,84+,84.9,220,-232.5,232.5,232.5,82.5,90,-95,90,210,-218,-218,210,532.5,SBD,Single-ply,Open,F
5,Pratiksha Pradeep Salvi,1997-07-11,MAH,84+,84.3,-200,200,-220,200,100,-110,-110,100,170,177.5,-187.5,177.5,477.5,SBD,Single-ply,Open,F
6,Vandhana Shaji,1997-03-05,KER,84+,93.9,170,200,-220,200,70,85,95,95,150,172.5,,172.5,467.5,SBD,Single-ply,Open,F
7,Prathiksha,1998-09-11,KAR,84+,107,185,200,-210,200,95,105,112.5,112.5,145,155,-160,155,467.5,SBD,Single-ply,Open,F
8,Menaka V,2000-04-18,TN,84+,85,185,195,200,200,-95,95,-100,95,140,-152.5,-152.5,140,435,SBD,Single-ply,Open,F
9,Ashwini M,1995-07-22,TN,84+,93.5,-155,-170,170,170,82.5,95,-102.5,95,135,142.5,-147.5,142.5,407.5,SBD,Single-ply,Open,F
10,D. Bhavika,2000-02-02,CHT,84+,94.4,140,160,-180,160,60,75,-82.5,75,120,132.5,,132.5,367.5,SBD,Single-ply,Open,F
DQ,Takhelmayum Lena Devi,1969-01-01,MAN,84+,88.3,-90,-90,,,,,,,,,,,,SBD,Single-ply,Open,F
DQ,V. Smrithi,2001-06-25,TEL,84+,94.7,-120,-125,-125,,,,,,,,,,,SBD,Single-ply,Open,F
DQ,Shreya Bordwekar,1998-01-28,MAH,84+,125.9,-215,-220,-220,,105,-127.5,,105,185,195,202.5,202.5,,SBD,Single-ply,Open,F
1,Puthiyandi Suresh Purayil Suresh,1981-05-27,RSPB,59,58.85,255,260,270,270,165,170,175,175,205,-210,-210,205,650,SBD,Single-ply,Open,M
2,Kannan Vijayan,1994-11-08,GUJ,59,58.55,250,-265,265,265,130,140,150,150,215,-230,-235,215,630,SBD,Single-ply,Open,M
3,Dharmendra Yadav,1993-10-01,MAH,59,59,230,242.5,-247.5,242.5,150,-157.5,157.5,157.5,215,-225,225,225,625,SBD,Single-ply,Open,M
4,Adarsh Attavar,2000-05-04,KAR,59,58.6,225,240,-250,240,-110,115,122.5,122.5,230,240,247.5,247.5,610,SBD,Single-ply,Open,M
5,M. Vijay,1994-11-10,TN,59,57.3,225,232.5,245,245,-150,150,-155,150,200,212.5,-220,212.5,607.5,SBD,Single-ply,Open,M
6,Rajesh Shukrvare,1983-10-05,CCSCSB,59,58,227.5,237.5,242.5,242.5,137.5,142.5,-145,142.5,-202.5,202.5,-212.5,202.5,587.5,SBD,Single-ply,Open,M
7,Abin B,1998-04-23,KER,59,59,210,220,-225,220,110,122.5,130,130,200,212.5,222.5,222.5,572.5,SBD,Single-ply,Open,M
8,Yadam Satish,1995-08-09,AP,59,58.95,-190,190,217.5,217.5,130,137.5,140,140,200,-215,-215,200,557.5,SBD,Single-ply,Open,M
9,Dhruv Raj Kure,2002-06-02,MP,59,57.75,180,190,-200,190,105,110,115,115,-212.5,212.5,220,220,525,SBD,Single-ply,Open,M
10,G Varun Sai,2000-12-19,TEL,59,57.2,-160,160,-170,160,80,87.5,92.5,92.5,160,175,-185,175,427.5,SBD,Single-ply,Open,M
11,S. V. Shaji,1974-02-09,OFSPB,59,59,130,,,130,80,,,80,130,,,130,340,SBD,Single-ply,Open,M
DQ,Kamal,2003-01-01,HAR,59,57.15,-130,,,,,,,,,,,,,SBD,Single-ply,Open,M
DQ,Protosh L,1999-12-05,PUD,59,58.5,-160,160,-172.5,160,-80,-80,-80,,,,,,,SBD,Single-ply,Open,M
DQ,Kapil Sharma,2003-03-05,HAR,59,58.7,-130,,,,,,,,,,,,,SBD,Single-ply,Open,M
DQ,Farooqui Mohammad Azharuddin Fakhruddin,1988-12-03,VID,59,58.8,-130,-130,-130,,,,,,,,,,,SBD,Single-ply,Open,M
1,Sahil Utekar,1996-10-27,MAH,66,65.1,267.5,277.5,282.5,282.5,145,155,157.5,157.5,245,252.5,-262.5,252.5,692.5,SBD,Single-ply,Open,M
2,Sheik Mohammed Ali,1999-10-07,TN,66,65.25,-240,240,-247.5,240,157.5,-165,165,165,255,-265,-265,255,660,SBD,Single-ply,Open,M
3,Himanshu Khokhawat,1995-10-19,RAJ,66,64.6,-255,-255,255,255,-130,-130,130,130,-240,242.5,245,245,630,SBD,Single-ply,Open,M
4,S. Viswanathan,1995-04-07,RSPB,66,65.5,235,247.5,-255,247.5,135,142.5,145,145,230,237.5,-242.5,237.5,630,SBD,Single-ply,Open,M
5,S Krupa Rao,1998-04-29,AP,66,65.5,220,240,245,245,100,-110,110,110,-245,245,-277.5,245,600,SBD,Single-ply,Open,M
6,Dhruv Naik,1994-12-05,MP,66,65.95,220,-230,-235,220,-140,140,-145,140,235,-245,-247.5,235,595,SBD,Single-ply,Open,M
7,Jatin Rana,1997-11-27,CHN,66,64.4,-225,232.5,-237.5,232.5,125,-130,-130,125,200,210,217.5,217.5,575,SBD,Single-ply,Open,M
8,Vishnu Shajan,2000-10-03,KER,66,65.45,-200,200,230,230,125,137.5,-142.5,137.5,180,195,-202.5,195,562.5,SBD,Single-ply,Open,M
9,Pavar Deepak,1998-09-08,GUJ,66,66,-140,140,150,150,100,115,117.5,117.5,160,180,190,190,457.5,SBD,Single-ply,Open,M
10,Saddik Shaikh,1991-05-27,Goa,66,65.35,140,-170,170,170,85,-92.5,-92.5,85,140,170,-190,170,425,SBD,Single-ply,Open,M
11,Tekkali Uma Maheswararao,1979-03-04,OFSPB,66,66,-155,155,,155,115,,,115,155,,,155,425,SBD,Single-ply,Open,M
DQ,Manish Gupta,1990-11-05,UP,66,61.1,225,227.5,-242.5,227.5,-160,-160,160,160,-210,-220,-220,,,SBD,Single-ply,Open,M
DQ,Sasikumar R,2000-05-07,PUD,66,65.1,190,192.5,207.5,207.5,85,-92.5,-92.5,85,-200,-200,-200,,,SBD,Single-ply,Open,M
DQ,Nehal Komarpant,1998-11-20,Goa,66,65.9,140,160,-200,160,-85,-85,-85,,,,,,,SBD,Single-ply,Open,M
DQ,Perumal K,2001-09-29,PUD,66,65.6,150,-165,175,175,-85,-85,,,160,-175,-175,160,,SBD,Single-ply,Open,M
1,Sunil Konewadkar,1993-08-05,MAH,74,74,-275,290,315,315,165,170,175,175,265,272.5,-277.5,272.5,762.5,SBD,Single-ply,Open,M
2,Prabhu B,1998-07-18,TN,74,73.45,295,305,-315,305,155,162.5,170,170,252.5,265,-275,265,740,SBD,Single-ply,Open,M
3,Shailendra Sewathiya,1995-02-02,MP,74,73.25,272.5,-285,285,285,162.5,170,175,175,252.5,262.5,-275,262.5,722.5,SBD,Single-ply,Open,M
4,M Ranjith,1994-07-06,RSPB,74,73.75,265,-272.5,,265,170,177.5,182.5,182.5,255,267.5,-277.5,267.5,715,SBD,Single-ply,Open,M
5,Monti More,1994-02-25,GUJ,74,73.3,-270,270,-290,270,165,-175,177.5,177.5,250,265,-277.5,265,712.5,SBD,Single-ply,Open,M
6,Jayapratap S,1996-08-27,TN,74,73.4,270,280,-290,280,145,157.5,167.5,167.5,240,260,-277.5,260,707.5,SBD,Single-ply,Open,M
7,Arji Balakrishna,1995-10-20,AP,74,73.4,265,272.5,280,280,160,-162.5,162.5,162.5,235,-245,-245,235,677.5,SBD,Single-ply,Open,M
8,Salim M,1993-03-24,KAR,74,73.55,-265,265,275,275,130,140,-145,140,250,-260,-260,250,665,SBD,Single-ply,Open,M
9,Sourav Chakraborty,1996-03-31,WB,74,72.5,-220,220,230,230,150,157.5,160,160,220,-235,-235,220,610,SBD,Single-ply,Open,M
10,Pugazharasan K,1996-05-19,PUD,74,71.45,210,225,240,240,100,107.5,112.5,112.5,215,225,,225,577.5,SBD,Single-ply,Open,M
11,Arpan Kothare,1990-11-26,VID,74,72.4,-230,-230,230,230,120,-150,-150,120,200,215,-217.5,215,565,SBD,Single-ply,Open,M
12,P. Sai Ram,1993-09-05,TEL,74,73.15,200,215,-225,215,100,110,115,115,230,-240,-240,230,560,SBD,Single-ply,Open,M
13,Karanveer Singh,1997-03-07,CHN,74,72.25,200,-205,205,205,105,110,-122.5,110,220,-230,-230,220,535,SBD,Single-ply,Open,M
14,Anil Kumar,1986-11-01,CCSCSB,74,72.1,240,-252.5,-252.5,240,-142.5,142.5,,142.5,140,,,140,522.5,SBD,Single-ply,Open,M
15,Tej Badhur Darjee,1995-06-30,SIK,74,73.3,170,185,190,190,110,120,130,130,190,-200,200,200,520,SBD,Single-ply,Open,M
16,M. Shrenik,1996-08-29,TEL,74,69.25,-200,200,-222.5,200,90,-102.5,-105,90,200,212.5,-225,212.5,502.5,SBD,Single-ply,Open,M
17,Sheshnarayan Sahu,1997-09-17,CHT,74,68.2,160,170,-180,170,70,75,-80,75,190,192.5,-200,192.5,437.5,SBD,Single-ply,Open,M
18,Devwrath Mapari,1996-05-19,Goa,74,73.35,-145,145,-160,145,90,-95,-100,90,145,170,200,200,435,SBD,Single-ply,Open,M
19,Pambhar Kalpesh,1994-09-01,GUJ,74,70.65,-145,-145,145,145,90,100,107.5,107.5,170,-195,-195,170,422.5,SBD,Single-ply,Open,M
DQ,Lalit Kumar,1990-10-07,JK,74,69.9,-145,-145,-145,,,,,,,,,,,SBD,Single-ply,Open,M
DQ,S. Tandelu,1976-12-28,OFSPB,74,72.25,200,,,200,-180,-180,-185,,,,,,,SBD,Single-ply,Open,M
DQ,Bharat Bhushan Tiwari,1990-05-21,UP,74,73.15,270,-280,280,280,165,-170,-170,165,-250,-250,-250,,,SBD,Single-ply,Open,M
DQ,Aman Pradeep Singh,1998-08-11,MAH,74,73.35,-270,-270,-270,,,,,,,,,,,SBD,Single-ply,Open,M
DQ,Dharmendra Yadav,1998-03-30,UP,74,73.4,240,250,260,260,170,182.5,187.5,187.5,-200,-200,-200,,,SBD,Single-ply,Open,M
DQ,Shivam,1996-11-08,BIH,74,73.5,-255,-255,-255,,170,-177.5,-180,170,,,,,,SBD,Single-ply,Open,M
DQ,Bajrang,1986-06-07,HAR,74,73.65,-270,-270,-270,,,,,,,,,,,SBD,Single-ply,Open,M
1,C. Arivalagan,1995-09-26,RSPB,83,82.75,335,355,367.5,367.5,152.5,160,165,165,270,280,287.5,287.5,820,SBD,Single-ply,Open,M
2,Pradeep Kumar,1988-04-05,KAR,83,82.8,285,302.5,312.5,312.5,207.5,215,220,220,260,267.5,275,275,807.5,SBD,Single-ply,Open,M
3,Nilesh Garate,1991-05-12,MAH,83,81.8,-307.5,307.5,-322.5,307.5,205,220,-225,220,257.5,270,-272.5,270,797.5,SBD,Single-ply,Open,M
4,K. Thiyagaraj,1994-05-25,TN,83,82.1,290,310,320,320,155,165,-170,165,290,305,-315,305,790,SBD,Single-ply,Open,M
5,Ansu Singh,1992-05-07,WB,83,81.3,312.5,320,327.5,327.5,155,162.5,-165,162.5,290,-300,-300,290,780,SBD,Single-ply,Open,M
6,Dilshad Hussain,1996-10-04,UTK,83,82.2,280,295,-305,295,155,165,172.5,172.5,290,307.5,-332.5,307.5,775,SBD,Single-ply,Open,M
7,Aditya Paliwal,1990-01-01,DEL,83,81.75,-285,285,300,300,200,215,222.5,222.5,240,-250,-250,240,762.5,SBD,Single-ply,Open,M
8,Kuldip Gurjar,1994-11-06,UP,83,82.5,295,305,-315,305,135,140,-145,140,240,255,-265,255,700,SBD,Single-ply,Open,M
9,G. Ramesh,1993-12-19,TEL,83,81.25,-265,275,-290,275,150,157.5,-165,157.5,260,-282.5,-292.5,260,692.5,SBD,Single-ply,Open,M
10,Bhavesh Barve,1994-02-04,MP,83,81.75,260,272.5,-282.5,272.5,-130,130,150,150,247.5,-257.5,257.5,257.5,680,SBD,Single-ply,Open,M
11,Varun Varun,1997-05-02,CHN,83,82.45,240,255,-265,255,150,160,-167.5,160,225,235,240,240,655,SBD,Single-ply,Open,M
12,B. Anil Kumar,2000-03-22,AP,83,81.35,230,240,250,250,130,142.5,152.5,152.5,220,237.5,242.5,242.5,645,SBD,Single-ply,Open,M
13,Vishal Gadge,1999-01-01,MP,83,82.35,-230,230,-250,230,162.5,-172.5,172.5,172.5,-190,230,-245,230,632.5,SBD,Single-ply,Open,M
14,Swapnil Likhitkar,1989-09-09,VID,83,81.7,210,220,-230,220,100,107.5,,107.5,230,-250,250,250,577.5,SBD,Single-ply,Open,M
15,Ubaid Ur Rehman,1993-01-14,JK,83,82,-180,-180,180,180,-130,130,137.5,137.5,170,185,200,200,517.5,SBD,Single-ply,Open,M
16,Qureshi Sheikh Shoab Sheikh Munaf,1999-07-26,VID,83,74.7,160,175,-185,175,92.5,95,97.5,97.5,160,180,185,185,457.5,SBD,Single-ply,Open,M
17,V. R. Srikumar,1968-02-13,OFSPB,83,80.55,150,,,150,100,,,100,150,,,150,400,SBD,Single-ply,Open,M
DQ,Kuldeep Singh,1990-03-03,DEL,83,81.1,-285,-300,-300,,-170,,,,,,,,,SBD,Single-ply,Open,M
DQ,Sahil Sahil,1995-05-03,CHN,83,81.75,245,260,-270,260,140,-150,-150,140,-225,-225,-225,,,SBD,Single-ply,Open,M
DQ,Prohit Naik,1995-08-17,Goa,83,81.95,-150,-150,-150,,,,,,,,,,,SBD,Single-ply,Open,M
DQ,Sunil Deshwal,2003-09-21,HAR,83,82.15,310,-317.5,-317.5,310,185,195,-200,195,-260,-275,-275,,,SBD,Single-ply,Open,M
1,Vishwanath B,1991-09-01,KAR,93,84.4,295,317.5,327.5,327.5,170,175,180,180,320,-336,-336,320,827.5,SBD,Single-ply,Open,M
2,Akash Binu,1997-09-16,KER,93,93,325,335,345,345,-182.5,182.5,-185,182.5,282.5,292.5,-302.5,292.5,820,SBD,Single-ply,Open,M
3,Vikas Chauhan,1995-07-07,UP,93,93,322.5,335,-350,335,177.5,187.5,195,195,265,275,285,285,815,SBD,Single-ply,Open,M
4,Vimal Raj V,1986-05-08,RSPB,93,87.55,310,325,332.5,332.5,150,162.5,172.5,172.5,280,290,-310,290,795,SBD,Single-ply,Open,M
5,C. Mohan Kumar,1996-05-26,CHT,93,92.4,307.5,-312.5,312.5,312.5,185,-190,-190,185,290,-305,-317.5,290,787.5,SBD,Single-ply,Open,M
6,Vincent P. G,1985-03-08,KER,93,91.7,315,330,340,340,-160,160,170,170,260,275,-280,275,785,SBD,Single-ply,Open,M
7,Ananth S. Bhat,1996-07-10,KAR,93,91.8,-315,315,-325,315,-185,185,190,190,260,272.5,-277.5,272.5,777.5,SBD,Single-ply,Open,M
8,Parminder Singh,1992-03-02,UTK,93,86.8,290,-300,-310,290,165,175,-182.5,175,275,285,-290,285,750,SBD,Single-ply,Open,M
9,Vaibhav Sanwal,2001-08-30,UTK,93,87.9,275,290,300,300,-150,-165,165,165,240,260,-265,260,725,SBD,Single-ply,Open,M
10,Chandan Singh Choudhary,1986-01-17,MP,93,85.9,275,287.5,-300,287.5,170,180,-192.5,180,240,252.5,-260,252.5,720,SBD,Single-ply,Open,M
11,Gyan Prakash Kumawat,1996-07-03,RAJ,93,90.3,260,280,-292.5,280,140,147.5,155,155,270,-290,-305,270,705,SBD,Single-ply,Open,M
12,Samir Dalvi,1979-11-29,MAH,93,92.9,-275,275,-300,275,180,192.5,-200,192.5,235,-245,,235,702.5,SBD,Single-ply,Open,M
13,B. Harish Kumar,1997-06-12,AP,93,93,277.5,-300,-305,277.5,142.5,152.5,157.5,157.5,250,265,267.5,267.5,702.5,SBD,Single-ply,Open,M
14,Adil Ashraf Khan,1988-03-04,JK,93,92.3,250,,,250,200,-207.5,-207.5,200,230,240,-250,240,690,SBD,Single-ply,Open,M
15,Shaik Aleem,1999-04-05,TEL,93,92,265,277.5,-292.5,277.5,125,132.5,-137.5,132.5,225,240,250,250,660,SBD,Single-ply,Open,M
16,Lalit Rai,1990-11-03,SIK,93,93,200,220,-230,220,150,155,160,160,220,235,250,250,630,SBD,Single-ply,Open,M
17,Sanjay Kumar,2000-04-04,PUN,93,85.7,220,232.5,-247.5,232.5,140,147.5,152.5,152.5,240,-257.5,-257.5,240,625,SBD,Single-ply,Open,M
18,Amit Kumar,1991-02-02,GUJ,93,92.55,170,190,-200,190,130,135,142.5,142.5,260,275,290,290,622.5,SBD,Single-ply,Open,M
19,V. Nitish,1990-04-08,TEL,93,83.3,230,245,-260,245,130,-145,-145,130,200,220,235,235,610,SBD,Single-ply,Open,M
20,Mahesh Chile,1986-01-14,OFSPB,93,88.3,210,,,210,100,,,100,180,,,180,490,SBD,Single-ply,Open,M
21,Rajshekhar Mandrekar,2000-01-10,Goa,93,87.4,155,-165,,155,92.5,-95,-95,92.5,150,190,-200,190,437.5,SBD,Single-ply,Open,M
DQ,Kamayanee Kumar Singh,1976-05-02,JHA,93,85.4,-235,-235,-235,,,,,,,,,,,SBD,Single-ply,Open,M
DQ,Vikas Usham,1998-01-13,MAN,93,85.6,170,-190,-190,170,-92.5,,,,,,,,,SBD,Single-ply,Open,M
DQ,Dhanesh Dessai,1997-07-25,Goa,93,85.75,-155,-155,-155,,,,,,,,,,,SBD,Single-ply,Open,M
DQ,Sameer Rohilla,1992-01-13,DEL,93,91.85,310,320,325,325,200,-207.5,-207.5,200,-280,-280,-282.5,,,SBD,Single-ply,Open,M
DQ,Alok Raj,1989-01-16,CCSCSB,93,92.4,-295,-295,-295,,-205,205,-207.5,205,,,,,,SBD,Single-ply,Open,M
1,Bhaskar Shah,1990-01-01,DEL,105,103.2,360,375,382.5,382.5,-282.5,282.5,290,290,270,282.5,-300,282.5,955,SBD,Single-ply,Open,M
2,Sandeep Singh,1988-07-10,RSPB,105,104,360,377.5,387.5,387.5,190,200,-207.5,200,310,327.5,-337,327.5,915,SBD,Single-ply,Open,M
3,Sumit Kumar,1990-03-02,RAJ,105,104,370,-385,-385,370,-220,220,225,225,285,-292.5,295,295,890,SBD,Single-ply,Open,M
4,Santhosh M,1995-02-17,TN,105,102.25,370,380,-392.5,380,-205,205,-210,205,-265,265,-295,265,850,SBD,Single-ply,Open,M
5,Suraj Kumar Singh,1993-06-15,KAR,105,99.8,325,-340,345,345,185,195,205,205,-275,-275,275,275,825,SBD,Single-ply,Open,M
6,Rahul Kumar,1995-04-20,UP,105,104.5,312.5,-332.5,332.5,332.5,-165,165,-180,165,290,-305,305,305,802.5,SBD,Single-ply,Open,M
7,Ajinkya Prakash Padvankar,1998-11-06,MAH,105,99.4,280,-300,300,300,200,210,-220,210,260,272.5,-277.5,272.5,782.5,SBD,Single-ply,Open,M
8,Hari Narayan Dubey,1986-09-18,UP,105,104.6,307.5,-320,320,320,180,185,192.5,192.5,260,-275,-287.5,260,772.5,SBD,Single-ply,Open,M
9,G. Sai Krishna,1995-12-24,AP,105,100.25,260,267.5,287.5,287.5,115,130,145,145,260,282.5,-290,282.5,715,SBD,Single-ply,Open,M
10,Jimmy Das,1978-05-24,KER,105,102.7,270,290,-310,290,160,-167.5,-170,160,-200,200,-210,200,650,SBD,Single-ply,Open,M
11,R. Uday Kiran,1992-10-15,TEL,105,97.2,245,260,-265,260,135,142.5,147.5,147.5,225,232.5,-240,232.5,640,SBD,Single-ply,Open,M
12,Avtarsigh Wadhwa,1978-04-28,GUJ,105,100.7,180,195,207.5,207.5,115,122.5,132.5,132.5,200,220,232.5,232.5,572.5,SBD,Single-ply,Open,M
13,Ram Nagina,1963-04-11,CHT,105,93.1,-210,210,-220,210,110,-135,135,135,170,180,,180,525,SBD,Single-ply,Open,M
14,Sunil Vaman Jadhav,1987-06-16,OFSPB,105,103.9,200,,,200,110,,,110,190,,,190,500,SBD,Single-ply,Open,M
15,Ranjit Sharma,1989-08-08,SIK,105,103.1,150,-170,-210,150,100,-110,110,110,155,170,-200,170,430,SBD,Single-ply,Open,M
DQ,Vikram Deep,1995-04-23,JK,105,100.7,280,,,280,-220,220,225,225,-230,-230,-230,,,SBD,Single-ply,Open,M
1,Angrej Singh,1983-10-10,RSPB,120,112.6,370,390,-406,390,225,235,245,245,305,325,340,340,975,SBD,Single-ply,Open,M
2,Roshan Lal Sharma,1987-04-06,JK,120,120,-360,-360,360,360,210,220,227.5,227.5,280,300,-310,300,887.5,SBD,Single-ply,Open,M
3,Amit Maurya,1993-11-15,UP,120,118.7,-375,375,-385,375,172.5,-182.5,-182.5,172.5,315,330,-340,330,877.5,SBD,Single-ply,Open,M
4,Asif Ali. B. S,1994-03-07,KER,120,119.9,-360,-360,360,360,230,240,247.5,247.5,270,-282.5,-287.5,270,877.5,SBD,Single-ply,Open,M
5,Pankaj Tyagi,1989-11-02,DEL,120,118.2,-330,340,-350,340,200,-210,210,210,-310,310,-327.5,310,860,SBD,Single-ply,Open,M
6,Vikas,1994-12-03,DEL,120,114.3,325,335,347.5,347.5,190,202.5,215,215,-275,285,-295,285,847.5,SBD,Single-ply,Open,M
7,Ankit Chouhan,1994-04-28,MP,120,114.5,340,355,-365,355,220,227.5,230,230,230,252.5,-272.5,252.5,837.5,SBD,Single-ply,Open,M
8,Deepak,1996-12-13,HAR,120,112.4,-320,330,-340,330,180,195,-210,195,240,255,-265,255,780,SBD,Single-ply,Open,M
9,Sanjaykumar T,2001-10-29,TN,120,118.15,-300,300,320,320,180,187.5,192.5,192.5,240,250,-257.5,250,762.5,SBD,Single-ply,Open,M
10,Y. Rajesh,1999-10-05,AP,120,118.7,250,280,307.5,307.5,130,145,155,155,210,237.5,-247.5,237.5,700,SBD,Single-ply,Open,M
11,Siddharth Saikia,1993-04-20,ASA,120,108.35,-277.5,277.5,-290,277.5,160,-167.5,-167.5,160,255,-262.5,-270,255,692.5,SBD,Single-ply,Open,M
12,Mohammad Salman,2001-05-16,UTK,120,120,235,250,265,265,-100,115,-125,115,-240,240,255,255,635,SBD,Single-ply,Open,M
13,Belim Javed,1993-12-16,GUJ,120,107.2,185,-205,-205,185,100,107.5,-110,107.5,200,230,-250,230,522.5,SBD,Single-ply,Open,M
14,Jayakarthik Appasamy,1989-05-26,OFSPB,120,108.2,150,,,150,90,,,90,150,,,150,390,SBD,Single-ply,Open,M
DQ,Manoj Joshi,1997-11-26,UTK,120,105.1,-350,-350,,,,,,,,,,,,SBD,Single-ply,Open,M
1,Amanpreet Singh,1986-02-24,RSPB,120+,159.1,405,425,435,435,240,260,272.5,272.5,300,325,345,345,1052.5,SBD,Single-ply,Open,M
2,Apoorv Dubey,1993-03-28,MP,120+,134.2,330,350,362.5,362.5,210,225,235,235,290,307.5,317.5,317.5,915,SBD,Single-ply,Open,M
3,Vickram Jeet Singh,1996-06-04,JK,120+,152.1,360,380,-400,380,240,-252.5,-252.5,240,270,285,295,295,915,SBD,Single-ply,Open,M
4,Abhishek B. Horkeri,1998-06-08,KAR,120+,156.7,340,-350,360,360,210,225,240,240,282.5,292.5,300,300,900,SBD,Single-ply,Open,M
5,P. Nishanth,2001-10-20,TN,120+,134.4,315,325,335,335,195,200,-205,200,290,297.5,-307.5,297.5,832.5,SBD,Single-ply,Open,M
6,Vijin Krishna V T,1995-06-20,KER,120+,137.9,340,-360,370,370,160,175,180,180,252.5,267.5,-280,267.5,817.5,SBD,Single-ply,Open,M
7,Shaik Saquib Basha,1996-08-29,AP,120+,142.2,290,310,-330,310,-200,200,207.5,207.5,270,-287.5,-292.5,270,787.5,SBD,Single-ply,Open,M
8,Sarath Kumar R,1975-03-10,KER,120+,120.1,277.5,290,-300,290,182.5,190,195,195,272.5,282.5,-297.5,282.5,767.5,SBD,Single-ply,Open,M
9,Amol Bhagwan Kaduskar,1985-07-01,MAH,120+,126.2,300,320,-330,320,180,192.5,202.5,202.5,230,245,-250,245,767.5,SBD,Single-ply,Open,M
10,Boska Jonathan,1995-10-14,TEL,120+,128.4,240,-255,-260,240,130,142.5,-150,142.5,190,200,-240,200,582.5,SBD,Single-ply,Open,M
11,Sarvesh Kauthanker,1992-10-09,Goa,120+,122.5,180,-200,200,200,170,-200,-200,170,180,-200,-200,180,550,SBD,Single-ply,Open,M
12,Harman Honey,2000-08-26,PUN,120+,132,-200,-200,200,200,90,97.5,102.5,102.5,170,185,-195,185,487.5,SBD,Single-ply,Open,M
DQ,Asif Ali Khan,1994-06-05,CHT,120+,139.1,-330,-342.5,-342.5,,-245,-245,,,-240,,,,,SBD,Single-ply,Open,M
