Division,WeightClassKg,Place,Name,Team,BodyweightKg,Best3SquatKg,Best3BenchKg,Best3DeadliftKg,TotalKg,Equipment,Event,Sex
Boys,55.79,1,Dylan Logan,Abilene Cooper,51.89,102.06,47.63,92.99,242.67,Single-ply,SBD,M
Boys,51.71,2,Fox Talamantes,Abilene,40.91,79.38,40.82,79.38,199.58,Single-ply,SBD,M
Boys,51.71,DQ,Austin Perkins,Abilene Cooper,47.67,90.72,,,,Single-ply,SBD,M
Boys,59.87,1,Jonathon Rodriguez,Abilene Cooper,56.02,136.08,79.38,154.22,369.68,Single-ply,SBD,M
Boys,55.79,2,Jonathan Michaels,Tuscola Jim Ned,53.52,127.01,86.18,136.08,349.27,Single-ply,SBD,M
Boys,55.79,3,Andrew Flores,Abilene,55.34,124.74,77.11,129.27,331.12,Single-ply,SBD,M
Boys,55.79,4,Ben Lantrip,Tuscola Jim Ned,55.7,115.67,65.77,145.15,326.59,Single-ply,SBD,M
Boys,55.79,5,Austyn Deal,Clyde,53.61,88.45,61.23,99.79,249.48,Single-ply,SBD,M
Boys,55.79,DQ,Nathan Browning,Sweetwater,54.98,95.25,,,,Single-ply,SBD,M
Boys,55.79,DQ,Colter Reed,Sweetwater,53.34,113.4,,,,Single-ply,SBD,M
Boys,59.87,1,Jay Lomas,Sweetwater,59.42,145.15,92.99,154.22,392.36,Single-ply,SBD,M
Boys,59.87,2,Christian Alexander,Tuscola Jim Ned,57.61,145.15,83.91,142.88,371.95,Single-ply,SBD,M
Boys,59.87,3,Jacob Cantu,Abilene Cooper,59.87,97.52,70.31,113.4,281.23,Single-ply,SBD,M
Boys,67.13,1,Elijah Revilla,Abilene Cooper,67.13,154.22,99.79,161.03,415.04,Single-ply,SBD,M
Boys,67.13,2,Matthew Fisher,Tuscola Jim Ned,66.41,142.88,92.99,163.29,399.16,Single-ply,SBD,M
Boys,67.13,3,Julio Calderon,Abilene Cooper,66.68,136.08,83.91,156.49,376.48,Single-ply,SBD,M
Boys,67.13,4,Zach Gil,Abilene Cooper,63.96,131.54,86.18,142.88,360.61,Single-ply,SBD,M
Boys,67.13,5,Kaden Clark,Clyde,60.96,149.69,65.77,136.08,351.53,Single-ply,SBD,M
Boys,67.13,6,Tristan Wegener,Anson,65.95,133.81,77.11,136.08,347,Single-ply,SBD,M
Boys,67.13,7,Dawson Wendt,Clyde,63.32,104.33,70.31,124.74,299.37,Single-ply,SBD,M
Boys,67.13,8,Tristan Crabb,Clyde,67.13,97.52,63.5,106.59,267.62,Single-ply,SBD,M
Boys,67.13,DQ,Gavin Hill,Anson,62.78,136.08,,,,Single-ply,SBD,M
Boys,67.13,DQ,Peyton Polston,Tuscola Jim Ned,62.69,142.88,,,,Single-ply,SBD,M
Boys,67.13,DQ,Joseph Donnelly,Hawley,64.68,136.08,,,,Single-ply,SBD,M
Boys,74.84,1,Kneeland Donnelly,Hawley,72.76,278.96,147.42,226.8,653.17,Single-ply,SBD,M
Boys,74.84,2,Dante Gomez,Clyde,71.21,210.92,113.4,197.31,521.63,Single-ply,SBD,M
Boys,82.1,3,Landon Leschper,Anson,75.02,185.97,127.01,190.51,503.49,Single-ply,SBD,M
Boys,74.84,4,Mark Robles,Abilene Cooper,71.94,181.44,111.13,195.04,487.61,Single-ply,SBD,M
Boys,74.84,5,Alex De La Rosa,Abilene Cooper,74.48,176.9,122.47,167.83,467.2,Single-ply,SBD,M
Boys,74.84,6,Jacob Hines,Abilene,68.13,176.9,97.52,181.44,455.86,Single-ply,SBD,M
Boys,74.84,7,Colten Honea,Tuscola Jim Ned,72.21,158.76,102.06,181.44,442.25,Single-ply,SBD,M
Boys,74.84,8,Christian Farrell,Hawley,69.22,188.24,90.72,158.76,437.72,Single-ply,SBD,M
Boys,74.84,9,Cody Lewis,Abilene,71.67,147.42,106.59,163.29,417.3,Single-ply,SBD,M
Boys,74.84,10,Joseph Rees,Tuscola Jim Ned,72.21,145.15,79.38,172.37,396.89,Single-ply,SBD,M
Boys,74.84,11,Tatum Viney,Clyde,71.85,140.61,83.91,149.69,374.21,Single-ply,SBD,M
Boys,74.84,12,Dustin Moore,Anson,68.13,138.35,90.72,142.88,371.95,Single-ply,SBD,M
Boys,74.84,13,Branson Guelker,Sweetwater,69.22,127.01,79.38,138.35,344.73,Single-ply,SBD,M
Boys,74.84,DQ,Stephen Le,Sweetwater,72.85,163.29,,,,Single-ply,SBD,M
Boys,74.84,DQ,Chander Smith,Tuscola Jim Ned,71.76,138.35,,,,Single-ply,SBD,M
Boys,82.1,1,Aric Ramzanali,Hawley,80.74,219.99,183.7,195.04,598.74,Single-ply,SBD,M
Boys,82.1,2,Juan Burns,Hawley,80.74,226.8,129.27,219.99,576.06,Single-ply,SBD,M
Boys,82.1,3,Austin Marlett,Sweetwater,79.11,195.04,117.93,204.12,517.1,Single-ply,SBD,M
Boys,89.81,4,Tyler Gil,Abilene Cooper,82.24,183.7,127.01,197.31,508.02,Single-ply,SBD,M
Boys,82.1,5,Daniel Salazar,Abilene,81.47,197.31,115.67,181.44,494.42,Single-ply,SBD,M
Boys,82.1,6,Austin Rain,Clyde,80.2,192.78,102.06,197.31,492.15,Single-ply,SBD,M
Boys,82.1,7,Morgan Smith #9,Tuscola Jim Ned,76.84,172.37,108.86,181.44,462.66,Single-ply,SBD,M
Boys,82.1,8,Junior Lawhan,Sweetwater,79.38,167.83,108.86,163.29,439.98,Single-ply,SBD,M
Boys,82.1,9,Austin Rogers,Clyde,77.84,147.42,77.11,158.76,383.29,Single-ply,SBD,M
Boys,82.1,10,Slade Little,Clyde,82.1,136.08,86.18,149.69,371.95,Single-ply,SBD,M
Boys,82.1,11,Flavio Padilla,Clyde,77.93,136.08,83.91,142.88,362.87,Single-ply,SBD,M
Boys,89.81,1,Jon Matthews,Tuscola Jim Ned,88.9,181.44,90.72,192.78,464.93,Single-ply,SBD,M
Boys,89.81,2,Zach Garcia,Sweetwater,84.1,172.37,113.4,174.63,460.4,Single-ply,SBD,M
Boys,89.81,3,Dylan Jimenez,Sweetwater,87.54,170.1,95.25,185.97,451.32,Single-ply,SBD,M
Boys,89.81,4,Chris Carlin,Abilene,87.5,165.56,92.99,183.7,442.25,Single-ply,SBD,M
Boys,89.81,5,Paul Lowe,Abilene Cooper,86.55,183.7,111.13,142.88,437.72,Single-ply,SBD,M
Boys,89.81,6,Caden Nall,Abilene Cooper,88.9,161.03,106.59,145.15,412.77,Single-ply,SBD,M
Boys,89.81,7,Hanson Slanton,Anson,86.27,140.61,92.99,167.83,401.43,Single-ply,SBD,M
Boys,89.81,8,Delgado Raymond,Sweetwater,88.45,147.42,95.25,149.69,392.36,Single-ply,SBD,M
Boys,89.81,9,Michael Martinez,Abilene,84.01,145.15,74.84,136.08,356.07,Single-ply,SBD,M
Boys,89.81,10,Pablo Garza,Anson,86.45,136.08,65.77,149.69,351.53,Single-ply,SBD,M
Boys,89.81,11,Casey Heatley,Clyde,84.01,131.54,79.38,124.74,335.66,Single-ply,SBD,M
Boys,89.81,12,Austin Borcik,Abilene,85.28,127.01,72.57,136.08,335.66,Single-ply,SBD,M
Boys,89.81,DQ,William Coleman,Abilene Cooper,88.36,190.51,,,,Single-ply,SBD,M
Boys,99.79,1,Lane Pickett,Hawley,91.81,247.21,131.54,226.8,605.55,Single-ply,SBD,M
Boys,99.79,2,Reagan Cooke,Abilene,96.62,231.33,136.08,197.31,564.72,Single-ply,SBD,M
Boys,99.79,3,Kyler Shy,Abilene Cooper,99.52,197.31,147.42,197.31,542.04,Single-ply,SBD,M
Boys,99.79,4,Damian Guevara,Abilene,95.8,215.46,136.08,181.44,532.97,Single-ply,SBD,M
Boys,99.79,5,Josh Hunter,Abilene,96.89,204.12,117.93,204.12,526.17,Single-ply,SBD,M
Boys,109.77,6,Jacob Vines,Abilene Cooper,100.02,188.24,104.33,172.37,464.93,Single-ply,SBD,M
Boys,99.79,7,Joe Robles,Abilene Cooper,90.99,183.7,102.06,158.76,444.52,Single-ply,SBD,M
Boys,99.79,8,Brent Alexander,Abilene Cooper,99.16,154.22,104.33,183.7,442.25,Single-ply,SBD,M
Boys,99.79,9,Jonathon Arrieta,Anson,96.89,174.63,83.91,181.44,439.98,Single-ply,SBD,M
Boys,99.79,10,Blake Parker,Abilene Cooper,93.44,158.76,115.67,147.42,421.84,Single-ply,SBD,M
Boys,99.79,11,Andrew Purdun,Anson,90.63,140.61,92.99,149.69,383.29,Single-ply,SBD,M
Boys,109.77,12,Juan Martinez,Abilene Cooper,100.02,142.88,74.84,142.88,360.61,Single-ply,SBD,M
Boys,99.79,DQ,Drew Cumpton,Anson,91.53,195.04,,,,Single-ply,SBD,M
Boys,99.79,DQ,Dj Davis,Hawley,93.17,215.46,124.74,,,Single-ply,SBD,M
Boys,109.77,1,Jordon Stokes,Clyde,100.15,226.8,167.83,249.48,644.1,Single-ply,SBD,M
Boys,109.77,2,Miguel Espinoza,Abilene,104.87,249.48,158.76,229.06,637.3,Single-ply,SBD,M
Boys,109.77,3,Haddan Stokes,Clyde,105.14,240.4,140.61,210.92,591.94,Single-ply,SBD,M
Boys,109.77,4,David Brown #14,Abilene,108.68,197.31,147.42,204.12,548.85,Single-ply,SBD,M
Boys,109.77,5,Cory Mendez,Sweetwater,100.97,204.12,95.25,204.12,503.49,Single-ply,SBD,M
Boys,109.77,6,Dawson Worgull,Abilene,107.95,192.78,111.13,195.04,498.95,Single-ply,SBD,M
Boys,109.77,7,Tanner Underwood,Tuscola Jim Ned,106.41,170.1,86.18,167.83,424.11,Single-ply,SBD,M
Boys,109.77,8,Carlos Gallegos,Sweetwater,108.05,151.95,95.25,172.37,419.57,Single-ply,SBD,M
Boys,109.77,9,Noah Perez,Abilene,106,145.15,102.06,127.01,374.21,Single-ply,SBD,M
Boys,109.77,10,Jayton Voss,Abilene,105.73,145.15,70.31,113.4,328.85,Single-ply,SBD,M
Boys,124.74,1,Oscar Valdez,Clyde,110.77,249.48,158.76,238.14,646.37,Single-ply,SBD,M
Boys,124.74,2,Brock Thetford,Abilene,117.98,244.94,149.69,204.12,598.74,Single-ply,SBD,M
Boys,124.74,3,Andrew Davis #4,Sweetwater,124.19,181.44,149.69,204.12,535.24,Single-ply,SBD,M
Boys,124.74,4,Darren Jones,Abilene Cooper,110.59,199.58,117.93,190.51,508.02,Single-ply,SBD,M
Boys,124.74,5,Tony Silva,Abilene,116.48,210.92,120.2,170.1,501.22,Single-ply,SBD,M
Boys,124.74,6,Brycen Homer,Abilene,111.13,190.51,115.67,185.97,492.15,Single-ply,SBD,M
Boys,124.74,7,Slayde Anderson,Abilene,112.08,174.63,106.59,181.44,462.66,Single-ply,SBD,M
Boys,124.74,8,Walker Akers,Abilene Cooper,111.04,185.97,97.52,176.9,460.4,Single-ply,SBD,M
Boys,124.74,9,Ruben Leija,Abilene,121.02,165.56,102.06,181.44,449.06,Single-ply,SBD,M
Boys,124.74,10,Taylor McLeod,Abilene Cooper,112.49,158.76,113.4,158.76,430.91,Single-ply,SBD,M
Boys,124.74,11,Frankie Ortega,Sweetwater,121.93,151.95,68.04,142.88,362.87,Single-ply,SBD,M
Boys,124.74+,1,Conner Willis,Tuscola Jim Ned,132.81,238.14,142.88,231.33,612.35,Single-ply,SBD,M
Boys,124.74+,2,Ryan Burns,Hawley,141.7,238.14,158.76,215.46,612.35,Single-ply,SBD,M
Boys,124.74+,3,Jesus Verastegui,Abilene,145.78,231.33,129.27,204.12,564.72,Single-ply,SBD,M
Boys,124.74+,4,Arnaldo Gjocaj,Abilene Cooper,125.65,181.44,102.06,158.76,442.25,Single-ply,SBD,M
Boys,124.74+,DQ,Hunter Hawkins,Abilene Cooper,130.36,226.8,124.74,,,Single-ply,SBD,M
