Division,WeightClassKg,Place,Name,Team,BodyweightKg,Best3SquatKg,Best3BenchKg,Best3DeadliftKg,TotalKg,Equipment,Event,Sex
Boys,55.79,1,Tristan Butler,Bandera,51.94,104.33,56.7,111.13,272.16,Single-ply,SBD,M
Boys,51.71,2,Justan Griggs,Castroville Medina Valley,44.77,79.38,47.63,95.25,222.26,Single-ply,SBD,M
Boys,59.87,1,Kade Lopez,San Antonio Southside,59.24,161.03,97.52,165.56,424.11,Single-ply,SBD,M
Boys,59.87,2,Phil Alvarado,Blanco,56.97,156.49,102.06,163.29,421.84,Single-ply,SBD,M
Boys,59.87,3,Eddie Torres,Blanco,58.56,145.15,97.52,172.37,415.04,Single-ply,SBD,M
Boys,59.87,4,Jacob Esquivel,Seguin,59.38,149.69,90.72,156.49,396.89,Single-ply,SBD,M
Boys,59.87,DQ,Darren Graham,San Antonio Holy Cross,56.65,115.67,,97.52,,Single-ply,SBD,M
Boys,59.87,DQ,Luis Galaviz,San Antonio Kennedy,57.06,,,,,Single-ply,SBD,M
Boys,67.13,1,Jose Flores #3,San Antonio Kennedy,66.45,167.83,111.13,201.85,480.81,Single-ply,SBD,M
Boys,67.13,2,Juan Medina,Floresville,66.45,183.7,108.86,183.7,476.27,Single-ply,SBD,M
Boys,74.84,3,Calvin Starnes,Bandera,67.27,170.1,95.25,185.97,451.32,Single-ply,SBD,M
Boys,67.13,4,David Montealvo,Seguin,62.01,149.69,90.72,170.1,410.5,Single-ply,SBD,M
Boys,67.13,5,Storm Brown,Floresville,64.46,140.61,99.79,161.03,401.43,Single-ply,SBD,M
Boys,67.13,6,Adrian Dominquez,Blanco,65.45,147.42,99.79,151.95,399.16,Single-ply,SBD,M
Boys,67.13,7,Effrain Botello,Castroville Medina Valley,62.14,138.35,83.91,156.49,378.75,Single-ply,SBD,M
Boys,67.13,8,Dylan Tesch,Blanco,60.69,133.81,81.65,149.69,365.14,Single-ply,SBD,M
Boys,67.13,9,Tristan Watson,Bandera,61.92,127.01,79.38,145.15,351.53,Single-ply,SBD,M
Boys,67.13,10,Jacob Ruiz,Blanco,60.65,122.47,77.11,131.54,331.12,Single-ply,SBD,M
Boys,67.13,11,Arturo Rodriguez,San Antonio Kennedy,65.73,104.33,74.84,136.08,315.25,Single-ply,SBD,M
Boys,67.13,12,Zach Markgraf,Bandera,61.14,104.33,52.16,120.2,276.69,Single-ply,SBD,M
Boys,74.84,1,Alex Diaz #3,San Antonio Southside,73.94,222.26,120.2,215.46,557.92,Single-ply,SBD,M
Boys,74.84,2,Scott Gonzales,Floresville,68.49,190.51,117.93,192.78,501.22,Single-ply,SBD,M
Boys,74.84,3,Jonathan Daughtery,Bandera,74.75,185.97,113.4,190.51,489.88,Single-ply,SBD,M
Boys,74.84,4,Stefen Villanueva,Floresville,73.66,179.17,113.4,195.04,487.61,Single-ply,SBD,M
Boys,74.84,5,Justin Villegas,Seguin,70.67,170.1,124.74,172.37,467.2,Single-ply,SBD,M
Boys,74.84,6,James Smith,Comal Canyon,73.94,165.56,115.67,181.44,462.66,Single-ply,SBD,M
Boys,74.84,7,Chase Horton,Blanco,74.48,188.24,92.99,170.1,451.32,Single-ply,SBD,M
Boys,74.84,8,Raul Hernandez,Del Rio,72.85,149.69,104.33,170.1,424.11,Single-ply,SBD,M
Boys,74.84,9,Joel Hinojosa,Seguin,74.43,149.69,81.65,165.56,396.89,Single-ply,SBD,M
Boys,74.84,DQ,Leroy Torres,Castroville Medina Valley,74.75,163.29,122.47,,,Single-ply,SBD,M
Boys,82.1,1,Raynard Taylor,Comal Canyon,80.29,260.82,156.49,244.94,662.24,Single-ply,SBD,M
Boys,82.1,2,Cj Felux,Floresville,78.93,208.65,115.67,233.6,557.92,Single-ply,SBD,M
Boys,82.1,3,Alex Juarez,Blanco,79.2,183.7,142.88,195.04,521.63,Single-ply,SBD,M
Boys,82.1,4,Jourden Stanley,Marion,78.93,179.17,120.2,215.46,514.83,Single-ply,SBD,M
Boys,82.1,5,Landon Ventura,Bandera,77.7,201.85,111.13,192.78,505.76,Single-ply,SBD,M
Boys,82.1,6,Preston Taggs,Floresville,78.65,188.24,113.4,188.24,489.88,Single-ply,SBD,M
Boys,82.1,7,Hagan Brown,Floresville,80.15,188.24,106.59,179.17,474,Single-ply,SBD,M
Boys,82.1,8,Jeremy Perez,San Antonio Holy Cross,81.6,165.56,92.99,165.56,424.11,Single-ply,SBD,M
Boys,82.1,9,Mickey Rodriguez,Del Rio,79.24,97.52,90.72,108.86,297.1,Single-ply,SBD,M
Boys,89.81,1,Sergio Zuniga,San Antonio Southside,83.1,247.21,136.08,208.65,591.94,Single-ply,SBD,M
Boys,89.81,2,Steven Cardenas,Seguin,88.22,215.46,113.4,199.58,528.44,Single-ply,SBD,M
Boys,89.81,3,Aikman Elrod,Blanco,89.27,199.58,133.81,188.24,521.63,Single-ply,SBD,M
Boys,89.81,4,Casey Nagy,Comal Canyon,84.59,179.17,133.81,192.78,505.76,Single-ply,SBD,M
Boys,89.81,5,Josh Guerra,Castroville Medina Valley,83.28,172.37,124.74,190.51,487.61,Single-ply,SBD,M
Boys,89.81,6,Jalen Rodriguez,Seguin,89.77,199.58,111.13,163.29,474,Single-ply,SBD,M
Boys,89.81,7,John Derry,Bandera,85.23,172.37,108.86,183.7,464.93,Single-ply,SBD,M
Boys,89.81,8,Joshia Ramirez,Floresville,87.36,163.29,113.4,183.7,460.4,Single-ply,SBD,M
Boys,89.81,9,George Bruce,Del Rio,85.5,156.49,113.4,174.63,444.52,Single-ply,SBD,M
Boys,89.81,10,Jeff Mendez,San Antonio Kennedy,89.45,172.37,86.18,174.63,433.18,Single-ply,SBD,M
Boys,89.81,11,Gus Martinez,Blanco,83.69,158.76,92.99,174.63,426.38,Single-ply,SBD,M
Boys,89.81,12,Lorenzo Washington,Marion,88.99,145.15,115.67,161.03,421.84,Single-ply,SBD,M
Boys,89.81,DQ,Adam Hernandez,Comal Canyon,84.46,140.61,,142.88,,Single-ply,SBD,M
Boys,89.81,DQ,Quinten Lazo,San Antonio Southside,87,183.7,102.06,,,Single-ply,SBD,M
Boys,99.79,1,Trevor Luckemeyer,Comal Canyon,94.26,281.23,133.81,244.94,659.98,Single-ply,SBD,M
Boys,99.79,2,David Moyet,San Antonio Southside,96.43,272.16,149.69,215.46,637.3,Single-ply,SBD,M
Boys,99.79,3,Khalid Schuler,Seguin,99.25,254.01,145.15,226.8,625.96,Single-ply,SBD,M
Boys,99.79,4,Mason LeBlanc,Blanco,99.34,242.67,140.61,222.26,605.55,Single-ply,SBD,M
Boys,99.79,5,Raphael Dehoyos,Marion,94.17,199.58,142.88,231.33,573.79,Single-ply,SBD,M
Boys,99.79,6,Joseph Galyon,Castroville Medina Valley,97.25,195.04,122.47,176.9,494.42,Single-ply,SBD,M
Boys,99.79,7,Fred Rodriguez,Seguin,99.34,195.04,136.08,158.76,489.88,Single-ply,SBD,M
Boys,99.79,8,Robert Hinojosa,San Antonio Kennedy,97.75,199.58,83.91,204.12,487.61,Single-ply,SBD,M
Boys,99.79,9,Isaac Guzmon,Castroville Medina Valley,94.85,172.37,113.4,183.7,469.47,Single-ply,SBD,M
Boys,99.79,10,Bryan Speilman,Del Rio,94.03,151.95,102.06,181.44,435.45,Single-ply,SBD,M
Boys,99.79,11,De'Angelo Sutton,Seguin,93.89,158.76,83.91,176.9,419.57,Single-ply,SBD,M
Boys,99.79,12,Christian Galavis,Del Rio,94.21,136.08,92.99,156.49,385.55,Single-ply,SBD,M
Boys,99.79,DQ,Noe Garcia #1,San Antonio Kennedy,90.4,,,,,Single-ply,SBD,M
Boys,109.77,1,Gilbert Garza,San Antonio Southside,109.18,233.6,158.76,204.12,596.47,Single-ply,SBD,M
Boys,124.74,2,Kyle Wilson,Bandera,110,219.99,138.35,222.26,580.6,Single-ply,SBD,M
Boys,109.77,3,Cory Opiela,Floresville,107.91,192.78,129.27,215.46,537.51,Single-ply,SBD,M
Boys,109.77,4,EJ Ascona,Comal Canyon,108.18,201.85,142.88,190.51,535.24,Single-ply,SBD,M
Boys,109.77,5,Martin Galvan,San Antonio Kennedy,107.95,192.78,131.54,185.97,510.29,Single-ply,SBD,M
Boys,124.74,1,D'Antre Smith,Seguin,122.29,283.5,158.76,235.87,678.12,Single-ply,SBD,M
Boys,124.74,2,Manuel Macias,Floresville,112.63,256.28,183.7,219.99,659.98,Single-ply,SBD,M
Boys,124.74,3,Oscar Flores,Comal Canyon,122.79,242.67,165.56,233.6,641.83,Single-ply,SBD,M
Boys,124.74,4,Hunter Goodman,Blanco,121.02,272.16,127.01,240.4,639.57,Single-ply,SBD,M
Boys,124.74,5,Bryce Dowda,Bandera,121.11,238.14,145.15,247.21,630.49,Single-ply,SBD,M
Boys,124.74,6,Damien Cantu,San Antonio Kennedy,120.79,204.12,142.88,195.04,542.04,Single-ply,SBD,M
Boys,124.74,7,Brandon Williams #1,Del Rio,122.7,188.24,117.93,176.9,483.08,Single-ply,SBD,M
Boys,124.74,8,Joshua Salinas,San Antonio Holy Cross,111.86,142.88,102.06,165.56,410.5,Single-ply,SBD,M
Boys,124.74,9,Tristen Bronson,Comal Canyon,112.58,131.54,74.84,147.42,353.8,Single-ply,SBD,M
Boys,124.74,DQ,Austin Banks-Wilson,Castroville Medina Valley,113.67,240.4,,,,Single-ply,SBD,M
Boys,124.74+,1,Ben Hartman,Del Rio,131.31,226.8,165.56,267.62,659.98,Single-ply,SBD,M
Boys,124.74+,2,Chris Frank,Del Rio,148.1,229.06,149.69,199.58,578.33,Single-ply,SBD,M
Boys,124.74+,3,Andrew Bachman,Bandera,132.77,217.72,154.22,192.78,564.72,Single-ply,SBD,M
Boys,124.74+,4,Roland Barcena,San Antonio Holy Cross,134.72,183.7,111.13,147.42,442.25,Single-ply,SBD,M
