Division,WeightClassKg,Place,Name,Team,BodyweightKg,Best3SquatKg,Best3BenchKg,Best3DeadliftKg,TotalKg,Equipment,Event,Sex
Boys,51.71,1,Will Soloman,Bastrop Cedar Creek,51.26,136.08,83.91,151.95,371.95,Single-ply,SBD,M
Boys,51.71,2,Colt Baranowski,Smithville,51.71,129.27,74.84,142.88,347,Single-ply,SBD,M
Boys,51.71,3,Nathan Jeter,Rockdale,51.26,102.06,63.5,122.47,288.03,Single-ply,SBD,M
Boys,51.71,4,Drey Rosas,Weimar,50.8,102.06,52.16,106.59,260.82,Single-ply,SBD,M
Boys,55.79,1,Christian Cravens,Bastrop Cedar Creek,53.52,86.18,38.56,102.06,226.8,Single-ply,SBD,M
Boys,55.79,DQ,Avery Boundy,Rockdale,55.34,86.18,,88.45,,Single-ply,SBD,M
Boys,59.87,1,Jeovanny Navarro,Rockdale,57.15,108.86,86.18,142.88,337.93,Single-ply,SBD,M
Boys,67.13,1,Jacob Reece,Bastrop,65.77,158.76,92.99,154.22,405.97,Single-ply,SBD,M
Boys,67.13,2,Adrian Sepulveda,Smithville,64.41,136.08,65.77,131.54,333.39,Single-ply,SBD,M
Boys,67.13,3,Micahel Cardenas,Gonzales,62.14,106.59,72.57,136.08,315.25,Single-ply,SBD,M
Boys,67.13,4,Ben White #4,Bastrop Cedar Creek,66.22,102.06,77.11,127.01,306.17,Single-ply,SBD,M
Boys,67.13,5,Apolo Ramos,Smithville,64.86,102.06,65.77,129.27,297.1,Single-ply,SBD,M
Boys,67.13,6,Josh Roberts #2,Bastrop Cedar Creek,62.14,95.25,52.16,104.33,251.74,Single-ply,SBD,M
Boys,67.13,7,Austin Stech,Weimar,64.41,79.38,47.63,102.06,229.06,Single-ply,SBD,M
Boys,74.84,1,Reggie Smith,Bastrop Cedar Creek,74.84,181.44,106.59,190.51,478.54,Single-ply,SBD,M
Boys,74.84,2,Daniel Cobia,Smithville,73.48,183.7,106.59,185.97,476.27,Single-ply,SBD,M
Boys,74.84,3,Clay Padgett,Smithville,71.67,174.63,104.33,151.95,430.91,Single-ply,SBD,M
Boys,74.84,4,Cullen Dees,Giddings,71.67,154.22,70.31,142.88,367.41,Single-ply,SBD,M
Boys,74.84,5,Houston Heger,Weimar,72.12,106.59,70.31,117.93,294.84,Single-ply,SBD,M
Boys,74.84,6,Nathan Thomas,Rockdale,70.31,99.79,92.99,99.79,292.57,Single-ply,SBD,M
Boys,82.1,1,Jacob Bandera,Smithville,81.65,215.46,124.74,197.31,537.51,Single-ply,SBD,M
Boys,82.1,2,Wayne Rinn,Bellville,79.38,215.46,111.13,192.78,519.36,Single-ply,SBD,M
Boys,82.1,3,Josh Garza,Bastrop Cedar Creek,81.65,199.58,99.79,219.99,519.36,Single-ply,SBD,M
Boys,82.1,4,Justin High,Bellville,82.1,165.56,117.93,124.74,408.23,Single-ply,SBD,M
Boys,82.1,5,Bruce Mayfield,Rockdale,80.74,165.56,97.52,140.61,403.7,Single-ply,SBD,M
Boys,82.1,6,Dustin Armstrong,Smithville,78.02,147.42,83.91,170.1,401.43,Single-ply,SBD,M
Boys,82.1,7,Tyler Pierpont,Gonzales,76.2,131.54,83.91,154.22,369.68,Single-ply,SBD,M
Boys,82.1,8,Cole Powell,Bellville,79.83,117.93,83.91,115.67,317.51,Single-ply,SBD,M
Boys,82.1,9,McCade Casas,Rockdale,80.29,104.33,52.16,99.79,256.28,Single-ply,SBD,M
Boys,82.1,DQ,Chris Remaley,Rockdale,79.38,149.69,,142.88,,Single-ply,SBD,M
Boys,82.1,DQ,Hayden Aguilar,Rockdale,79.83,99.79,,106.59,,Single-ply,SBD,M
Boys,89.81,1,Sergio Torres #1,Gonzales,83.46,183.7,115.67,204.12,503.49,Single-ply,SBD,M
Boys,89.81,2,Alex Marek,Bellville,83.46,192.78,108.86,183.7,485.34,Single-ply,SBD,M
Boys,89.81,3,Jude Dennis,Bastrop,89.36,170.1,106.59,183.7,460.4,Single-ply,SBD,M
Boys,89.81,4,Logan Gaskey,Bastrop,87.54,163.29,106.59,181.44,451.32,Single-ply,SBD,M
Boys,89.81,5,Blayne Ciancone,Bellville,84.37,158.76,90.72,156.49,405.97,Single-ply,SBD,M
Boys,89.81,6,Easton Kylberg,Giddings,86.64,149.69,92.99,154.22,396.89,Single-ply,SBD,M
Boys,89.81,7,Javier Ferretiz,Weimar,87.54,124.74,72.57,117.93,315.25,Single-ply,SBD,M
Boys,89.81,DQ,Coby Smith,Giddings,87.09,181.44,,,,Single-ply,SBD,M
Boys,99.79,1,AJ Castaneda,Bellville,91.63,272.16,183.7,238.14,694,Single-ply,SBD,M
Boys,99.79,2,Jacob Turner,Bastrop Cedar Creek,97.98,249.48,142.88,226.8,619.15,Single-ply,SBD,M
Boys,99.79,3,Sammy Segura,Giddings,92.53,238.14,151.95,206.38,596.47,Single-ply,SBD,M
Boys,99.79,4,Vincente Reyna,Gonzales,98.88,201.85,129.27,215.46,546.58,Single-ply,SBD,M
Boys,99.79,5,Christian Almaguer,Gonzales,97.07,170.1,106.59,183.7,460.4,Single-ply,SBD,M
Boys,99.79,6,Jacob Williams,Bastrop,97.07,158.76,158.76,142.88,460.4,Single-ply,SBD,M
Boys,99.79,7,Clayton Schroeder,Giddings,93.44,163.29,90.72,165.56,419.57,Single-ply,SBD,M
Boys,99.79,8,Cooper Helmcamp,Smithville,96.62,174.63,97.52,147.42,419.57,Single-ply,SBD,M
Boys,99.79,9,Tanner Blundell,Gonzales,90.72,142.88,86.18,161.03,390.09,Single-ply,SBD,M
Boys,99.79,10,Alex Ellison,Rockdale,95.71,136.08,86.18,147.42,369.68,Single-ply,SBD,M
Boys,99.79,DQ,Andrew Rodriguez,Giddings,93.44,154.22,,154.22,,Single-ply,SBD,M
Boys,109.77,1,Jared Esparza,Gonzales,100.24,240.4,154.22,233.6,628.23,Single-ply,SBD,M
Boys,109.77,2,Jordan Garza,Weimar,104.78,204.12,136.08,183.7,523.9,Single-ply,SBD,M
Boys,109.77,3,Willy Rangel,Bastrop Cedar Creek,104.78,172.37,108.86,190.51,471.74,Single-ply,SBD,M
Boys,109.77,4,Silvano Reves,Gonzales,106.59,170.1,108.86,151.95,430.91,Single-ply,SBD,M
Boys,109.77,5,Nick Koopman,Weimar,107.95,142.88,95.25,151.95,390.09,Single-ply,SBD,M
Boys,109.77,6,Gavin Aguilar,Rockdale,108.41,136.08,86.18,133.81,356.07,Single-ply,SBD,M
Boys,109.77,7,Zachary King,Bastrop,106.14,158.76,,142.88,301.64,Single-ply,SD,M
Boys,109.77,DQ,Robbie Gregg,Smithville,109.32,204.12,115.67,158.76,,Single-ply,SBD,M
Boys,124.74,1,Tyrone Wilson,Bastrop,118.39,215.46,149.69,233.6,598.74,Single-ply,SBD,M
Boys,124.74,2,D'Anthony Jackson,Giddings,124.28,231.33,127.01,199.58,557.92,Single-ply,SBD,M
Boys,124.74,3,Ryan Gomez,Gonzales,122.47,201.85,129.27,215.46,546.58,Single-ply,SBD,M
Boys,124.74,4,Cameron Anderson,Bellville,117.48,204.12,124.74,183.7,512.56,Single-ply,SBD,M
Boys,124.74,DQ,Woodrow Beltran,Giddings,115.21,154.22,90.72,,,Single-ply,SBD,M
Boys,124.74+,1,Chris Sifuentes,Giddings,142.43,260.82,140.61,231.33,632.76,Single-ply,SBD,M
Boys,124.74+,2,Chris Julson,Bastrop Cedar Creek,136.53,238.14,136.08,226.8,601.01,Single-ply,SBD,M
Boys,124.74+,3,Brian George,Bastrop Cedar Creek,135.62,238.14,124.74,226.8,589.67,Single-ply,SBD,M
Boys,124.74+,4,Ethan Psencik,Smithville,126.1,217.72,142.88,190.51,551.11,Single-ply,SBD,M
