Place,Name,State,WeightClassKg,BodyweightKg,BirthDate,Age,Squat1Kg,Squat2Kg,Squat3Kg,Best3SquatKg,Bench1Kg,Bench2Kg,Bench3Kg,Best3BenchKg,Deadlift1Kg,Deadlift2Kg,Deadlift3Kg,Best3DeadliftKg,TotalKg,Squat4Kg,Deadlift4Kg,Event,Equipment,Sex,Division,Tested
1,Amity Lozada,CA,67.5,66.6,,17,90,97.5,-102.5,97.5,50,55,57.5,57.5,115,125,132.5,132.5,287.5,,,SBD,Raw,F,Juniors 16-17,Yes
1,Jade Reyes,CA,82.5,82.3,,19,-75,75,82.5,82.5,27.5,30,35,35,85,97.5,-115,97.5,215,,,SBD,Raw,F,Juniors 18-19,Yes
1,Fernanda Rodriguez,CA,82.5,79.9,,22,107.5,120,-130,120,57.5,62.5,-67.5,62.5,157.5,167.5,175,175,357.5,,,SBD,Raw,F,Juniors 20-23,Yes
DQ,Kelsey Brown #1,IL,90+,137,,23,-170,-182.5,-190,,,,,,,,,,,,,SBD,Raw,F,Juniors 20-23,Yes
1,Donna Cooper,CA,48,46.2,,63,37.5,45,50,50,25,27.5,-30,27.5,52.5,57.5,65,65,142.5,,,SBD,Raw,F,Open,Yes
1,Anna Quenano,CA,52,51.3,,24,82.5,92.5,-100,92.5,57.5,62.5,65,65,90,100,105,105,262.5,,,SBD,Raw,F,Open,Yes
2,Katie Quick,CA,52,48.6,,41,67.5,72.5,-77.5,72.5,40,47.5,-52.5,47.5,90,97.5,105,105,225,,,SBD,Raw,F,Open,Yes
3,Michele Fisher,CA,52,49.1,,57,-37.5,-37.5,37.5,37.5,25,27.5,-30,27.5,60,65,72.5,72.5,137.5,,75,SBD,Raw,F,Open,Yes
1,Sandra Biones,CA,56,55.3,,28,87.5,92.5,-95,92.5,35,37.5,-42.5,37.5,115,117.5,120,120,250,,,SBD,Raw,F,Open,Yes
1,Veronica Campbell,CA,60,59.4,,37,122.5,-130,-130,122.5,65,-70,-70,65,147.5,157.5,161,161,348.5,,162.5,SBD,Raw,F,Open,Yes
2,Charlene Logsdon,CA,60,59.8,,28,80,90,-97.5,90,52.5,-62.5,62.5,62.5,110,120,140,140,292.5,,,SBD,Raw,F,Open,Yes
3,Dayna Garrido,CA,60,56.7,,27,70,75,82.5,82.5,42.5,45,-50,45,105,110,120,120,247.5,,,SBD,Raw,F,Open,Yes
1,Elsie Woo,CA,67.5,65.2,,25,135,142.5,-152.5,142.5,82.5,90,95,95,145,152.5,-165,152.5,390,,,SBD,Raw,F,Open,Yes
2,Alisha Oseguera,CA,67.5,67,,25,107.5,112.5,120,120,65,67.5,-70,67.5,145,150,160,160,347.5,,,SBD,Raw,F,Open,Yes
3,Sharla Conrad,CA,67.5,64.5,,31,75,77.5,-85,77.5,40,47.5,50,50,90,97.5,107.5,107.5,235,,,SBD,Raw,F,Open,Yes
1,Alex Baudendistel,CA,75,75,,29,127.5,137.5,-140,137.5,80,85,-90,85,152.5,-162.5,,152.5,375,,,SBD,Raw,F,Open,Yes
2,Kristine Kobza,AZ,75,73.6,,53,115,,,115,80,85,,85,160,,,160,360,,,SBD,Raw,F,Open,Yes
3,Shannon Slaught,CA,75,74.6,,26,100,107.5,117.5,117.5,57.5,-67.5,-67.5,57.5,115,122.5,-137.5,122.5,297.5,,,SBD,Raw,F,Open,Yes
4,Hailey Leighton,CA,75,73.2,,25,-95,-102.5,102.5,102.5,55,-60,-60,55,-105,105,112.5,112.5,270,,,SBD,Raw,F,Open,Yes
1,Jessica Matias,CA,82.5,78.1,,28,135,142.5,147.5,147.5,57.5,-62.5,-62.5,57.5,177.5,187.5,-192.5,187.5,392.5,,,SBD,Raw,F,Open,Yes
2,Fernanda Rodriguez,CA,82.5,79.9,,22,107.5,120,-130,120,57.5,62.5,-67.5,62.5,157.5,167.5,175,175,357.5,,,SBD,Raw,F,Open,Yes
3,Becky Basulto,CA,82.5,81.4,,33,-132.5,132.5,-135,132.5,62.5,67.5,-70,67.5,140,145,150,150,350,,,SBD,Raw,F,Open,Yes
4,Kellie Avery,CA,82.5,79.3,,28,125,130,-137.5,130,62.5,65,-70,65,130,140,150,150,345,,,SBD,Raw,F,Open,Yes
5,Theresa-Mae Galac,CA,82.5,79.7,,27,125,-132.5,132.5,132.5,57.5,62.5,-67.5,62.5,132.5,140,145,145,340,,,SBD,Raw,F,Open,Yes
6,Kelsey Lujan,CA,82.5,80.7,,26,122.5,132.5,142.5,142.5,42.5,50,-55,50,122.5,132.5,142.5,142.5,335,,,SBD,Raw,F,Open,Yes
7,Tina Hairston,CA,82.5,80.5,,37,97.5,105,115,115,57.5,65,-70,65,-122.5,132.5,-137.5,132.5,312.5,,,SBD,Raw,F,Open,Yes
1,Courtney Minton-Collins,CA,90,87.4,,31,87.5,-92.5,92.5,92.5,55,60,-62.5,60,117.5,127.5,132.5,132.5,285,,,SBD,Raw,F,Open,Yes
1,Michelle Florey,CA,90+,116.7,,30,132.5,147.5,157.5,157.5,60,67.5,72.5,72.5,140,150,155,155,385,,,SBD,Raw,F,Open,Yes
DQ,Kelsey Brown #1,IL,90+,137,,23,-170,-182.5,-190,,,,,,,,,,,,,SBD,Raw,F,Open,Yes
1,Veronica Campbell,CA,60,59.4,,37,122.5,-130,-130,122.5,65,-70,-70,65,147.5,157.5,161,161,348.5,,162.5,SBD,Raw,F,Submasters 35-39,Yes
2,Samantha Case,CA,60,59.4,,38,85,95,105,105,50,55,57.5,57.5,105,117.5,127.5,127.5,290,,,SBD,Raw,F,Submasters 35-39,Yes
1,Tori Avery,CA,75,73.7,,37,82.5,90,100,100,57.5,62.5,65,65,110,120,127.5,127.5,292.5,,,SBD,Raw,F,Submasters 35-39,Yes
1,Donna Cooper,CA,48,46.2,,63,37.5,45,50,50,25,27.5,-30,27.5,52.5,57.5,65,65,142.5,,,SBD,Raw,F,Masters 60-64,Yes
1,Michele Fisher,CA,52,49.1,,57,-37.5,-37.5,37.5,37.5,25,27.5,-30,27.5,60,65,72.5,72.5,137.5,,75,SBD,Raw,F,Masters 55-59,Yes
1,Gale Hutton,CA,52,51.1,,63,82.5,-87.5,-87.5,82.5,60,65,70,70,80,85,90,90,242.5,,,SBD,Raw,F,Masters 60-64,Yes
1,Kristine Kobza,AZ,75,73.6,,53,115,,,115,80,85,,85,160,,,160,360,,,SBD,Raw,F,Masters 50-54,Yes
1,Joshua Seno,CA,60,58,,23,147.5,152.5,155,155,-105,105,107.5,107.5,190,200,212.5,212.5,475,,217.5,SBD,Raw,M,Juniors 20-23,Yes
1,Carmen Mancera Garcia,CA,67.5,65,,23,160,172.5,180,180,97.5,105,-110,105,197.5,210,-225,210,495,,,SBD,Raw,M,Juniors 20-23,Yes
2,Brian Mendiola,CA,67.5,64,,21,147.5,157.5,-167.5,157.5,92.5,-100,-100,92.5,205,220,-230,220,470,,,SBD,Raw,M,Juniors 20-23,Yes
3,John Yi,CA,67.5,66.6,,22,130,-140,-145,130,97.5,102.5,107.5,107.5,-167.5,167.5,185,185,422.5,,,SBD,Raw,M,Juniors 20-23,Yes
1,Jaden Codorniz,CA,75,72.1,,17,142.5,-152.5,152.5,152.5,100,107.5,-110,107.5,217.5,-227.5,-227.5,217.5,477.5,,,SBD,Raw,M,Juniors 16-17,Yes
1,Riad Solagh,CA,75,72.9,,19,145,157.5,167.5,167.5,-82.5,-92.5,92.5,92.5,175,185,197.5,197.5,457.5,,,SBD,Raw,M,Juniors 18-19,Yes
1,Miguel Valtierra,CA,82.5,80.8,,22,182.5,192.5,200,200,125,-130,130,130,227.5,235,-242.5,235,565,,,SBD,Raw,M,Juniors 20-23,Yes
2,Christian Rogacion,CA,82.5,80.3,,23,170,175,185,185,97.5,105,112.5,112.5,205,210,-217.5,210,507.5,,,SBD,Raw,M,Juniors 20-23,Yes
1,Josiah Robles,CA,90,85.6,,18,210,220,225,225,135,145,-150,145,-250,250,-260,250,620,,,SBD,Raw,M,Juniors 18-19,Yes
1,Richard San Nicolas Jr,CA,90,89.4,,20,227.5,-245,-245,227.5,142.5,157.5,-162.5,157.5,265,-287.5,-290,265,650,,,SBD,Raw,M,Juniors 20-23,Yes
2,Nkosi Miller,CA,90,86.1,,22,205,215,-230,215,137.5,147.5,-160,147.5,227.5,247.5,-260,247.5,610,,,SBD,Raw,M,Juniors 20-23,Yes
3,Larry Johnson #3,CA,90,88.7,,22,-180,180,-197.5,180,-95,-97.5,102.5,102.5,222.5,245,255,255,537.5,,,SBD,Raw,M,Juniors 20-23,Yes
1,Lucas Lunsford,CA,140,139.5,,23,-220,-220,220,220,125,-137.5,-142.5,125,212.5,230,245,245,590,,,SBD,Raw,M,Juniors 20-23,Yes
1,Brandon Rosete,CA,140+,160.3,,23,-317.5,345,365,365,137.5,150,165,165,275,302.5,325,325,855,372.5,,SBD,Raw,M,Juniors 20-23,Yes
1,Andrew Oreta,CA,60,59.8,,25,175,182.5,185,185,117.5,125,127.5,127.5,220,237.5,247.5,247.5,560,,,SBD,Raw,M,Open,Yes
2,Kevin Emboltura,CA,60,58.2,,27,185,190,-192.5,190,115,122.5,125,125,195,205,210,210,525,,,SBD,Raw,M,Open,Yes
3,Andre Whiteside,CA,60,60,,39,110,125,137.5,137.5,92.5,105,115,115,155,-170,182.5,182.5,435,,,SBD,Raw,M,Open,Yes
1,Carmen Mancera Garcia,CA,67.5,65,,23,160,172.5,180,180,97.5,105,-110,105,197.5,210,-225,210,495,,,SBD,Raw,M,Open,Yes
2,Karl Trayvilla,CA,67.5,61.2,,25,137.5,142.5,147.5,147.5,95,102.5,105,105,187.5,195,207.5,207.5,460,,,SBD,Raw,M,Open,Yes
1,Jaden Codorniz,CA,75,72.1,,17,142.5,-152.5,152.5,152.5,100,107.5,-110,107.5,217.5,-227.5,-227.5,217.5,477.5,,,SBD,Raw,M,Open,Yes
2,Aaron Liu,CA,75,74.3,,29,135,140,145,145,90,95,100,100,177.5,185,195,195,440,,,SBD,Raw,M,Open,Yes
1,Miguel Valtierra,CA,82.5,80.8,,22,182.5,192.5,200,200,125,-130,130,130,227.5,235,-242.5,235,565,,,SBD,Raw,M,Open,Yes
2,Ulysses Dinero,CA,82.5,81.8,,26,160,167.5,180,180,120,127.5,142.5,142.5,180,192.5,205,205,527.5,,,SBD,Raw,M,Open,Yes
3,Daniel Moreno #1,CA,82.5,80.5,,24,-182.5,182.5,-197.5,182.5,122.5,-130,130,130,175,187.5,200,200,512.5,,,SBD,Raw,M,Open,Yes
4,Alfred Lopez,CA,82.5,80.2,,26,157.5,162.5,170,170,102.5,107.5,115,115,187.5,190,-205,190,475,,,SBD,Raw,M,Open,Yes
5,Tim Mcfarland,CA,82.5,79.1,,34,140,152.5,162.5,162.5,97.5,102.5,107.5,107.5,185,195,202.5,202.5,472.5,,,SBD,Raw,M,Open,Yes
1,Allen Guevarra,CA,90,89.1,,27,225,237.5,-242.5,237.5,140,142.5,145,145,265,275,282.5,282.5,665,,,SBD,Raw,M,Open,Yes
2,Richard San Nicolas Jr,CA,90,89.4,,20,227.5,-245,-245,227.5,142.5,157.5,-162.5,157.5,265,-287.5,-290,265,650,,,SBD,Raw,M,Open,Yes
3,Alvs Mondares,CA,90,86.9,,32,222.5,235,237.5,237.5,120,127.5,-135,127.5,247.5,262.5,280,280,645,,,SBD,Raw,M,Open,Yes
4,Isaiah Lambert,CA,90,86.8,,24,215,227.5,237.5,237.5,135,147.5,160,160,220,232.5,-245,232.5,630,,,SBD,Raw,M,Open,Yes
5,Jon Salas,CA,90,85.5,,25,192.5,210,-227.5,210,135,-142.5,142.5,142.5,227.5,245,260,260,612.5,,,SBD,Raw,M,Open,Yes
6,Anthony Steiner,CA,90,89,,27,185,195,202.5,202.5,152.5,-160,160,160,227.5,240,-245,240,602.5,,,SBD,Raw,M,Open,Yes
7,Trevor Viboch,CA,90,88.2,,31,185,192.5,-205,192.5,-107.5,107.5,-115,107.5,210,220,-242.5,220,520,,,SBD,Raw,M,Open,Yes
8,Cameron Lazenberry,CA,90,88,,24,160,170,-182.5,170,117.5,125,-132.5,125,192.5,205,217.5,217.5,512.5,,,SBD,Raw,M,Open,Yes
9,Ryan Freeman,CA,90,88.6,,30,152.5,160,167.5,167.5,125,132.5,140,140,155,162.5,172.5,172.5,480,,,SBD,Raw,M,Open,Yes
1,Christopher Fisher,CA,100,100,,24,210,220,227.5,227.5,-150,-150,150,150,252.5,265,272.5,272.5,650,,,SBD,Raw,M,Open,Yes
2,Tamer Houx,CA,100,99.8,,28,175,192.5,197.5,197.5,132.5,142.5,-147.5,142.5,265,287.5,-292.5,287.5,627.5,,,SBD,Raw,M,Open,Yes
3,Steven Brown #1,CA,100,92.7,,30,210,222.5,230,230,125,132.5,137.5,137.5,235,247.5,257.5,257.5,625,,,SBD,Raw,M,Open,Yes
4,Thomas Miller #6,CA,100,98.4,,24,177.5,190,-205,190,127.5,-147.5,-147.5,127.5,227.5,245,-260,245,562.5,,,SBD,Raw,M,Open,Yes
5,Brent Sturgeon,CA,100,95.3,,30,185,195,200,200,107.5,112.5,,112.5,207.5,215,230,230,542.5,,,SBD,Raw,M,Open,Yes
6,Wyatt Williams,CA,100,96,,22,140,155,162.5,162.5,80,90,-105,90,182.5,200,-227.5,200,452.5,,,SBD,Raw,M,Open,Yes
7,Charl Hanna,CA,100,98.1,,25,-137.5,-137.5,137.5,137.5,92.5,97.5,-102.5,97.5,175,185,190,190,425,,,SBD,Raw,M,Open,Yes
8,Markos Daskalakis,CA,100,99.1,,24,140,150,155,155,-80,80,-87.5,80,162.5,175,-182.5,175,410,,,SBD,Raw,M,Open,Yes
1,Jesse Reichle,CA,110,109.6,,26,202.5,-215,225,225,147.5,-160,-170,147.5,250,-267.5,267.5,267.5,640,,,SBD,Raw,M,Open,Yes
2,Christopher Ault,CA,110,105.9,,28,-180,180,182.5,182.5,130,140,142.5,142.5,227.5,242.5,-250,242.5,567.5,,,SBD,Raw,M,Open,Yes
1,Lucas Lunsford,CA,140,139.5,,23,-220,-220,220,220,125,-137.5,-142.5,125,212.5,230,245,245,590,,,SBD,Raw,M,Open,Yes
2,Ricardo Villegas,CA,140,125.9,,34,150,160,-170,160,80,82.5,-87.5,82.5,165,175,182.5,182.5,425,,,SBD,Raw,M,Open,Yes
DQ,Alex Clawson,CA,140,139.4,,32,-127.5,-127.5,-127.5,,87.5,95,100,100,170,180,185,185,,,,SBD,Raw,M,Open,Yes
1,Brandon Rosete,CA,140+,160.3,,23,-317.5,345,365,365,137.5,150,165,165,275,302.5,325,325,855,372.5,,SBD,Raw,M,Open,Yes
1,Tyner Wilson,CA,75,74.2,,40,-150,155,-157.5,155,95,102.5,107.5,107.5,200,212.5,-215,212.5,475,,,SBD,Raw,M,Masters 40-44,Yes
1,Steve Busch,CA,110,106,,67,145,157.5,,157.5,65,70,75,75,190,202.5,212.5,212.5,445,,,SBD,Raw,M,Masters 65-69,Yes
DD,Parker Belle,CA,90,84.4,,20,230,-242.5,-242.5,230,-152.5,167.5,175,175,240,260,-277.5,260,,,,SBD,Wraps,M,Juniors 20-23,Yes
1,David Van #1,CA,56,55.7,,33,-135,140,-145,140,87.5,-102.5,-102.5,87.5,-182.5,190,-192.5,190,417.5,,,SBD,Wraps,M,Open,Yes
1,Delawar Roashan,CA,100,98.1,,30,-205,205,-212.5,205,145,-150,-150,145,260,275,-280,275,625,,,SBD,Wraps,M,Open,Yes
1,John Bozarth,CA,110,109.6,,25,-202.5,202.5,-227.5,202.5,127.5,140,-150,140,205,-227.5,227.5,227.5,570,,,SBD,Wraps,M,Open,Yes
1,Bernardo Separa,CA,75,75,,51,150,165,-180,165,140,-157.5,157.5,157.5,185,200,210,210,532.5,,,SBD,Wraps,M,Masters 50-54,Yes
1,George Ande,CA,90,89.2,,68,132.5,-142.5,-142.5,132.5,80,-85,-85,80,155,165,-172.5,165,377.5,,,SBD,Wraps,M,Masters 65-69,Yes
DQ,Joe Dentice,NV,100,99.7,,61,-167.5,-167.5,-167.5,,,,,,,,,,,,,SBD,Wraps,M,Masters 60-64,Yes
1,Tyler McKee,CA,125,118.9,,29,-210,-210,210,210,102.5,150,-152.5,150,215,220,-225,220,580,,,SBD,Single-ply,M,Open,Yes
1,David Van #1,CA,56,55.7,,33,,,,,,,,,-182.5,190,-192.5,190,190,,,D,Raw,M,Open,Yes
1,Tamer Houx,CA,100,99.8,,28,,,,,,,,,265,287.5,-292.5,287.5,287.5,,,D,Raw,M,Open,Yes
1,John P. Thomas,CA,82.5,80.6,,66,,,,,,,,,160,-165,-165,160,160,,,D,Raw,M,Masters 65-69,Yes
1,Steve Busch,CA,110,106,,67,,,,,,,,,190,202.5,212.5,212.5,212.5,,,D,Raw,M,Masters 65-69,Yes
